ID	RIN
6004	6
6005	4.9
6006	1.9
6007	5.5
6008	6.9
6009	6.9
6010	3.2
6011	6.2
6012	1.9
6013	3.4
6014	6.8
6015	7.2
6016	5.2
6017	3.1
6019	3.2
6020	5.5
6021	3.5
6022	3.7
6024	2.8
6025	3.9
6026	5.4
6027	2.5
6028	2.3
6029	1.9
6030	2.1
6031	2.9
6032	2.3
6033	6.3
6034	7.7
6035	5
6037	4.9
6038	5.6
6039	2.2
6040	3
6041	7.2
6042	2.7
6043	1.8
6044	2.4
6045	6.4
6046	2.4
6048	5.8
6049	7.9
6051	5.2
6052	3.7
6053	5.9
6054	4.6
6055	2.9
6057	5.8
6058	6.2
6059	3
6060	3.7
6061	6.3
6062	4.6
6063	2.7
6064	7.1
6065	NA
6066	2.2
6067	4.1
6068	NA
6069	8.1
6070	4.7
6071	NA
6073	6.5
6075	3.6
6076	7.8
6077	7
6078	2.2
6079	6.1
6080	5.4
6081	5.1
6082	2
6083	5
6084	2.1
6085	2.4
6086	2.4
6087	2.4
6088	7.3
6089	3.4
6090	4.6
6091	4.3
6092	6.3
6093	2.2
6094	4.5
6095	4
6096	3.6
6096	2.3
6097	2
6098	4.4
6098	4.8
6099	2.7
6099	5.7
6101	5.2
6102	5
6103	6.4
6104	6.6
6105	7.1
6106	5.2
6107	5.3
6108	2.4
6109	2.5
6110	2.6
6111	2.4
6112	2.4
6113	2.4
6114	4.1
6115	5.2
6117	4.5
6118	2.4
6119	2
6122	2.8
6123	2.5
6124	6.6
6125	2.9
6126	2.1
6127	4.6
6127	5.7
6128	5.4
6129	2.8
6130	3.8
6131	2.1
6132	5.7
6133	6.7
6134	2.2
6135	6.9
6136	6.6
6137	5.7
6138	6.2
6139	3.7
6140	4.9
6141	6.7
6141	6.1
6142	3.5
6143	8.1
6144	3.1
6145	2.9
6147	2.36
6148	5.1
6149	2.7
6150	8.1
6151	5.4
6152	7.1
6153	4.6
6154	3.5
6155	5.1
6156	3.3
6157	4.1
6158	4.3
6159	5.5
6160	7.3
6161	8.7
6162	3.5
6163	2.3
6164	3.4
6166	6.8
6167	3
6168	5.9
6169	2.8
6170	6.8
6172	6.1
6173	6.2
6174	3.5
6175	5.2
6176	6.8
6177	8
6178	6.9
6179	6.9
6179	2.3
6180	6.1
6181	2.3
6182	4.8
6183	3.4
6184	3.8
6185	4.2
6186	3.6
6187	4.4
6188	4.6
6189	2.4
6190	4.3
6191	7.1
6194	5.6
6195	6.4
6196	6.5
6197	7.8
6198	8
6199	5.5
6201	NA
6202	4.9
6203	6.4
6204	6.4
6205	5.4
6206	6.1
6207	6.1
6208	7
6209	5.8
6211	6.6
6212	6.1
6213	6.3
6215	6.7
6217	6
6220	7
6221	5.7
6223	6.3
6224	6.3
6225	3.7
6226	5.9
6227	6.6
6228	7.2
6229	6
6230	4.1
6231	6.1
6232	6.3
6233	6.5
6234	5.8
6235	5.1
6236	4.7
6237	6.7
6238	4.2
6239	7.5
6240	7
6241	7.8
6242	5.5
6243	5.7
6244	NA
6244	6.7
6245	7.3
6246	6.8
6247	7.4
6248	7.1
6249	6.5
6251	NA
6251	7.1
6252	6.3
6253	6.8
6254	6.4
6255	5.8
6257	7.2
6258	7.9
6259	6
6261	5.6
6262	8.3
6263	8.2
6264	7.2
6265	6.9
6266	5.9
6267	7.1
6268	7.1
6269	7.1
6270	6.5
6271	2.1
6272	5.9
6273	4.6
6274	6.3
6275	6
6276	7.8
6277	8
6278	6.3
6279	4.7
6280	6.3
6281	6.1
6282	8
6283	6.6
6284	5.9
6285	8.4
6286	4.2
6286	6.1
6287	5
6288	6.3
6289	5.9
6290	6.2
6291	6.2
6291	5.3
6292	6.7
6293	6.4
6294	6
6295	5.5
6296	7.3
6297	6.6
6298	7
6299	7.2
6300	7.1
6301	6.4
6302	5.6
6303	NA
6304	3.7
6305	6.9
6307	6.8
6308	6.3
6310	2.9
6311	7.4
6312	5.7
6313	6.1
6314	2.2
6316	4.5
6317	5.2
6318	3.8
6319	7.2
6320	3.6
6321	6
6322	2.4
6324	5
6325	6.2
6326	2.1
6327	6.2
6327	5.7
6328	6
6329	4.9
6329	5.9
6330	4
6330	5.9
6331	3
6331	2.7
6332	6.3
6333	6.7
6334	2.5
6334	4.3
6335	6.4
6335	6.5
6336	6.5
6336	6.4
6337	4.8
6337	3.1
6338	6.6
6338	5.5
6339	2.2
6339	2.3
6340	3
6341	3.8
6343	6.1
6344	3.8
6345	7
6347	4.4
6348	4.8
6349	7.6
6350	7
6351	7.5
6353	4.8
6354	2
6355	4.6
6355	4
6356	7
6357	6.8
6358	6.7
6359	6.2
6360	6.9
6361	5.6
6362	3
6363	1.8
6364	6
6365	5.4
6366	2.1
6368	3.6
6369	5.9
6371	6.8
6372	4.9
6373	6.7
6374	3.4
6375	3.1
6377	2.6
6378	3
6379	5.3
6380	5.2
6381	2.3
6382	2
6383	2.1
6384	2.9
6385	3
6386	2.4
6387	5.2
6388	3.4
6389	5
6390	2.3
6391	2.1
6392	2.6
6393	5.3
6394	4
6395	2.1
6396	3.8
6397	2.3
6398	1.7
6399	2.2
6400	6.2
6401	3.9
6403	2.9
6404	7.1
6405	2
6406	5.1
6407	2.8
6408	2.4
6409	2.4
6410	7.2
6411	4.3
6412	2.3
6413	6.4
6415	6.4
6416	2.4
6417	6.2
6418	4.3
6419	7.4
6420	4.7
6421	2.3
6422	2.8
6423	2.4
6424	2
6425	6.1
6426	3
6428	5
6429	4.9
6430	5.3
6431	2.4
6432	2.7
6433	2.6
6434	2.5
6436	5.7
6437	4.2
6438	6.3
6439	2.2
6440	5.6
6441	7.7
6442	7
6443	7.4
6444	7.3
6445	7.3
6447	7.3
6449	6.4
6450	6
6452	6.9
6454	7.1
6455	7
6456	7.7
6457	7.8
6459	7.5
6461	6.1
6462	7
6464	7
6467	8.8
6468	8
6469	8.2
6470	8.6
6471	6.2
6472	8.8
6475	8.6
6476	7.8
6478	8.3
6479	6.8
6481	6.3
6482	6.9
6483	6.8
6486	6.1
6487	4.7
6488	6.8
6489	6.4
6490	7
6491	6.5
6492	7.2
6493	6.9
6494	6.5
6495	6.1
6496	6.6
6497	6.2
6498	6.7
6501	6.5
6502	6.7
6503	6.7
