ID	sampleID	mastcell.density	tryptase.density	macrophage.density	neutrophil.density
6098	6098a-32424134	45.3870425439982	0	0	0
6098	6098b-32424134	0	0	0	0
6126	6126a-32424134	31.7891438802083	0	95.367431640625	0
6126	6126b-32424134	0	0	17.3463546635675	0
6126	6126c-32424134	34.6927093271349	0	0	0
6130	6130-32424134	47.7019581653827	47.7019581653827	0	0
6131	6131-32424134	0	0	0	0
6153	6153-32424134	0	0	0	0
6160	6160-32424134	10.0827796206858	10.0827796206858	10.0827796206858	10.0827796206858
6229	6229-32424134	0	0	0	0
6233	6233-32424134	0	0	327.186198691255	0
6227	6227-32424134	0	0	74.360499702558	0
6230	6230-32424134	0	0	68.6404612638997	0
6374	6374-32424134	0	0	42.4917141157474	0
6226	6226-32424134	22.8801537546332	0	34.3202306319498	0
6232	6232-32424134	0	0	247.86833234186	0
6331	6331-32424134	0	0	78.569584591382	0
6412	6412b-32424134	0	0	0	0
6412	6412a-32424134	0	0	51.7290432713447	25.8645216356723
6417	6417a-32424134	0	0	93.984962406015	0
6417	6417b-32424134	185.901249256395	185.901249256395	0	0
6151	6151-32424134	21.2012635953103	0	0	0
6156	6156-32424134	55.475707520531	0	66.5708490246372	11.0951415041062
6158	6158a-32424134	0	0	0	0
6158	6158b-32424134	49.573666468372	0	0	5.50818516315244
6197	6197-32424134	0	0	222.293356096173	0
6301	6301-32424134	11.6643921102052	11.6643921102052	186.630273763283	0
6303	6303-32424134	16.5245554894573	16.5245554894573	49.573666468372	0
6314	6314a-32424134	39.6589331746976	39.6589331746976	39.6589331746976	0
6314	6314b-32424134	12.1404897473564	12.1404897473564	0	0
6388	6388-32424134	0	0	69.9863526612311	34.9931763306155
6400	6400-32424134	33.0491109789147	33.0491109789147	99.147332936744	0
6424	6424a-32424134	78.0175734584215	78.0175734584215	117.026360187632	0
6424	6424b-32424134	49.573666468372	49.573666468372	198.294665873488	99.147332936744
6433	6433a-32424134	24.2954324586978	24.2954324586978	12.1477162293489	0
6397	6397-32424134	23.7953599048186	23.7953599048186	47.5907198096371	0
6433	6433b-32424134	0	0	0	0
6421	6421-32424134	0	0	49.674581814533	0
6063	6063-32424134	24.786833234186	24.786833234186	0	12.393416617093
6064	6064-32424134	11.8563288016073	11.8563288016073	59.2816440080367	391.258850453042
6087	6087a-32424134	66.5346618974621	66.5346618974621	88.7128825299495	0
6087	6087b-32424134	58.8532745491133	58.8532745491133	94.1652392785813	0
6113	6113-32424134	0	0	383.008712171506	127.669570723835
6198	6198-32424134	55.989473978892	55.989473978892	0	83.9842109683379
6204	6204a-32424134	0	0	0	216.709141658432
6204	6204b-32424134	8.03897294081708	0	0	217.052269402061
6209	6209-32424134	0	0	0	0
6228	6228a-32424134	0	0	74.360499702558	0
6228	6228b-32424134	0	0	162.596338330461	97.5578029982765
6228	6228c-32424134	0	0	23.8509790826913	0
6362	6362-32424134	33.0491109789147	33.0491109789147	148.720999405116	0
6380	6380-32424134	12.523873634115	12.523873634115	56.3574313535176	0
6436	6436a-32424134	0	0	129.322608178362	0
6436	6436b-32424134	40.5602725650316	40.5602725650316	13.5200908550105	216.321453680169
6337	6337-32424134	44.6162998215348	44.6162998215348	29.7441998810232	0
6243	6243-32424134	33.5145914152374	33.5145914152374	0	16.7572957076187
6360	6360-32424134	0	0	0	0
6211	6211a-32424134	8.87886563612633	8.87886563612633	62.1520594528843	0
6211	6211b-32424134	12.393416617093	0	0	6.1967083085465
6405	6405-32424134	74.5747269659443	74.5747269659443	95.881791813357	0
6124	6124-32424134	0	0	62.6193681705752	0
6127	6127-32424134	0	0	99.147332936744	0
6133	6133-32424134	12.6571063323503	0	63.2855316617515	37.9713189970509
