RRID,nPODCaseID
 RRID:SAMN15879056,69
 RRID:SAMN15879057,5000
 RRID:SAMN15879058,6001
 RRID:SAMN15879059,6002
 RRID:SAMN15879060,6003
 RRID:SAMN15879061,6004
 RRID:SAMN15879062,6005
 RRID:SAMN15879063,6006
 RRID:SAMN15879064,6007
 RRID:SAMN15879065,6008
 RRID:SAMN15879066,6009
 RRID:SAMN15879067,6010
 RRID:SAMN15879068,6011
 RRID:SAMN15879069,6012
 RRID:SAMN15879070,6013
 RRID:SAMN15879071,6014
 RRID:SAMN15879072,6015
 RRID:SAMN15879073,6016
 RRID:SAMN15879074,6017
 RRID:SAMN15879075,6018
 RRID:SAMN15879076,6019
 RRID:SAMN15879077,6020
 RRID:SAMN15879078,6021
 RRID:SAMN15879079,6022
 RRID:SAMN15879080,6023
 RRID:SAMN15879081,6024
 RRID:SAMN15879082,6025
 RRID:SAMN15879083,6026
 RRID:SAMN15879084,6027
 RRID:SAMN15879085,6028
 RRID:SAMN15879086,6029
 RRID:SAMN15879087,6030
 RRID:SAMN15879088,6031
 RRID:SAMN15879089,6032
 RRID:SAMN15879090,6033
 RRID:SAMN15879091,6034
 RRID:SAMN15879092,6035
 RRID:SAMN15879093,6036
 RRID:SAMN15879094,6037
 RRID:SAMN15879095,6038
 RRID:SAMN15879096,6039
 RRID:SAMN15879097,6040
 RRID:SAMN15879098,6041
 RRID:SAMN15879099,6042
 RRID:SAMN15879100,6043
 RRID:SAMN15879101,6044
 RRID:SAMN15879102,6045
 RRID:SAMN15879103,6046
 RRID:SAMN15879104,6047
 RRID:SAMN15879105,6048
 RRID:SAMN15879106,6049
 RRID:SAMN15879107,6050
 RRID:SAMN15879108,6051
 RRID:SAMN15879109,6052
 RRID:SAMN15879110,6053
 RRID:SAMN15879111,6054
 RRID:SAMN15879112,6055
 RRID:SAMN15879113,6056
 RRID:SAMN15879114,6057
 RRID:SAMN15879115,6058
 RRID:SAMN15879116,6059
 RRID:SAMN15879117,6060
 RRID:SAMN15879118,6061
 RRID:SAMN15879119,6062
 RRID:SAMN15879120,6063
 RRID:SAMN15879121,6064
 RRID:SAMN15879122,6065
 RRID:SAMN15879123,6066
 RRID:SAMN15879124,6067
 RRID:SAMN15879125,6068
 RRID:SAMN15879126,6069
 RRID:SAMN15879127,6070
 RRID:SAMN15879128,6071
 RRID:SAMN15879129,6072
 RRID:SAMN15879130,6073
 RRID:SAMN15879131,6074
 RRID:SAMN15879132,6075
 RRID:SAMN15879133,6076
 RRID:SAMN15879134,6077
 RRID:SAMN15879135,6078
 RRID:SAMN15879136,6079
 RRID:SAMN15879137,6080
 RRID:SAMN15879138,6081
 RRID:SAMN15879139,6082
 RRID:SAMN15879140,6083
 RRID:SAMN15879141,6084
 RRID:SAMN15879142,6085
 RRID:SAMN15879143,6086
 RRID:SAMN15879144,6087
 RRID:SAMN15879145,6088
 RRID:SAMN15879146,6089
 RRID:SAMN15879147,6090
 RRID:SAMN15879148,6091
 RRID:SAMN15879149,6092
 RRID:SAMN15879150,6093
 RRID:SAMN15879151,6094
 RRID:SAMN15879152,6095
 RRID:SAMN15879153,6096
 RRID:SAMN15879154,6097
 RRID:SAMN15879155,6098
 RRID:SAMN15879156,6099
 RRID:SAMN15879157,6100
 RRID:SAMN15879158,6101
 RRID:SAMN15879159,6102
 RRID:SAMN15879160,6103
 RRID:SAMN15879161,6104
 RRID:SAMN15879162,6105
 RRID:SAMN15879163,6106
 RRID:SAMN15879164,6107
 RRID:SAMN15879165,6108
 RRID:SAMN15879166,6109
 RRID:SAMN15879167,6110
 RRID:SAMN15879168,6111
 RRID:SAMN15879169,6112
 RRID:SAMN15879170,6113
 RRID:SAMN15879171,6114
 RRID:SAMN15879172,6115
 RRID:SAMN15879173,6116
 RRID:SAMN15879174,6117
 RRID:SAMN15879175,6118
 RRID:SAMN15879176,6119
 RRID:SAMN15879177,6120
 RRID:SAMN15879178,6121
 RRID:SAMN15879179,6122
 RRID:SAMN15879180,6123
 RRID:SAMN15879181,6124
 RRID:SAMN15879182,6125
 RRID:SAMN15879183,6126
 RRID:SAMN15879184,6127
 RRID:SAMN15879185,6128
 RRID:SAMN15879186,6129
 RRID:SAMN15879187,6130
 RRID:SAMN15879188,6131
 RRID:SAMN15879189,6132
 RRID:SAMN15879190,6133
 RRID:SAMN15879191,6134
 RRID:SAMN15879192,6135
 RRID:SAMN15879193,6136
 RRID:SAMN15879194,6137
 RRID:SAMN15879195,6138
 RRID:SAMN15879196,6139
 RRID:SAMN15879197,6140
 RRID:SAMN15879198,6141
 RRID:SAMN15879199,6142
 RRID:SAMN15879200,6143
 RRID:SAMN15879201,6144
 RRID:SAMN15879202,6145
 RRID:SAMN15879203,6147
 RRID:SAMN15879204,6148
 RRID:SAMN15879205,6149
 RRID:SAMN15879206,6150
 RRID:SAMN15879207,6151
 RRID:SAMN15879208,6152
 RRID:SAMN15879209,6153
 RRID:SAMN15879210,6154
 RRID:SAMN15879211,6155
 RRID:SAMN15879212,6156
 RRID:SAMN15879213,6157
 RRID:SAMN15879214,6158
 RRID:SAMN15879215,6159
 RRID:SAMN15879216,6160
 RRID:SAMN15879217,6161
 RRID:SAMN15879218,6162
 RRID:SAMN15879219,6163
 RRID:SAMN15879220,6164
 RRID:SAMN15879221,6165
 RRID:SAMN15879222,6166
 RRID:SAMN15879223,6167
 RRID:SAMN15879224,6168
 RRID:SAMN15879225,6169
 RRID:SAMN15879226,6170
 RRID:SAMN15879227,6171
 RRID:SAMN15879228,6172
 RRID:SAMN15879229,6173
 RRID:SAMN15879230,6174
 RRID:SAMN15879231,6175
 RRID:SAMN15879232,6176
 RRID:SAMN15879233,6177
 RRID:SAMN15879234,6178
 RRID:SAMN15879235,6179
 RRID:SAMN15879236,6180
 RRID:SAMN15879237,6181
 RRID:SAMN15879238,6182
 RRID:SAMN15879239,6183
 RRID:SAMN15879240,6184
 RRID:SAMN15879241,6185
 RRID:SAMN15879242,6186
 RRID:SAMN15879243,6187
 RRID:SAMN15879244,6188
 RRID:SAMN15879245,6189
 RRID:SAMN15879246,6190
 RRID:SAMN15879247,6191
 RRID:SAMN15879248,6192
 RRID:SAMN15879249,6193
 RRID:SAMN15879250,6194
 RRID:SAMN15879251,6195
 RRID:SAMN15879252,6196
 RRID:SAMN15879253,6197
 RRID:SAMN15879254,6198
 RRID:SAMN15879255,6199
 RRID:SAMN15879256,6200
 RRID:SAMN15879257,6201
 RRID:SAMN15879258,6202
 RRID:SAMN15879259,6203
 RRID:SAMN15879260,6204
 RRID:SAMN15879261,6205
 RRID:SAMN15879262,6206
 RRID:SAMN15879263,6207
 RRID:SAMN15879264,6208
 RRID:SAMN15879265,6209
 RRID:SAMN15879266,6210
 RRID:SAMN15879267,6211
 RRID:SAMN15879268,6212
 RRID:SAMN15879269,6213
 RRID:SAMN15879270,6214
 RRID:SAMN15879271,6215
 RRID:SAMN15879272,6216
 RRID:SAMN15879273,6217
 RRID:SAMN15879274,6218
 RRID:SAMN15879275,6219
 RRID:SAMN15879276,6220
 RRID:SAMN15879277,6221
 RRID:SAMN15879278,6222
 RRID:SAMN15879279,6223
 RRID:SAMN15879280,6224
 RRID:SAMN15879281,6225
 RRID:SAMN15879282,6226
 RRID:SAMN15879283,6227
 RRID:SAMN15879284,6228
 RRID:SAMN15879285,6229
 RRID:SAMN15879286,6230
 RRID:SAMN15879287,6231
 RRID:SAMN15879288,6232
 RRID:SAMN15879289,6233
 RRID:SAMN15879290,6234
 RRID:SAMN15879291,6235
 RRID:SAMN15879292,6236
 RRID:SAMN15879293,6237
 RRID:SAMN15879294,6238
 RRID:SAMN15879295,6239
 RRID:SAMN15879296,6240
 RRID:SAMN15879297,6241
 RRID:SAMN15879298,6242
 RRID:SAMN15879299,6243
 RRID:SAMN15879300,6244
 RRID:SAMN15879301,6245
 RRID:SAMN15879302,6246
 RRID:SAMN15879303,6247
 RRID:SAMN15879304,6248
 RRID:SAMN15879305,6249
 RRID:SAMN15879306,6250
 RRID:SAMN15879307,6251
 RRID:SAMN15879308,6252
 RRID:SAMN15879309,6253
 RRID:SAMN15879310,6254
 RRID:SAMN15879311,6255
 RRID:SAMN15879312,6257
 RRID:SAMN15879313,6258
 RRID:SAMN15879314,6259
 RRID:SAMN15879315,6261
 RRID:SAMN15879316,6262
 RRID:SAMN15879317,6263
 RRID:SAMN15879318,6264
 RRID:SAMN15879319,6265
 RRID:SAMN15879320,6266
 RRID:SAMN15879321,6267
 RRID:SAMN15879322,6268
 RRID:SAMN15879323,6269
 RRID:SAMN15879324,6270
 RRID:SAMN15879325,6271
 RRID:SAMN15879326,6272
 RRID:SAMN15879327,6273
 RRID:SAMN15879328,6274
 RRID:SAMN15879329,6275
 RRID:SAMN15879330,6276
 RRID:SAMN15879331,6277
 RRID:SAMN15879332,6278
 RRID:SAMN15879333,6279
 RRID:SAMN15879334,6280
 RRID:SAMN15879335,6281
 RRID:SAMN15879336,6282
 RRID:SAMN15879337,6283
 RRID:SAMN15879338,6284
 RRID:SAMN15879339,6285
 RRID:SAMN15879340,6286
 RRID:SAMN15879341,6287
 RRID:SAMN15879342,6288
 RRID:SAMN15879343,6289
 RRID:SAMN15879344,6290
 RRID:SAMN15879345,6291
 RRID:SAMN15879346,6292
 RRID:SAMN15879347,6293
 RRID:SAMN15879348,6294
 RRID:SAMN15879349,6295
 RRID:SAMN15879350,6296
 RRID:SAMN15879351,6297
 RRID:SAMN15879352,6298
 RRID:SAMN15879353,6299
 RRID:SAMN15879354,6300
 RRID:SAMN15879355,6301
 RRID:SAMN15879356,6302
 RRID:SAMN15879357,6303
 RRID:SAMN15879358,6304
 RRID:SAMN15879359,6305
 RRID:SAMN15879360,6306
 RRID:SAMN15879361,6307
 RRID:SAMN15879362,6308
 RRID:SAMN15879363,6309
 RRID:SAMN15879364,6310
 RRID:SAMN15879365,6311
 RRID:SAMN15879366,6312
 RRID:SAMN15879367,6313
 RRID:SAMN15879368,6314
 RRID:SAMN15879369,6315
 RRID:SAMN15879370,6316
 RRID:SAMN15879371,6317
 RRID:SAMN15879372,6318
 RRID:SAMN15879373,6319
 RRID:SAMN15879374,6320
 RRID:SAMN15879375,6321
 RRID:SAMN15879376,6322
 RRID:SAMN15879377,6323
 RRID:SAMN15879378,6324
 RRID:SAMN15879379,6325
 RRID:SAMN15879380,6326
 RRID:SAMN15879381,6327
 RRID:SAMN15879382,6328
 RRID:SAMN15879383,6329
 RRID:SAMN15879384,6330
 RRID:SAMN15879385,6331
 RRID:SAMN15879386,6332
 RRID:SAMN15879387,6333
 RRID:SAMN15879388,6334
 RRID:SAMN15879389,6335
 RRID:SAMN15879390,6336
 RRID:SAMN15879391,6337
 RRID:SAMN15879392,6338
 RRID:SAMN15879393,6339
 RRID:SAMN15879394,6340
 RRID:SAMN15879395,6341
 RRID:SAMN15879396,6342
 RRID:SAMN15879397,6343
 RRID:SAMN15879398,6344
 RRID:SAMN15879399,6345
 RRID:SAMN15879400,6346
 RRID:SAMN15879401,6347
 RRID:SAMN15879402,6348
 RRID:SAMN15879403,6349
 RRID:SAMN15879404,6350
 RRID:SAMN15879405,6351
 RRID:SAMN15879406,6353
 RRID:SAMN15879407,6354
 RRID:SAMN15879408,6355
 RRID:SAMN15879409,6356
 RRID:SAMN15879410,6357
 RRID:SAMN15879411,6358
 RRID:SAMN15879412,6359
 RRID:SAMN15879413,6360
 RRID:SAMN15879414,6361
 RRID:SAMN15879415,6362
 RRID:SAMN15879416,6363
 RRID:SAMN15879417,6364
 RRID:SAMN15879418,6365
 RRID:SAMN15879419,6366
 RRID:SAMN15879420,6367
 RRID:SAMN15879421,6368
 RRID:SAMN15879422,6369
 RRID:SAMN15879423,6370
 RRID:SAMN15879424,6371
 RRID:SAMN15879425,6372
 RRID:SAMN15879426,6373
 RRID:SAMN15879427,6374
 RRID:SAMN15879428,6375
 RRID:SAMN15879429,6376
 RRID:SAMN15879430,6377
 RRID:SAMN15879431,6378
 RRID:SAMN15879432,6379
 RRID:SAMN15879433,6380
 RRID:SAMN15879434,6381
 RRID:SAMN15879435,6382
 RRID:SAMN15879436,6383
 RRID:SAMN15879437,6384
 RRID:SAMN15879438,6385
 RRID:SAMN15879439,6386
 RRID:SAMN15879440,6387
 RRID:SAMN15879441,6388
 RRID:SAMN15879442,6389
 RRID:SAMN15879443,6390
 RRID:SAMN15879444,6391
 RRID:SAMN15879445,6392
 RRID:SAMN15879446,6393
 RRID:SAMN15879447,6394
 RRID:SAMN15879448,6395
 RRID:SAMN15879449,6396
 RRID:SAMN15879450,6397
 RRID:SAMN15879451,6398
 RRID:SAMN15879452,6399
 RRID:SAMN15879453,6400
 RRID:SAMN15879454,6401
 RRID:SAMN15879455,6402
 RRID:SAMN15879456,6403
 RRID:SAMN15879457,6404
 RRID:SAMN15879458,6405
 RRID:SAMN15879459,6406
 RRID:SAMN15879460,6407
 RRID:SAMN15879461,6408
 RRID:SAMN15879462,6409
 RRID:SAMN15879463,6410
 RRID:SAMN15879464,6411
 RRID:SAMN15879465,6412
 RRID:SAMN15879466,6413
 RRID:SAMN15879467,6414
 RRID:SAMN15879468,6415
 RRID:SAMN15879469,6416
 RRID:SAMN15879470,6417
 RRID:SAMN15879471,6418
 RRID:SAMN15879472,6419
 RRID:SAMN15879473,6420
 RRID:SAMN15879474,6421
 RRID:SAMN15879475,6422
 RRID:SAMN15879476,6423
 RRID:SAMN15879477,6424
 RRID:SAMN15879478,6425
 RRID:SAMN15879479,6426
 RRID:SAMN15879480,6427
 RRID:SAMN15879481,6428
 RRID:SAMN15879482,6429
 RRID:SAMN15879483,6430
 RRID:SAMN15879484,6431
 RRID:SAMN15879485,6432
 RRID:SAMN15879486,6433
 RRID:SAMN15879487,6434
 RRID:SAMN15879488,6435
 RRID:SAMN15879489,6436
 RRID:SAMN15879490,6437
 RRID:SAMN15879491,6438
 RRID:SAMN15879492,6439
 RRID:SAMN15879493,6440
 RRID:SAMN15879494,6441
 RRID:SAMN15879495,6442
 RRID:SAMN15879496,6443
 RRID:SAMN15879497,6444
 RRID:SAMN15879498,6445
 RRID:SAMN15879499,6446
 RRID:SAMN15879500,6447
 RRID:SAMN15879501,6448
 RRID:SAMN15879502,6449
 RRID:SAMN15879503,6450
 RRID:SAMN15879504,6451
 RRID:SAMN15879505,6452
 RRID:SAMN15879506,6453
 RRID:SAMN15879507,6454
 RRID:SAMN15879508,6455
 RRID:SAMN15879509,6456
 RRID:SAMN15879510,6457
 RRID:SAMN15879511,6458
 RRID:SAMN15879512,6459
 RRID:SAMN15879513,6460
 RRID:SAMN15879514,6461
 RRID:SAMN15879515,6462
 RRID:SAMN15879516,6463
 RRID:SAMN15879517,6464
 RRID:SAMN15879518,6465
 RRID:SAMN15879519,6466
 RRID:SAMN15879520,6467
 RRID:SAMN15879521,6468
 RRID:SAMN15879522,6469
 RRID:SAMN15879523,6470
 RRID:SAMN15879524,6471
 RRID:SAMN15879525,6472
 RRID:SAMN15879526,6473
 RRID:SAMN15879527,6474
 RRID:SAMN15879528,6475
 RRID:SAMN15879529,6476
 RRID:SAMN15879530,6477
 RRID:SAMN15879531,6478
 RRID:SAMN15879532,6479
 RRID:SAMN15879533,6480
 RRID:SAMN15879534,6481
 RRID:SAMN15879535,6482
 RRID:SAMN15879536,6483
 RRID:SAMN15879537,6484
 RRID:SAMN15879538,6485
 RRID:SAMN15879539,6486
 RRID:SAMN15879540,6487
 RRID:SAMN15879541,6488
 RRID:SAMN15879542,6489
 RRID:SAMN15879543,6490
 RRID:SAMN15879544,6491
 RRID:SAMN15879545,6492
 RRID:SAMN15879546,6493
 RRID:SAMN15879547,6494
 RRID:SAMN15879548,6495
 RRID:SAMN15879549,6496
 RRID:SAMN15879550,6497
 RRID:SAMN15879551,6498
 RRID:SAMN15879552,6499
 RRID:SAMN15879553,6500
 RRID:SAMN15879555,6502
 RRID:SAMN15879556,6503
 RRID:SAMN15879557,6504
 RRID:SAMN15879558,6505
 RRID:SAMN15879559,6506
 RRID:SAMN15879560,6508
 RRID:SAMN15879561,6509
 RRID:SAMN15879563,6511
 RRID:SAMN15879564,6512
 RRID:SAMN15879565,6513
 RRID:SAMN18053199,6514
 RRID:SAMN18053200,6516
 RRID:SAMN18053201,6517
 RRID:SAMN18053202,6519
 RRID:SAMN18053203,6520
 RRID:SAMN18053204,6521
 RRID:SAMN18053205,6522
 RRID:SAMN18053206,6523
 RRID:SAMN18053207,6524
 RRID:SAMN18053208,6525
 RRID:SAMN18053209,6526
 RRID:SAMN18053210,6527
 RRID:SAMN18053211,6529
 RRID:SAMN18053212,6530
 RRID:SAMN18053213,6531
 RRID:SAMN18053214,6532
 RRID:SAMN18242777,6533
 RRID:SAMN18242778,6534
 RRID:SAMN18242779,6535
 RRID:SAMN18242780,6536
 RRID:SAMN15879566,8003
 RRID:SAMN15879554,6501
 RRID:SAMN15879562,6510
