ID	Race	DRB1.1	DQA1.1	DQB1.1	DRB1.2	DQA1.2	DQB1.2
69	Caucasian	04:01	03:01	03:02	07:01	02:01	02:02
6004	Caucasian	04:01	03:01	03:01	15:02	01:03	06:01
6005	Caucasian	12:01	05:01	03:01	01:01	01:01	05:01
6007	African Am	11:02	05:01	03:01	11:01	01:02	06:02
6008	Caucasian	04:02	03:01	03:02	13:02	01:02	06:09
6009	Caucasian	07:01	02:01	03:03	15:01	01:02	06:02
6010	Caucasian	07:01	02:01	03:03	15:01	01:02	06:02
6011	African Am	08:04	04:01	03:01	13:03	05:01	03:01
6012	Caucasian	04:04	03:01	03:02	15:01	01:02	06:02
6013	Caucasian	01:02	01:01	05:01	13:01	01:03	06:03
6014	Caucasian	04:01	03:01	03:01	13:01	01:03	06:03
6015	Caucasian	04:01	03:01	03:02	01:01	01:01	05:01
6016	Caucasian	15:01	01:02	06:02	13:02	01:02	06:04
6017	Caucasian	11:01	05:01	03:01	01:03	01:01	05:01
6019	Caucasian	03:01	05:01	02:01	01:01	01:01	05:01
6020	Caucasian	07:01	02:01	02:01	13:01	01:03	06:03
6021	Hispanic/Latino	03:01	05:01	02:01	13:01	01:03	05:01
6022	Caucasian	04:01	03:01	03:01	04:04	03:01	03:02
6023	Caucasian	15:01/5	01:02/0	06:02/4	03:01/5	05:01	02:01
6024	Caucasian	03:01	05:01	02:01	13:02	01:02	06:04
6025	Caucasian	07:01	02:01	02:01	07:01	02:01	02:01
6026	Caucasian	03:01	05:01	02:01	13:02	01:02	06:04
6027	Caucasian	03:01	05:01	02:01	15:01	01:02	06:02
6028	African Am	14:01	01:01	05:03	13:01	01:03	06:03
6029	Hispanic/Latino	04:03	03:01	03:02	08:02	04:01	04:02
6030	Caucasian	07:01	02:01	02:01	15:01	01:02	06:02
6031	Caucasian	07:01	02:01	02:01	01:01	01:01	05:01
6032	Caucasian	03:01	05:01	02:01	04:01	03:01	03:02
6033	Caucasian	07:01	02:01	02:01	12:01	05:01	03:01
6034	Caucasian	08:01	04:01	04:02	01:01	01:01	05:01
6035	Caucasian	03:01	05:01	02:01	04:01	03:01	03:02
6036	African Am	07:01	03:01	02:01	07:01	03:01	02:01
6037	Caucasian	03:01	05:01	02:01	04:01	03:01	03:02
6038	Caucasian	03:01	05:01	02:01	01:01	01:01	05:01
6039	Caucasian	03:01	05:01	02:01	04:01	03:01	03:02
6040	Caucasian	03:01	05:01	02:01	01:02	01:01	05:01
6041	Caucasian	04:01	03:01	03:02	01:01	01:01	05:01
6043	Caucasian	01:01	01:01	05:01	15:01	01:02	06:02
6044	Hispanic/Latino	01:02	01:01	05:01	15:01	01:02	06:02
6045	Caucasian	03:01	05:01	02:01	13:02	01:02	06:09
6046	Caucasian	04:01	03:01	03:02	01:01	01:01	05:01
6047	Caucasian	14:01	01:01	05:03	15:01	01:02	06:02
6048	Caucasian	04:01	03:01	03:01	15:01	01:02	06:02
6049	African Am	09:01	03:01	02:01	04:04	03:01	03:02
6051	Caucasian	03:01	05:01	02:01	16:01	01:02	05:02
6052	African Am	09:01	03:01	03:03	16:02	01:02	05:02
6053	Caucasian	08:03	06:01	03:01	15:01	01:02	06:02
6054	Caucasian	03:01	05:01	02:01	04:01	03:01	03:02
6055	Caucasian	01:03	05:01	03:01	01:03	05:01	03:01
6056	Caucasian	13:03	05:01	03:01	04:05	03:01	03:02
6057	Caucasian	04:04	03:01	03:02	01:01	01:01	05:01
6059	Hispanic/Latino	07:01	02:01	02:01	08:02	04:01	04:02
6060	Caucasian	11:01	05:01	03:01	01:01	01:01	05:02
6061	Caucasian	03:01	05:01	02:01	04:01	03:01	03:02
6062	African Am	07:01	03:01	02:01	01:02	01:01	05:01
6063	Caucasian	03:01	05:01	02:01	04:01	03:01	03:02
6064	Caucasian	04:01	03:01	03:02	01:01	01:01	05:01
6067	Hispanic/Latino	03:01	05:01	02:01	04:07	03:01	03:02
6068	Caucasian	03:01	05:01	02:01	04:02	03:01	03:02
6069	African Am	03:01	05:01	02:01	12:02	06:01	03:01
6070	Caucasian	10:01	01:01	05:01	16:01	01:02	05:02
6071	Caucasian	04:01	03:01	03:01	04:01	03:01	03:02
6072	Caucasian	14:01	01:01	05:03	13:01	01:03	06:03
6075	African Am	07:01	02:01	02:01	11:01	05:01	03:01
6076	Caucasian	03:01	05:01	02:01	04:04	03:01	03:02
6077	Caucasian	03:01	05:01	02:01	04:01	03:01	03:02
6078	Caucasian	03:01	05:01	02:01	08:01	04:01	04:02
6079	Caucasian	03:01	05:01	02:01	01:03	01:01	05:01
6080	Caucasian	04:01	03:01	03:01	01:01	01:01	05:01
6081	Hispanic/Latino	04:07	03:01	03:01	08:02	04:01	04:02
6082	Caucasian	11:04	05:01	03:01	04:01	03:01	03:02
6083	Caucasian	03:01	05:01	02:01	04:01	03:01	03:02
6084	Caucasian	03:01	05:01	02:01	04:01	03:01	03:02
6087	Caucasian	03:01	05:01	02:01	04:04	03:01	03:02
6088	Caucasian	03:01	05:01	02:01	01:01	01:01	05:01
6089	Caucasian	04:01	03:01	03:02	01:01	01:01	05:01
6090	Hispanic/Latino	04:04	03:01	03:02	15:01	01:02	06:02
6091	Caucasian	08:01	04:01	04:02	15:01	01:02	06:02
6092	African Am	04:01	03:01	03:02	11:01	01:02	06:02
6094	African Am	13:03	02:01	02:01	13:02	01:02	05:01
6095	Hispanic/Latino	11:01	05:01	03:01	14:02	05:01	03:01
6096	African Am	03:02	04:01	04:02	15:03	01:02	06:02
6097	Caucasian	01:01	01:01	05:01	14:01	01:01	05:03
6098	Caucasian	03:01	05:01	02:01	08:01	04:01	04:02
6099	Caucasian	03:01	05:01	02:01	11:01	05:01	03:01
6101	Caucasian	15:01	01:02	06:02	13:02	01:02	06:04
6102	Caucasian	03:01	05:01	02:01	04:01	03:01	03:01
6103	Caucasian	11:01	05:01	03:01	13:01	01:03	06:03
6104	Caucasian	07:01	02:01	02:01	13:01	01:01	05:01
6105	Caucasian	15:01	01:02	06:02	13:01	01:03	06:03
6106	Caucasian	04:07	03:01	03:02	01:01	01:01	05:01
6107	African Am	15:01	01:02	06:02	13:01	01:03	06:03
6108	Asian	15:02	01:02	05:02	15:02	01:02	05:02
6109	Hispanic/Latino	14:02	05:01	03:01	16:02	05:01	03:01
6110	African Am	03:02	04:01	04:02	15:03	01:02	06:02
6111	Hispanic/Latino	13:03	05:01	03:01	14:01	01:01	05:03
6112	Hispanic/Latino	04:07	03:01	03:01	13:02	01:02	05:01
6113	Caucasian	03:01	05:01	02:01	01:01	01:01	05:01
6114	Caucasian	07:01	02:01	03:03	15:01	01:02	06:02
6115	Caucasian	04:01	03:01	03:01	07:01	02:01	03:03
6116	Hispanic/Latino	08:01	04:01	04:02	15:02	01:03	06:01
6117	Caucasian	07:01	02:01	02:01	07:01	02:01	03:03
6118	Hispanic/Latino	14:02	05:01	03:01	04:11	03:01	03:02
6119	Caucasian	03:01	05:01	02:01	04:04	03:01	03:02
6121	Caucasian	07:01	02:01	02:01	01:01	01:01	05:01
6122	Multiracial	04:07	03:01	03:01	14:01	01:01	05:03
6123	Caucasian	11:01	05:01	03:01	08:01	04:01	04:02
6124	Caucasian	04:01	03:01	03:01	15:01	01:02	06:02
6125	Caucasian	04:04	03:01	03:02	15:01	01:02	06:03
6126	Hispanic/Latino	07:01	02:01	02:01	03:01	05:01	02:01
6127	Caucasian	03:01	05:01	02:01	04:04	03:01	03:02
6128	Caucasian	03:01	05:01	02:01	16:01	01:02	05:02
6129	Caucasian	03:01	05:01	02:01	15:01	01:02	06:02
6130	Caucasian	03:01	05:01	02:01	15:01	01:02	06:02
6131	Caucasian	03:01	05:01	02:01	03:01	05:01	02:01
6132	Hispanic/Latino	11:01	05:01	03:01	13:02	01:02	06:04
6134	Caucasian	07:01	02:01	02:01	10:01	01:01	05:01
6135	Caucasian	01:01	01:01	05:01	13:02	01:02	06:04
6136	Caucasian	04:04	03:01	03:02	15:01	01:02	06:02
6137	Hispanic/Latino	07:01	02:01	02:01	03:01	05:01	02:01
6138	Caucasian	03:01/5	03:02/0	02:01	09:01/1	05:01	03:03/3
6139	Hispanic/Latino	04:04	03:01	03:02	15:03	01:02	06:02
6140	Caucasian	03:01	05:01	02:01	01:01	01:01	05:01
6141	Caucasian	03:01	05:01	02:01	04:01	03:01	03:02
6142	Hispanic/Latino	14:06	05:01	03:01	01:02	01:01	05:01
6143	Caucasian	03:01	05:01	02:01	04:01	03:01	03:01
6144	Hispanic/Latino	07:01	02:01	02:02	08:02	04:01	04:02
6145	Caucasian	03:01	05:01	02:01	04:01	03:01	03:02
6147	Caucasian	04:01	03:01	03:01	08:02	04:01	04:02
6148	Caucasian	03:01	05:01	02:01	04:01	03:01	03:02
6149	African Am	09:01	03:01	02:02	15:03	01:02	06:02
6150	Caucasian	03:01	05:01	02:01	01:01	01:01	05:01
6151	Caucasian	07:01	02:01	02:02	01:01	01:01	05:01
6152	Caucasian	11:03	05:05	03:01	04:01	03:01	03:02
6153	Hispanic/Latino	04:04	03:01	03:02	13:02	01:02	06:09
6154	Caucasian	09:01	03:01	03:03	15:01	01:02	06:03
6155	Caucasian	11:01	05:05	03:01	04:01	03:02	03:02
6156	Caucasian	01:01	01:01	05:01	01:02	01:01	05:01
6157	African Am	07:01	02:01	02:02	13:02	01:02	05:01
6158	Caucasian	04:01	03:01	03:01	13:02	01:02	06:04
6159	Caucasian	03:01	05:01	02:01	04:01	03:01	03:02
6161	Caucasian	07:01	02:01	02:02	04:01	03:01	03:02
6162	African Am	13:03	05:01	03:01	16:02	01:02	05:02
6163	Caucasian	03:01	05:01	02:01	04:01	03:01	03:02
6164	Caucasian	03:01	05:01	02:01	03:01	05:01	02:01
6165	Caucasian	15:01	01:02	06:02	13:01	01:03	06:03
6166	African Am	09:01	03:01	02:02	13:01	01:03	06:03
6167	Caucasian	04:04	03:01	03:02	15:02	01:03	06:01
6168	Hispanic/Latino	04:04	03:01	03:02	01:03	01:01	05:01
6169	Hispanic/Latino	03:01	05:01	02:01	07:01	02:01	03:03
6170	African Am	13:03	02:01	02:02	04:01	03:01	03:01
6171	Caucasian	03:01	05:01	02:01	03:01	05:01	02:01
6172	Caucasian	13:03	05:01	03:01	01:01	01:01	05:01
6173	Caucasian	11:01	05:01	03:01	01:02	01:01	05:01
6174	Caucasian	07:01	02:01	02:01	03:01	05:01	02:01
6175	Caucasian	03:01	05:01	02:01	03:01	05:01	02:01
6176	Hispanic/Latino	03:01	05:01	02:01	08:02	04:01	04:02
6177	Hispanic/Latino	11:04	05:01	03:01	04:11	03:01	03:02
6178	Caucasian	04:01	03:01	03:01	15:01	01:02	06:02
6179	Caucasian	03:01	05:01	02:01	04:04	03:01	03:02
6180	Caucasian	03:01	05:01	02:01	01:01	01:01	05:01
6181	Caucasian	04:01	03:01	03:02	01:01	01:01	05:01
6182	Caucasian	04:01	03:01	03:01	16:02	01:02	05:02
6183	African Am	03:02	04:01	04:02	01:02	01:01	05:01
6184	Hispanic/Latino	04:07	03:01	03:02	04:07	03:01	03:02
6185	African Am	03:02	04:01	04:02	11:01	01:02	06:02
6186	Caucasian	07:01	02:01	02:02	15:01	01:02	06:02
6187	Caucasian	15:01	01:02	06:02	15:01	01:02	06:02
6188	Hispanic/Latino	12:01	05:01	03:01	14:01	01:02	06:04
6189	Caucasian	01:03	01:01	05:01	01:03	01:01	05:01
6190	Hispanic/Latino	13:05	05:01	03:01	15:01	01:02	06:02
6191	Caucasian	07:01	02:01	02:02	04:01	03:01	03:02
6192	Hispanic/Latino	11:01	05:01	03:01	01:03	01:01	05:01
6193	Caucasian	04:01	03:01	03:02	01:01	01:01	05:01
6194	Caucasian	04:01	02:01	03:02/3	07:01	03:01/0	03:03/3
6195	Caucasian	04:01	03:01	03:02	15:01	01:02	06:02
6196	African Am	13:03	05:01	02:01	12:01	01:01	05:01
6197	African Am	07:01	02:01	02:02	03:02	04:01	04:02
6198	Hispanic/Latino	04:01	03:01	03:02	11:02	05:01	03:19
6199	African Am	01:02	01:01	05:01	12:01	01:01	05:01
6202	Caucasian	07:01	02:01	02:02	14:01	01:01	05:03
6203	Caucasian	11:04	05:01	03:01	01:02	01:01	05:01
6204	Caucasian	07:01	02:01	02:02	08:01	04:01	04:02
6205	Caucasian	04:01	03:01	03:01	16:01	01:02	05:02
6206	Caucasian	04:02	03:01	03:02	13:01	01:03	06:03
6207	African Am	09:01	03:01	02:02	13:02	01:02	06:04
6208	Caucasian	03:01	05:01	02:01	04:01	03:01	03:02
6209	Caucasian	04:01	03:01	03:02	03:01	05:01	02:01
6211	African Am	12:01	05:01	03:01	04:05	03:01	03:02
6212	Caucasian	07:01	02:01	02:02	07:01	02:01	02:02
6213	Caucasian	03:01	05:01	02:01	04:01	03:01	03:02
6215	Caucasian	04:01	03:01	03:02	01:03	01:01	05:01
6217	Caucasian	04:07	03:01	03:01	08:01	04:01	04:02
6218	African Am	07:01	02:01	02:02	03:02	04:01	04:02
6219	Hispanic/Latino	08:01	04:01	04:02	13:02	01:02	06:04
6220	Caucasian	03:01	05:01	02:01	07:01	02:01	03:03
6221	Caucasian	07:01	02:01	02:02	04:01	03:01	03:02
6223	Caucasian	03:01	05:01	02:01	04:01	03:01	03:02
6224	Caucasian	04:04	03:01	03:02	01:01	01:01	05:01
6225	Caucasian	03:01	05:01	02:01	12:01	05:01	03:01
6226	Asian	11:01	05:01	03:01	14:01	01:01	05:03
6227	Caucasian	04:01	03:01	03:02	13:02	01:02	06:04
6228	Caucasian	03:01	05:01	02:01	04:02	03:01	03:02
6229	Caucasian	01:01	01:02	05:04	13:02	01:02	06:04
6230	Caucasian	11:01	05:01	03:01	04:01	03:01	03:02
6231	Caucasian	03:01	05:01	02:01	03:01	05:01	02:01
6232	Caucasian	15:01	01:02	06:02	15:01	01:02	06:02
6233	Caucasian	01:01	01:01	05:01	13:01	01:03	06:03
6234	Caucasian	11:01	05:01	03:01	15:01	01:02	06:02
6235	Caucasian	03:01	05:01	02:01	04:07	03:01	03:02
6236	Caucasian	03:01	05:01	02:01	08:01	04:01	04:02
6237	Caucasian	13:03	05:01	03:01	04:01	03:01	03:02
6238	African Am	11:01	05:01	03:01	03:02	04:01	04:02
6239	African Am	13:04	05:01	03:19	15:03	01:02	06:02
6240	Caucasian	07:01	02:01	02:02	15:01	01:02	06:02
6241	Caucasian	03:01	05:01	02:01	04:01	03:01	03:02
6242	Caucasian	04:01	03:01	03:02	01:01	01:01	05:01
6243	Caucasian	03:01	05:01	02:01	03:01	05:01	02:01
6244	Caucasian	03:01	05:01	02:01	04:01	03:01	03:02
6245	Caucasian	03:01	05:01	02:01	04:05	03:01	03:02
6246	African Am	03:01	05:01	02:01	09:01	03:01	02:02
6247	Caucasian	11:01	05:01	03:01	04:04	03:01	03:02
6248	Caucasian	04:01	03:01	03:02	01:02	01:01	05:01
6249	Asian	04:05	03:01	04:02	04:05	03:01	04:02
6250	Caucasian	03:01	05:01	02:01	15:01	01:02	06:02
6251	Caucasian	04:01	03:01	03:01	11:01	05:01	03:01
6252	Caucasian	14:02	05:01	03:01	08:02	04:01	04:02
6253	African Am	11:01	05:01	03:19	03:02	04:01	04:02
6254	Caucasian	03:01	05:01	02:01	07:01	02:01	02:02
6255	Caucasian	11:01	05:01	03:01	12:01	05:01	03:01
6257	American Indian/Alaska Native	10:01	01:01	05:01	15:03	01:02	06:02
6258	Caucasian	04:01	03:01	03:02	04:01	03:01	03:02
6259	Caucasian	04:01	03:01	03:02	15:01	01:02	06:02
6261	Caucasian	04:01	03:01	03:02	01:01	01:01	05:01
6262	African Am	04:01	03:01	03:02	04:05	03:01	03:02
6263	Hispanic/Latino	14:06	05:01	03:01	04:07	03:01	03:02
6264	Caucasian	03:01	05:01	02:01	04:04	03:01	03:02
6265	Caucasian	03:01	05:01	02:01	04:01	03:01	03:02
6266	Caucasian	03:01	05:01	02:01	04:04	03:01	03:02
6267	Caucasian	04:01	03:01	03:02	04:04	03:01	03:02
6268	Caucasian	03:01	05:01	02:01	13:02	01:02	06:04
6269	African Am	13:03	05:01	03:01	04:01	03:01	03:02
6270	Caucasian	03:01	05:01	02:01	03:01	05:01	02:01
6271	Caucasian	07:01	02:01	02:02	15:02	01:01	05:01
6272	African Am	04:05	03:01	03:02	13:02	01:02	06:04
6273	African Am	15:01	01:02	06:02	15:03	01:02	06:02
6274	Caucasian	03:01	05:01	02:01	11:01	05:01	03:01
6275	Hispanic/Latino	09:01	03:01	03:03	15:01	01:02	06:02
6276	Hispanic/Latino	04:02	03:01	03:02	04:07	03:01	03:02
6277	African Am	11:02	03:01	03:19	13:04	05:01	03:19
6278	African Am	11:04	05:01	03:01	12:01	03:01	05:02
6279	Caucasian	07:01	02:01	02:02	15:01	01:02	06:02
6280	African Am	07:01	02:01	02:02	04:04	03:01	03:02
6281	Caucasian	03:01	05:01	02:01	07:01	02:01	02:02
6282	Caucasian	15:01	01:02	06:02	13:01	01:03	06:03
6283	Caucasian	07:01	02:01	02:02	13:01	01:03	06:03
6284	African Am	15:03	03:01	02:02	15:03	01:02	06:02
6285	Hispanic/Latino	07:01	02:01	02:02	04:05	03:01	03:02
6286	Caucasian	07:01	02:01	02:02	04:01	03:01	03:01
6287	Caucasian	09:01	03:01	03:03	01:01	01:01	05:01
6288	Caucasian	11:01	05:01	03:01	15:01	01:02	06:02
6289	African Am	07:01	02:01	02:02	04:11	03:01	03:02
6290	Caucasian	03:01	05:01	02:01	04:04	03:01	03:02
6292	Caucasian	04:01	03:01	03:01	07:01	02:01	03:03
6293	Caucasian	11:04	05:01	03:01	01:02	01:01	05:01
6294	American Indian/Alaska Native	03:01	05:01	02:01	13:01	01:03	06:03
6295	African Am	01:02	01:01	05:01	10:01	01:01	05:01
6296	Hispanic/Latino	03:01	05:01	02:01	04:04	03:01	03:02
6297	Caucasian	01:01	01:01	05:01	13:01	01:03	06:03
6298	African Am	13:03	02:01	02:02	04:05	03:01	02:02
6299	Caucasian	03:01	05:01	02:01	04:01	03:01	03:02
6300	Hispanic/Latino	04:05	03:01	03:02	04:07	03:01	03:02
6301	African Am	13:04	05:01	03:19	11:01	01:02	06:02
6302	African Am	03:01	05:01	02:01	04:01	03:01	03:02
6303	Caucasian	03:01	05:01	02:01	07:01	02:01	02:02
6304	Hispanic/Latino	11:02	05:01	03:19	03:02	04:01	04:02
6305	Caucasian	07:01	02:01	03:03	15:01	01:02	06:02
6306	Caucasian	03:01	05:01	02:01	04:01	03:01	03:02
6307	Caucasian	03:01	05:01	02:01	03:01	05:01	02:01
6308	Caucasian	03:01	05:01	02:01	03:01	05:01	02:01
6309	African Am	01:02	01:01	05:01	01:02	01:01	05:01
6310	Hispanic/Latino	07:01	02:01	02:02	11:02	05:01	03:19
6311	African Am	15:03	01:02	06:02	15:03	01:02	06:02
6312	Caucasian	03:01	05:01	02:01	04:01	03:01	03:02
6313	Caucasian	14:01	01:01	05:03	15:01	01:02	06:02
6314	Caucasian	04:01	03:01	03:01	01:03	01:01	05:01
6315	African Am	11:02	05:01	03:19	15:03	01:02	06:02
6316	Caucasian	04:04	03:01	03:02	13:01	03:01	03:03
6317	Caucasian	15:01	01:02	06:02	15:01	01:02	06:02
6318	Caucasian	11:01	05:01	03:01	04:04	03:01	03:02
6319	Caucasian	03:01	05:01	02:01	04:01	03:01	03:02
6320	Caucasian	07:01	02:01	03:03	15:01	01:02	06:02
6321	Caucasian	04:01	03:01	03:02	11:01	05:01	03:02
6322	Caucasian	03:01	05:01	02:01	03:01	05:01	02:01
6323	Caucasian	03:01	05:01	02:01	04:02	03:01	03:02
6324	Hispanic/Latino	11:04	05:01	03:01	15:02	01:03	06:01
6325	African Am	04:01	03:01	03:01	15:03	01:02	06:02
6326	Caucasian	03:01	05:01	02:01	04:01	03:01	03:01
6327	Hispanic/Latino	03:01	05:01	02:01	03:01	05:01	02:01
6328	Hispanic/Latino	03:01	05:01	02:01	04:05	03:01	03:02
6329	Hispanic/Latino	04:11	03:01	03:02	08:02	04:01	04:02
6330	Caucasian	03:01	05:01	02:01	04:01	03:01	03:02
6331	African Am	03:02	04:01	04:02	15:03	01:02	06:02
6332	Caucasian	03:01	05:01	02:01	03:01	05:01	02:01
6333	Caucasian	04:01	03:01	03:01	16:01	01:02	05:02
6334	African Am	03:01	05:01	02:01	12:01	05:01	03:01
6335	Multiracial	15:01	01:02	06:02	15:03	01:02	06:02
6336	Caucasian	07:01	02:01	02:02	13:01	01:03	06:03
6337	Caucasian	03:01	05:01	02:01	01:02	01:01	05:01
6338	African Am	07:01	02:01	02:02	11:02	05:01	03:01
6339	Caucasian	03:01	05:01	02:01	10:01	01:01	05:01
6340	Caucasian	04:05	03:01	03:02	08:01	04:01	04:02
6341	Caucasian	03:01	05:01	02:01	03:01	05:01	02:01
6342	Caucasian	04:01	03:01	03:02	01:01	01:01	05:01
6343	Caucasian	07:01	02:01	02:02	01:01	01:01	05:01
6344	African Am	13:02	01:02	05:01	15:03	01:02	06:02
6345	Caucasian	04:04	03:01	03:02	15:01	01:02	06:03
6346	Caucasian	04:01	03:01	03:02	01:01	01:01	05:01
6347	Caucasian	01:01	01:01	05:01	15:01	01:02	06:02
6348	African Am	03:01	05:01	02:01	13:01	01:03	06:03
6349	Hispanic/Latino	07:01	02:01	02:02	14:02	05:01	03:01
6350	Hispanic/Latino	12:01	05:01	03:01	08:01	04:01	04:02
6351	Hispanic/Latino	04:01	03:01	03:01	16:02	01:02	05:02
6353	African Am	04:01	03:01	03:01	04:04	03:01	03:02
6354	Hispanic/Latino	04:07	03:01	03:02	14:02	03:01	03:02
6355	Caucasian	01:01	01:01	05:01	01:01	01:01	05:01
6356	Caucasian	07:01	02:01	02:02	13:02	01:02	06:04
6357	Caucasian	07:01	02:01	02:02	04:01	03:01	03:01
6358	African Am	01:02	01:01	05:01	13:01	01:03	06:03
6359	African Am	13:03	05:01	03:09	15:03	01:02	06:02
6360	Caucasian	03:01	05:01	02:01	04:04	03:01	03:02
6361	Caucasian	07:01	02:01	02:02	11:01	05:01	03:01
6362	Caucasian	03:01	05:01	02:01	01:03	01:01	05:01
6363	African Am	11:01	01:02	06:02	15:01	01:02	06:02
6364	Hispanic/Latino	14:01	01:01	05:03	13:01	01:03	06:03
6365	African Am	07:01	03:01	02:02	04:04	03:01	03:02
6366	Hispanic/Latino	14:02	05:01	03:01	04:04	03:01	03:02
6367	Caucasian	07:01	02:01	02:02	04:01	03:01	03:02
6368	Caucasian	04:04	03:01	03:02	01:01	01:01	05:01
6369	Caucasian	04:01	03:01	03:02	04:05	03:01	03:02
6370	Caucasian	15:01	01:02	06:02	15:01	01:02	06:02
6371	Caucasian	03:01	05:01	02:01	13:02	01:02	06:04
6372	African Am	07:01	02:01	02:02	11:01	01:02	06:02
6373	Caucasian	01:03	05:01	03:01	13:01	01:03	06:03
6374	Caucasian	13:02	01:02	06:04	13:02	01:02	06:04
6375	Caucasian	04:01	03:01	03:02	14:01	01:01	05:03
6376	Caucasian	03:01	05:01	02:01	11:01	05:05	03:01
6377	African Am	07:01	02:01	02:02	04:01	03:01	03:02
6378	African Am	08:04	05:01	03:01	15:03	01:02	06:02
6379	Asian	11:01	05:01	03:01	15:01	01:02	06:01
6380	African Am	03:01	05:01	02:01	13:02	01:02	06:04
6381	African Am	07:01	03:03	02:02	01:01	01:01	05:01
6382	Caucasian	03:01	05:01	02:01	11:01	05:05	03:01
6383	African Am	07:01	02:01	02:02	09:01	03:03	02:02
6384	Caucasian	11:01	05:03	03:01	15:01	01:02	06:02
6385	Caucasian	07:01	02:01	02:02	04:04	03:01	03:02
6386	Caucasian	04:04	03:01	03:02	13:01	01:03	06:03
6387	Caucasian	01:03	01:01	05:01	15:01	01:02	06:02
6388	Hispanic/Latino	04:07	03:01	03:01	01:02	01:01	05:01
6389	Caucasian	04:01	03:03	03:01	15:01	01:02	06:02
6390	African Am	07:01	02:01	02:02	11:02	05:05	03:19
6391	Caucasian	11:01	05:05	03:01	04:04	03:01	03:02
6392	African Am	11:04	05:05	03:01	13:02	01:02	06:09
6393	Hispanic/Latino	04:07	03:01	03:02	11:01	05:05	03:19
6394	Caucasian	01:01	01:01	05:01	15:01	01:02	06:02
6395	Caucasian	03:01	05:01	02:01	07:01	02:01	02:02
6396	Caucasian	03:01	05:01	02:01	07:01	02:01	02:02
6397	Caucasian	15:01	01:02	06:02	13:01	01:03	06:03
6398	Caucasian	07:01	02:01	02:02	04:04	03:01	03:02
6399	Caucasian	09:01	03:02	03:03	15:01	01:02	06:02
6400	Hispanic/Latino	04:07	03:01	03:02	13:04	05:05	03:19
6401	Hispanic/Latino	07:01	02:01	02:02	13:01	01:03	06:03
6402	Caucasian	03:01	05:01	02:01	04:01	03:01	03:02
6403	Caucasian	03:01	05:01	02:01	04:02	03:01	03:02
6404	Hispanic/Latino	03:01	05:01	02:01	03:01	05:01	02:01
6405	Hispanic/Latino	03:01	05:01	02:01	04:07	03:01	03:02
6406	Caucasian	03:01	05:01	02:01	07:01	02:01	02:02
6407	Caucasian	13:01	01:03	06:03	15:01	01:02	06:02
6408	Caucasian	04:50	03:01	03:02	07:01	02:01	02:02
6409	Asian	10:01	01:01	05:01	12:02	06:01	03:01
6410	Caucasian	04:01	03:01	03:02	11:04	05:05	03:01
6411	Caucasian	04:01	03:03	03:01	11:01	05:05	03:01
6412	Caucasian	07:01	02:01	03:03	07:01	02:01	03:03
6413	Caucasian	01:01	01:01	05:01	03:01	05:01	02:01
6414	African Am	03:01	05:01	02:01	09:01	03:03	02:02
6415	African Am	03:01	05:01	02:01	07:01	02:01	02:02
6416	Caucasian	04:01	03:01	03:02	15:01	01:02	06:02
6417	Caucasian	15:01	01:02	06:02	15:01	01:02	06:02
6418	Caucasian	04:01	03:01	03:02	11:03	05:05	03:01
6419	Caucasian	03:01	05:01	02:01	04:01	03:01	03:02
6420	Caucasian	01:01	01:01	05:01	11:04	05:05	03:01
6421	Hispanic/Latino	01:01	01:01	05:01	01:01	01:01	05:01
6422	Caucasian	03:01	05:01	02:01	04:01	03:01	03:02
6423	Hispanic/Latino	01:01	01:01	05:01	04:07	03:01	03:02
6424	Caucasian	03:01	05:01	02:01	04:01	03:01	03:02
6425	Caucasian	03:01	05:01	02:01	15:01	01:02	06:02
6427	Caucasian	07:01	02:01	02:02	07:01	02:01	02:02
6428	African Am	08:02	04:01	04:02	16:02	05:05	03:01
6429	African Am	01:03	01:01	05:01	03:01	05:01	02:01
6430	Caucasian	13:02	01:02	06:04	14:01	01:01	05:03
6431	Caucasian	01:01	01:01	05:01	08:01	04:01	04:02
6432	African Am	01:01	01:01	05:01	04:01	03:01	03:02
6433	Hispanic/Latino	04:05	03:01	03:02	12:01	05:05	03:01
6434	Caucasian	01:02	01:01	05:01	04:02	03:01	03:02
6435	African Am	03:01	05:01	02:01	11:01	03:03	02:02
6436	Caucasian	04:01	03:01	03:02	13:01	01:03	06:03
6437	Caucasian	03:01	05:01	02:01	11:04	05:01	03:01
6438	Caucasian	03:01	05:01	02:01	07:01	02:01	02:02
6439	African Am	03:02	04:01	04:02	08:04	04:01	03:19
6440	Caucasian	01:02	01:01	05:01	13:01	01:03	06:03
6441	Caucasian	03:01	05:01	02:01	04:04	03:01	03:02
6442	Caucasian	03:01	05:01	02:01	13:01	01:03	06:03
6443	Caucasian	01:01	01:01	05:01	04:01	03:01	03:01
6444	Hispanic/Latino	08:02	04:01	04:02	15:01	01:02	06:02
6445	Caucasian	11:01	05:05	03:01	11:01	05:05	03:01
6447	Caucasian	11:04	05:05	03:01	13:02	01:02	06:04
6448	Caucasian	01:01	01:01	05:01	14:01	01:01	05:03
6449	Caucasian	01:01	01:01	05:01	01:01	01:01	05:01
6450	Caucasian	03:01	05:01	02:01	03:01	05:01	02:01
6452	Caucasian	04:04	03:01	03:02	11:03	05:05	03:01
6453	Hispanic/Latino	07:01	02:01	03:03	11:01	01:02	06:02
6455	Caucasian	04:04	03:01	03:02	15:01	01:02	06:02
6456	African Am	04:05	03:01	03:02	13:01	01:03	06:03
6457	Caucasian	03:01	05:01	02:01	04:03	03:01	03:02
6458	African Am	03:01	05:01	02:01	13:01	01:03	06:04
6459	Caucasian	03:01	05:01	02:01	04:04	03:01	03:02
6460	Caucasian	01:03	05:05	03:01	13:02	01:02	06:04
6461	Caucasian	04:01	03:01	03:02	11:04	05:05	03:01
6462	Caucasian	01:01	01:01	05:01	15:01	01:02	06:02
6463	Caucasian	03:01	05:01	02:01	16:01	01:02	05:02
6464	Hispanic/Latino	04:05	03:03	03:02	12:01	05:05	03:01
6465	African Am	11:01	05:05	03:01	13:04	05:05	03:19
6466	Caucasian	04:01	03:01	03:02	04:01	03:01	03:02
6467	Caucasian	08:01	04:02	04:02	14:01	01:01	05:03
6468	Caucasian	08:01	04:01	04:02	13:01	01:03	06:03
6469	Caucasian	04:01	03:01	03:02	04:03	03:01	03:02
6470	Caucasian	07:01	02:01	02:02	07:01	02:01	02:02
6471	African Am	13:02	01:02	06:04	15:03	01:02	06:02
6473	African Am	03:01	05:01	02:01	04:05	03:03	03:02
6474	African Am	12:02	01:02	06:02	08:04	04:01	03:19
6475	Hispanic/Latino	03:01	05:01	02:01	08:02	04:01	04:02
6476	African Am	03:02	04:01	04:02	13:02	01:02	06:09
6477	African Am	01:01	01:01	05:01	01:03	01:01	05:01
6478	African Am	03:01	05:01	02:01	11:01	01:02	06:02
6479	Hispanic/Latino	04:04	03:01	03:02	13:01	01:03	06:03
6480	Caucasian	01:01	01:01	05:01	04:01	03:01	03:08
6481	Caucasian	13:01	01:03	06:03	15:01	01:02	06:02
6482	Caucasian	03:01	05:01	02:01	13:01	01:03	06:03
6483	Caucasian	03:01	05:01	02:01	07:01	02:01	02:02
6484	African Am	04:07	03:01	03:02	13:04	05:05	03:19
6485	Caucasian	01:02	01:01	05:01	04:01	03:01	03:02
6486	Caucasian	13:01	01:03	06:03	14:01	01:01	05:03
6487	African Am	07:01	02:01	03:02	16:02	01:02	05:02
6488	Caucasian	11:03	05:05	03:01	13:01	01:03	06:03
6489	Hispanic/Latino	03:01	05:01	02:01	04:04	03:01	03:02
6490	Caucasian	03:01	05:01	02:01	11:01	05:01	03:01
6491	Hispanic/Latino	13:01	01:03	06:03	15:02	01:03	06:01
6492	Hispanic/Latino	14:06	05:03	03:01	14:02	05:03	03:04
6493	Caucasian	03:01	05:01	02:01	07:01	02:01	02:02
6494	African Am	12:01	05:05	03:01	13:02	01:02	05:01
6495	Caucasian	03:01	05:01	02:01	04:08	03:03	03:01
6496	African Am	15:03	01:02	06:02	16:02	01:02	05:02
6497	Hispanic/Latino	04:07	03:01	03:02	11:01	01:02	06:02
6498	Caucasian	04:04	03:01	03:02	13:01	01:03	06:03
6499	Caucasian	04:01	03:01	03:01	13:02	01:02	06:04
6500	African Am	03:02	04:01	04:02	11:01	05:05	03:01
6501	Caucasian	07:01	02:01	02:02	15:01	01:02	06:02
6502	American Indian/Alaska Native	11:02	05:05	03:01	14:01	01:01	05:03
6503	African Am	11:01	01:01	06:02	11:02	05:05	03:19
6504	Hispanic/Latino	04:04	03:01	03:02	04:05	03:01	03:02
6505	Hispanic/Latino	04:02	03:01	03:02	07:01	02:01	02:02
6506	Caucasian	04:01	03:01	03:02	08:02	04:01	04:02
6508	Caucasian	01:01	01:01	05:01	14:01	01:01	05:03
6509	Caucasian	01:01	01:01	05:01	13:01	01:03	06:03
