5269
3069
83862
10938
1203
84337
253943
6924
56616
9686
81502
51070
28822
28793
28796
3539
83481
54460
5788
56850
23336
8148
8148
100101267
4925
7296
2879
81554
3163
1278
3698
51309
23786
8570
22884
10489
9885
29920
7922
3514
10426
2993
84061
84311
30844
56259
9789
126208
58505
100533467
7177
22848
9987
26007
23089
55333
57414
64236
2876
6229
9669
5725
8517
26292
3909
1644
11116
3500
10884
4839
9526
64744
55852
79009
94059
57412
50618
54922
147798
4582
25902
25901
6525
54504
81532
10991
5434
79634
241
51135
51205
51100
10426
85465
28307
8215
140606
83938
9922
27095
51292
64783
10436
9984
8915
2350
2316
63935
4705
999
9321
55823
3502
6139
57117
3694
10809
439
4287
51441
51534
1173
7323
84522
3500
65109
6891
139322
27295
54505
280636
7165
3537
7360
23613
10728
51429
9353
2201
4820
10581
2626
125950
10486
10016
79796
2976
23370
4082
28933
8635
3420
23705
23262
54543
10992
11127
91752
4076
51676
22985
1512
64062
5588
1306
22950
10752
5087
28882
29934
6519
1291
5970
51633
55616
51635
23420
23176
169714
6780
23647
4698
9403
23527
2878
10637
10153
93664
64708
3550
4904
28878
60682
5721
716
23325
1265
3507
9043
25831
5706
9643
91833
23348
1793
55905
5645
79868
22848
374666
NA
11183
23152
65263
3910
5947
57418
51540
50804
4154
84448
8241
2948
11100
26086
23265
10142
5336
55425
58533
5110
4580
840
4646
9221
6594
6631
10006
6238
49856
127281
4781
25771
10318
28394
64847
81855
25839
818
10847
57447
23436
8672
5592
5154
5799
3033
2274
93611
10640
394
85461
22941
8644
4140
10351
2232
1477
1645
3988
22828
6597
23307
1114
3712
134430
57674
27067
89797
3611
1622
4919
57552
55297
5934
8453
81888
2821
53615
84561
54502
55236
57698
389337
10994
26030
285590
50
57148
25980
6194
10919
5698
7726
10573
51594
285331
23404
23078
29062
340307
129446
55048
80006
23019
643699
81631
342979
283871
285636
91433
3054
794
100131017
11164
23558
90861
405
10897
9203
79861
23347
340784
84747
51668
5255
118487
29097
388125
5725
375318
975
1730
2029
131873
928
7158
8904
5524
79174
3630
6453
201229
6638
55066
10311
6612
7260
389136
100130932
208
754
572
390916
5289
91445
10250
25777
25777
51386
2130
7329
56478
50809
50809
345
372
11020
5880
4809
8459
2192
3664
5716
64769
832
2048
81563
4774
83658
84545
5631
10092
8874
140836
23157
7186
2987
11124
1604
288
5660
55627
23210
54981
5058
23479
8667
10933
771
8076
10423
3035
65975
7355
9791
3020
7869
130617
25989
54623
6605
1499
51440
22997
664
5413
9555
1431
11137
6182
6606
715
29896
29927
8428
5921
56339
4507
27163
7411
81570
8087
80055
80194
1432
5830
83759
11101
629
27032
23603
100137047
6119
4072
6122
4735
129138
10951
83874
60526
151011
10869
55083
256364
92906
9677
91452
22796
53373
121512
7982
10313
25852
287
2983
55661
79726
23024
653519
81617
8675
387707
56904
3700
728642
92856
9470
2744
151525
84141
51678
7341
84668
5757
55139
6923
51263
55240
3267
10713
10989
6603
389677
23549
11342
5163
1499
140739
10015
9179
4698
6745
6120
4708
51530
90693
6717
79671
9759
63917
7325
381
3912
2591
80760
91647
5431
54677
9779
1104
23609
6168
11235
91663
100885850
4842
3480
10682
3945
5359
9805
55830
7867
60678
3921
10181
51068
6747
6432
5931
2395
207063
23549
51092
4286
9997
2266
10589
8896
30
50814
800
14
6192
5130
347
56181
127700
54965
10494
2873
54205
27043
59307
8867
54148
4735
1890
9332
7416
388564
327
23192
2783
23355
421
10617
633
4709
92106
51065
5437
23171
643834
100526760
55486
131076
5096
136288
8994
4190
79876
54927
79689
2618
151393
11118
22908
197
79944
445815
79840
221443
29927
11152
200916
4897
54664
7328
10202
1500
6165
13
622
7576
65059
286887
213
3856
5644
3880
3858
9168
3857
3849
3855
319101
3888
3872
22996
6678
1982
254427
3689
2730
84687
85013
6161
10587
25890
713
5164
9908
3796
56650
1350
7098
55319
51247
53343
5097
4086
81579
255520
6391
51397
25816
83478
5238
79921
6228
5188
7345
10605
55752
22872
54940
653125
53407
1303
55325
10399
3187
5393
80854
NA
5831
23646
23122
27165
79145
2053
83940
286144
6482
6500
10397
475
51389
10434
5201
4869
2961
3066
6902
6921
7381
55156
759
6383
56943
1495
2138
2936
4869
80185
79752
10397
28998
5885
6867
9167
9217
309
10980
83594
80162
801
3673
1499
2319
427
5504
4741
51366
51592
2006
7702
5624
1293
118
22948
10152
1080
989
23215
4729
22982
7148
9570
55745
80218
4057
79042
9897
7430
25844
22985
3149
84908
157769
79956
4628
7145
1191
2678
256471
124245
667
7060
5747
26121
1756
23039
387680
6133
63967
5515
10827
9112
221955
57348
5108
23549
2186
3426
3615
90196
28969
948
1457
54861
3688
54920
1981
201965
1838
55193
26999
92170
71
3059
5018
55153
22879
54536
1831
79876
4711
7204
4359
57020
1975
6138
80012
9909
55361
5199
4666
10189
10606
55750
5931
7586
2011
8893
3371
23324
25904
858
23530
54899
1400
22824
4430
3382
54882
5138
56978
8829
10450
5170
3045
1729
9631
80221
1462
26608
90113
7145
343099
23534
27342
5528
8878
351
5796
4130
10180
710
7247
6195
10920
4715
56922
57404
7123
23395
2946
5433
6744
727957
51144
3312
10553
4802
79792
55014
112464
23788
9537
7070
10482
2147
4714
57661
440026
55346
51035
55829
144535
1936
1072
2495
5836
57410
84875
5530
9774
144100
38
55291
3276
4338
10658
91408
1936
22827
9659
100528064
1936
81490
84285
9520
93343
6157
823
10542
10312
85021
1207
5058
977
23365
4008
5407
389
10534
51375
2222
28971
6811
966
128387
196264
26610
10072
6288
389
5252
53
2197
9698
1410
79731
66005
1936
29082
10455
9919
10844
51691
5909
1616
100
51019
65125
1108
55004
2022
214
113246
1603
732
25996
29888
55611
9114
51504
51329
415
3978
5829
5908
27010
6520
144245
5908
10243
64852
79676
11021
5927
57120
8091
8518
25792
3145
10484
55611
397
7251
1366
326625
84790
23545
374291
593
5715
25938
79869
1642
4641
54682
567
1534
219927
8928
55308
56948
2799
201626
51031
29993
2782
84271
5902
94103
257194
10367
58515
4848
790
5149
84329
387882
60673
6311
11163
7846
6302
4801
11176
147920
54407
967
64786
22818
28513
23241
55738
7024
1431
283450
6601
9169
51699
8086
4666
7184
10330
124944
80224
506
51535
5501
1368
4673
204
140465
5149
3856
1431
116138
3178
3043
2009
9577
27333
6134
26355
54954
7072
547
10618
401505
57142
79767
29974
65268
27247
26130
54520
6809
6844
100526693
57592
84317
22908
4644
90639
1933
1211
11052
6786
9512
51606
10256
55327
7082
118426
51586
51026
51109
677
4149
51382
5641
57578
84467
100526740
5265
50717
3183
4053
3183
641371
63894
2764
2954
10516
55968
57062
283635
57447
9147
55671
5687
51004
84450
10914
3912
23180
6558
23471
55147
6305
6598
57720
4793
8654
6654
60528
84364
5217
10109
9527
56945
51692
55303
6386
9632
996
80324
3187
10059
1347
51497
115708
7791
8813
153090
155435
23133
63892
7919
4763
23387
64714
3615
200014
9732
6173
51569
51614
5546
275
6908
2803
6046
6670
23385
100532731
84065
23787
5644
22820
65008
84135
1609
10399
10591
821
689
171024
55255
10605
255743
50484
26986
114112
26986
84549
1191
9158
960
57489
93100
79053
5536
1717
1936
23345
9444
79080
55198
6141
84324
55605
10540
51303
25840
60485
10979
5527
79882
51635
1152
57680
7528
55148
3895
2585
51234
79603
6642
6158
2108
84419
23604
55072
9325
6727
2628
5875
51496
3419
2644
55187
6732
10521
51667
8996
64400
54939
65082
10921
9798
80011
440387
NA
4351
3073
10229
440387
4351
4913
84916
23499
2521
27229
60490
90850
64755
2671
84936
56061
18
51324
1459
6296
26258
89941
348180
10273
124454
10260
11273
25801
79595
316
57488
115548
8470
22907
91624
6262
51626
9818
50485
23263
4155
1453
54976
55909
4684
7168
53938
151195
2923
7871
84365
54606
84693
56683
10284
79083
55176
84162
26063
84272
8882
23593
89122
7375
54887
10282
79135
54504
10314
23518
10969
1027
83986
6936
79811
4849
8533
54585
25782
80145
629
54625
145781
57190
55352
79184
4599
7335
4905
5034
443
112483
7531
9552
8526
100529211
51009
114984
23277
29066
2813
79066
1984
79001
5034
5034
23589
79643
51451
10040
NA
4927
10577
4301
5297
23392
23186
54885
9973
6522
1731
51428
55742
3679
6427
6249
51747
54788
286077
226
11201
29789
11138
51651
23774
23281
5901
25870
23780
23242
22928
6878
6904
2873
284110
147007
201266
51155
79415
22878
23164
22794
146456
865
6143
6426
1973
10523
23450
51081
6341
90507
64772
114881
2064
2314
54499
6827
55336
350
146223
10627
7756
7525
65244
114876
23233
5445
51185
573
84303
401024
64149
84823
8450
24139
83473
24139
84309
4089
83475
55658
84617
752
9361
125061
26528
148223
8632
51073
5493
11332
762
828
6209
6155
147991
5589
374882
81929
11315
10755
10209
81671
5539
84656
5300
10197
498
29919
9267
79763
7064
79171
81890
4677
7596
9703
10212
439921
2193
100533990
2531
1675
6146
341
3728
79002
84617
4239
79877
358
113829
54529
54938
11316
56005
587
10382
79036
23211
23521
3661
1175
808
4670
9138
10055
6193
4650
6829
6223
6142
10382
718
27243
8192
1891
6626
284361
2091
23770
4670
23126
1777
8540
10212
9124
4542
8773
10456
9049
9567
3965
6814
10944
8546
4728
5717
5718
10857
6829
1676
1192
8665
11060
8050
4147
5768
10671
9197
8976
3843
29904
10059
8634
3475
375790
10473
4697
10213
51042
274
3839
3898
2166
4013
10199
10528
1654
5420
8544
3840
5537
4125
32
8566
6319
8613
8289
126393
4706
8943
3983
1106
1861
27348
102
3613
9141
10419
9368
1200
10915
8542
11128
5688
10067
26873
10295
4259
30851
3551
100287932
9246
8573
5338
27089
9146
4659
11001
2580
7514
6712
23654
23351
23350
9371
5198
9201
23243
27257
4864
10555
8560
9522
10066
10095
10109
10094
9533
10424
10471
9277
3911
7739
6183
7425
1193
8310
11079
6836
5603
10558
8473
5373
4253
5496
8664
4931
8417
8714
8974
10652
8653
7737
1365
1665
8731
23140
23378
9128
26227
4724
1783
5709
9061
9183
6692
9092
7041
259217
6885
9521
8767
10236
10236
9129
9352
10328
79033
5612
27429
8574
8842
2037
11041
5205
2309
8562
11260
10469
8440
5356
6001
4695
9184
9465
81
114049
51499
27336
164
6449
788
4677
11051
10314
6801
10270
2542
813
813
10768
4725
5147
5885
1678
8449
5346
5636
2788
8467
9764
23094
9716
4976
8888
23028
9882
9718
26471
10905
10154
8724
10724
10174
10492
51362
26953
2762
8985
11336
10226
9194
23633
7358
8459
9404
6643
8615
63931
10043
8346
5208
28952
10084
11230
1736
8721
10294
23476
51596
6992
4683
11081
5362
9917
9813
9948
9475
8895
9026
9877
23066
23317
9701
10049
9942
57017
79017
4720
8446
2631
10016
9550
9525
956
9555
6451
2317
4726
8501
9554
55660
6867
4034
10651
9559
4707
2081
11168
10613
2239
4722
10772
3281
10455
10656
8815
23451
7812
11193
8575
23077
23464
23020
261726
6838
5495
27340
8604
6920
5064
10535
7366
6650
10799
8666
8669
874
5276
8906
10269
3417
9420
8455
10741
10254
10840
8694
9249
10550
8291
8554
10286
11258
22826
5884
10476
10211
10632
1362
10539
26156
7466
8416
10845
10590
10529
6623
6731
23576
8725
9219
343
6793
11076
9920
26046
9868
4642
9871
23376
8470
8470
8470
9725
9855
26043
23353
11212
11160
24148
285527
23052
2744
2744
140710
161
161
10614
27134
3268
57466
4712
9927
22977
10277
7542
4696
4710
4701
3954
9406
8723
11143
9217
23557
4718
11328
25796
9060
10533
10667
11313
10527
10425
10569
5238
27304
10911
10421
6840
23556
89932
10598
5073
8624
8879
19
10802
10427
375035
25874
23474
2181
8623
8760
5509
9545
9342
9943
9991
160
23586
8436
9532
9531
23417
9131
9068
10380
23564
7920
51060
25949
30008
8434
10551
4716
1209
4338
10452
10298
86
1528
125
3939
216
2746
1727
2936
4513
4514
6647
1356
2157
2162
4860
3251
2806
1956
5230
203
3240
3250
2158
5340
760
445
6690
462
5265
12
183
2
718
727
7076
1471
3827
3845
2641
5539
4852
3512
28299
28896
28912
28908
28797
28461
28442
28452
3501
3503
3493
3494
3105
3045
1277
1280
1281
1282
4000
335
348
336
2243
2244
6521
1401
325
712
714
735
350
116844
2335
5950
259
5004
7276
2638
7037
7018
3263
4538
4540
283
722
7448
847
5319
2629
2517
1476
301
338
1208
2908
6648
4942
4942
3273
28912
28913
28822
1
3848
6285
7450
10382
2597
435
28894
3105
826
4494
279
3315
1536
6184
6185
2771
476
481
1114
229
217
217
6279
3150
5582
292
3957
4353
5095
249
1965
3151
3383
6176
6181
6175
6447
2170
661
5967
6741
6906
3688
3875
793
4632
1290
3643
2717
2934
506
6280
337
1977
2023
2023
2821
4869
7170
7170
3685
3816
2052
7054
3945
5034
3005
124
1509
302
731
733
823
203068
1634
1634
3074
1514
5216
353
2058
1508
3320
2592
7388
4067
7169
7169
2271
7057
6035
6667
3303
309
4804
63036
51032
5213
3326
6734
440
4313
6649
1511
5160
929
1284
1537
6629
3075
6625
3678
4782
7431
1576
6218
2773
308
23436
150
10136
2026
6728
2939
2950
7429
3956
5860
3146
2203
2775
2944
7168
7168
1212
307
307
1267
5159
1738
6627
1345
4070
142
240
4048
230
720
94239
8331
200933
284106
54921
169834
55997
221710
6288
6289
445329
2230
5911
6738
2548
6237
369
3008
1737
5792
7295
1329
5476
4257
4137
4137
730
5573
1113
2098
3329
1191
3309
3915
4133
3312
6513
2035
7372
5162
1629
3684
5834
5898
3916
34
7150
2539
5091
4522
3482
128
5634
26986
5111
1292
1293
291
293
7175
1152
306
548596
87
1636
6714
5184
2547
7520
1327
10437
3920
6050
1535
7857
1938
9601
729
5033
7178
210
3123
3936
5358
2108
5576
2963
4282
4267
2224
4811
10327
5320
5315
7184
3416
1340
3191
1615
3728
7381
1357
1360
1359
2167
2752
231
290
2935
5224
410
7347
4179
4830
411
6187
1832
6118
7077
3014
3691
873
35
1385
5406
2720
5175
5532
3009
3007
3006
5447
1800
4255
5126
488
1363
2184
3925
8531
7570
7572
4668
3310
3159
8834
2805
5578
7343
4713
5566
824
1674
2596
1503
1655
5211
2760
3958
5702
6950
5770
3485
3693
378
6129
7414
3929
6651
7936
5223
6382
522
5066
7103
7412
4691
3098
5432
2678
6737
5610
2523
6723
6548
5005
3697
1056
4790
280
490
8894
310
689
5867
5868
5870
5689
4074
9377
4001
4969
831
1577
3614
1289
175
5763
2947
526
528
1465
4128
48
4907
2819
7416
633
6390
594
1312
7052
4594
5007
2091
2618
7148
6342
7317
654364
5167
51083
3181
5989
867
5567
7385
2235
4360
1066
2192
6917
3655
6421
27175
5479
6271
4200
7453
6188
2653
6198
3716
6672
4800
191
493
1376
1841
1215
3908
2875
1346
10945
1933
515
52
52
38
38
10398
5430
563
4357
6206
3337
3300
498
498
5682
5683
5684
5685
50509
3675
5806
4478
1656
1496
11338
6137
6275
4245
3148
6897
7407
1937
2286
2040
5444
4129
10971
5595
6134
6117
328
811
4134
4134
821
5696
5686
5692
5694
5693
5825
7111
33
4719
5594
2896
51056
947
2960
5122
7174
3612
5777
6464
1287
7086
834
25802
5371
5267
1936
2767
8659
64081
10961
9588
645
25824
1652
10935
513
6136
1892
51727
5037
2923
5518
5519
10105
4836
3106
3106
3106
159
4043
158
2952
1992
219
6389
11151
2664
4144
5577
6385
3301
7384
11112
471
3189
7529
2810
10963
6282
3897
7001
1635
2633
1997
1491
6133
2180
3799
4046
1854
2977
4121
11014
2588
6038
6470
6472
3308
5646
1495
5245
5962
5984
5982
5981
2962
6697
3425
875
2200
5105
178
4627
4628
9276
6646
119
682
682
8021
7913
4629
4629
4629
2745
5494
3483
3155
5701
6567
2687
402
403
5605
509
529
1371
6124
5236
2794
5176
1743
2766
3080
3294
23636
3241
8407
6888
2109
27316
523
3313
9775
6223
6122
80781
1650
8125
2237
822
200081
908
4837
1506
400
6774
9101
5824
4190
4191
5985
3030
1968
1069
1939
5630
5730
8260
1445
2617
3376
5584
10120
1632
7112
7112
7112
6772
6778
23517
8644
5291
2475
2060
6232
10128
10449
11224
1031
5547
1889
6506
6509
5048
4162
1384
9782
4436
2820
6850
10135
173
5704
7417
36
23468
8078
5601
6416
5256
5905
5965
546
1398
1399
4528
7917
5606
6125
6144
6203
6204
4131
10007
4734
10413
7402
8826
23498
2992
3703
830
1964
5859
6159
7386
539
1358
3987
6387
5550
4199
5968
5305
6662
4047
2729
3762
5714
7916
2937
22948
10763
6782
1452
3418
23760
65108
223
6164
3998
4678
2330
2194
2339
7203
9801
408
7284
501
3628
6726
7319
16
833
23438
6301
9647
837
10664
5691
5690
37
56252
10972
58517
8650
8892
3094
9972
5903
4723
2932
22978
22929
10588
8833
3980
4361
953
3176
2776
3419
6817
1396
5498
2665
2010
1374
2628
2628
5272
871
8572
6767
7408
1785
10988
318
987
4059
5538
9045
10694
10575
311
9513
5878
7879
9367
5872
5333
1611
7818
1845
6595
3421
2584
6748
10134
7172
4204
224
7915
3295
5713
6821
414
6777
6197
3068
4060
5549
1264
4331
4702
220988
5226
4670
3836
22916
5910
5608
396
397
3185
6773
2956
7410
1124
10247
6611
6182
1646
829
1397
4928
644
6576
27236
4682
47
23173
8802
4597
5229
5876
1315
1314
1075
10947
10923
5917
7013
781
5407
5408
8565
9097
5571
3306
586
483
486
5886
5887
2049
2050
4669
2619
3158
5832
8775
141
199
1983
1819
5360
1434
7415
4236
3032
7873
7862
839
2813
2813
132
103
3913
7163
6396
3188
5019
8662
637
4731
8568
4141
3672
100272147
9556
521
3960
3692
4700
55161
57111
79585
57122
136319
1672
7167
3646
10952
5531
140823
7327
71
1973
6224
5631
6281
998
11034
4218
60559
6729
53916
5862
5869
10890
9040
3093
7334
51552
10096
10097
10121
9318
375
6059
5912
6189
6154
6750
6138
4116
5092
387
3336
4069
6812
6167
6613
10238
11091
1174
10204
3190
7532
22800
26519
6201
5499
5500
5700
5705
6202
6210
6217
7326
7531
6208
6222
6235
6207
6205
6635
6636
27258
6632
6633
6634
7114
382
6130
5436
2107
7555
7555
6191
6147
6194
121504
5861
9349
5906
6230
6231
6234
2782
9978
2783
6156
116832
6160
4736
6135
6132
5478
2280
6233
7311
2885
6434
5879
163
2778
7534
5520
8655
6993
6169
6500
6227
1984
10399
5515
23478
1460
7171
70
7332
158078
10376
7277
10383
5049
3043
3048
3039
1525
10557
10556
2969
8396
6733
9071
10576
8480
9446
182
5591
8738
3934
3430
4496
4501
10409
28796
7110
64432
55173
92259
64960
64968
64965
79366
114294
91949
6152
4088
2079
391
10169
6428
1601
2199
3339
1947
5935
4354
7019
5306
4143
5250
2959
1021
1020
5813
11135
1213
4791
2287
7905
6652
3192
3192
440503
7307
7307
6711
7073
6418
6418
6332
2585
1486
2171
10487
5394
54726
5214
7508
5331
6876
2982
4967
4329
1593
622
1294
6671
1824
5604
2288
5351
4924
6128
7155
9590
8402
4298
857
7127
3078
1300
2632
538
7088
2739
6742
7533
5355
7337
1759
5782
1178
3991
9295
1917
5580
800
800
7373
5781
5068
5471
2673
316
5720
6015
2332
5052
708
10970
2028
1307
7062
1805
10657
581
3831
4035
392
6429
5530
1660
1429
780
2802
2801
3959
1962
4240
8226
961
5481
2267
6749
55697
54888
4686
79026
342898
84952
4247
2590
2589
162
29894
9805
23279
7984
2308
2975
5756
444
11214
2202
6810
1107
10946
1806
11070
9255
3608
3609
10960
4033
2059
10131
288
1739
4643
5511
8073
662
1479
1891
29966
8881
6789
2314
22954
80347
64714
6694
8208
5562
23435
10949
7965
8772
10549
5062
11335
6788
5708
1662
5611
8991
4832
8683
6430
6431
10155
10146
9111
5754
8761
472
2887
24138
5802
8668
1487
5337
740
1781
23530
6645
7518
9360
6949
10956
11333
8751
11018
2289
6093
4773
8301
4534
8878
10381
8899
1978
1979
8737
3065
817
10540
5311
8883
22938
8525
10788
6642
11103
8454
8452
8451
7159
7264
2273
7841
8563
357
6709
6709
6709
29889
549
7919
642
6641
7280
705
3422
1523
3603
9793
1153
23406
10063
3184
3184
950
22795
3606
1605
1829
23246
9354
9667
8661
23167
9898
23513
9761
23170
1809
1639
1778
1967
1974
9053
2017
5955
7706
10875
2318
9130
10672
2593
2582
5139
9584
8404
6596
10954
5635
3709
3710
5357
8270
9320
9656
9685
8243
23076
22984
9790
9100
23184
23193
23193
3930
27232
9961
2804
841
79038
3927
22949
10457
54734
27332
3837
4926
80018
9694
9589
9861
9709
23172
9733
23016
9343
9784
22930
23516
3735
23212
7458
8019
23160
10631
51
51
8411
10130
5050
5118
8682
5239
10654
5339
5525
5464
11329
4841
5822
23475
9135
5929
5954
10928
10959
5093
5094
9690
9804
23450
9933
6251
1266
6294
10262
8175
5510
10483
10291
6499
9104
6834
6835
7014
10982
7045
9351
8717
7536
9322
5469
9324
7205
22919
1994
4638
10454
6510
10953
6905
6903
7336
6813
9341
4738
10974
9230
2110
11047
8030
6675
3490
5711
5586
1466
1642
5529
11140
1808
1893
100506658
1627
5740
5166
6624
3428
1666
4124
7263
3029
4704
6252
5106
5798
1595
8639
1716
9296
5210
7164
147965
221092
94134
64423
3107
23244
55720
57186
79364
285148
54870
55234
80201
340267
9208
64175
55700
91373
124801
162073
161291
160428
55684
92609
29094
166785
112936
51574
133686
283464
197322
9581
26000
286262
196527
64714
445571
338773
605
2036
283742
27250
9540
51144
6419
51110
65124
22837
64342
79901
124997
132299
2202
664618
391634
27346
284695
51248
129607
134218
340706
26091
2316
345778
285282
84274
283820
400986
375056
7317
51032
10531
7417
54521
89846
84726
219348
10319
23223
388753
26205
26092
57505
1741
11064
55795
2940
2940
51340
11000
51377
285203
219899
30836
9491
55020
116228
118460
151742
23511
254295
50809
26119
54953
79707
25936
216
1757
341640
51805
127262
54874
10487
27293
83442
57038
80308
64077
23091
79591
143098
5174
200205
7389
79654
6425
23352
134957
56243
127665
55833
414328
84267
163782
5524
9446
84300
440603
260425
84301
440686
221294
57221
9696
55183
55275
23248
27069
22874
56254
221061
27237
54901
148362
54914
57678
5710
56288
127018
84154
10171
48
60560
55604
5887
54836
57700
125988
2316
23371
25959
55132
23061
55201
55844
23108
196528
64759
153364
92255
131544
65123
55114
55280
25923
64359
55561
81488
57019
10322
391356
440387
148811
55191
25979
11344
23313
653689
201475
25836
79612
29957
54884
60561
54867
26275
25871
54845
84193
170954
284119
55596
90957
116541
10162
79577
64928
10999
54862
55798
414919
23644
90826
10594
163486
55681
119559
79887
26504
81889
147700
203111
54890
23042
80789
64856
376497
283209
9646
9652
55157
157378
79651
374928
23367
10463
388552
282991
54812
81608
23373
130120
79154
253558
283298
10562
285016
57535
79174
80335
55690
4588
387129
80223
93100
201562
26058
135228
84263
56267
129285
79875
390927
7168
152518
127687
130507
643853
118788
91050
388115
25758
146691
54832
9736
121457
54926
113251
113251
7846
94239
6830
27044
1355
9879
54931
9689
80150
54793
10480
56257
9823
51333
25973
10670
23191
51608
55556
55760
55233
57132
9653
57553
168620
84844
81627
56829
79631
256691
23064
60684
53371
80017
55088
285190
9765
23041
79784
57532
26099
57506
170622
51020
143888
55679
55605
84717
51181
51125
23063
127435
359948
54518
5930
348110
25851
10075
128308
222068
201161
79966
10806
90809
161198
23216
84447
83707
58497
122961
8106
55015
220323
92140
3895
50624
23187
84196
83706
81567
65985
7798
160897
284439
26085
51028
55832
162427
84376
118881
149951
85453
79228
8505
8496
670
83752
126382
55246
197257
340061
51599
10498
4817
112817
23141
11325
51014
80144
126328
54919
23673
84787
55268
56605
57171
54815
116143
9847
26145
57118
23085
153222
165
85007
286343
283987
57037
113146
219285
115677
152137
157869
139341
27349
8844
55739
55669
57153
57590
92689
80020
9648
9024
84295
56262
197131
137872
57794
55749
54431
55288
22933
64975
83666
79871
10908
55601
154810
117246
201931
6832
23708
149371
84958
126402
339448
79896
135293
88455
79586
27079
126133
85301
54464
154807
197258
171425
23111
152185
91875
245812
122622
57805
91942
6293
9688
23070
57470
26173
83787
26090
8425
23171
54978
93663
10973
254102
85377
64398
10735
11346
23360
60558
728294
25953
50488
374659
284273
84869
93380
84632
55074
55133
389203
55219
55793
493856
138716
54534
317649
150684
200185
128486
51603
23065
145482
55740
133746
255252
65095
123036
84892
166378
374354
23080
79709
56983
78991
25963
112724
79573
51170
51097
26135
221496
25977
25940
84901
254225
128240
55181
257160
26065
219771
79716
23301
26505
55349
23
90550
113828
118987
55198
23345
259282
57492
79023
129401
9185
100131187
83451
55907
29091
199731
258010
223082
246181
196463
168537
121441
64326
90411
57187
10207
56997
90480
55666
64798
347734
9950
54758
9039
153339
79837
64786
51109
30833
201595
87178
23299
91754
84706
80301
151636
79039
63915
26038
55299
84230
140609
9821
54961
92675
80344
23225
84720
140775
79711
25957
115752
54810
117247
147179
64318
9382
152579
55854
85313
10848
83989
9392
90488
55746
10015
92181
92745
91782
51337
257364
134492
10274
23256
79983
134510
57092
283377
79568
23446
114757
55023
25920
23022
140890
150678
150678
29106
79833
57513
55269
51062
8567
23224
57459
93979
23234
140707
25909
54487
124641
84328
126298
1653
7923
10447
8971
8729
23168
9777
9844
9896
1176
23190
10397
10808
399687
23185
10985
23165
23294
7837
6444
10240
6653
10541
5819
10342
10552
6239
3066
8027
8189
8148
843
5372
10111
26578
2072
7353
2734
5976
10987
27238
6599
51762
2639
3842
9181
11146
8239
7874
24142
8065
535
4026
489
3081
5257
85012
90121
55312
56005
51604
93185
90441
84340
56926
57222
84705
54996
94274
57003
79590
94056
29058
60412
79763
8880
91137
55379
143187
90952
57326
63933
57456
60681
84335
119032
100188893
64853
127829
90268
54997
91801
9317
128637
79180
130589
54986
28960
26472
387338
92421
51015
23197
115098
55572
115207
114928
116442
79746
119504
134147
9410
121506
80271
64978
27248
494115
115209
286451
29911
64841
64951
113655
9093
55037
199857
25927
80153
140735
140576
64065
55276
112950
56931
84946
113675
57026
54165
79979
51011
54785
92935
51074
51101
11267
80179
10611
78987
91703
30001
23382
57572
92840
192111
27352
65992
55526
100996939
8939
84991
8801
84859
29926
84836
55768
84833
5074
83737
26018
83548
80279
23339
4135
55610
80124
54495
283489
80829
79789
84947
55031
81037
64215
57473
157638
55770
55748
51663
125972
57634
80173
91107
115817
127733
133619
56160
115294
137695
116835
84342
79034
79143
85440
118980
54102
55695
55197
116988
116985
55705
130340
9828
10432
115426
23327
54517
729359
51095
5514
66036
55737
201895
5814
84680
9223
116362
112574
23230
85476
84955
55914
85378
64788
112858
94005
56897
10048
23155
55342
84928
2882
55677
25942
114883
84890
51773
80230
23013
11284
64855
55177
1155
5695
7095
5833
988
5707
6388
5204
6272
10493
27000
8502
5025
5274
10940
6284
7257
8663
7265
7266
11331
11261
4548
3028
3182
4676
4258
8774
25828
27109
9375
2030
10519
10574
11330
10554
5318
6455
5919
7443
9518
8508
81873
65987
79035
83743
28992
22980
51295
79084
1802
78988
10514
79443
57175
84817
84313
84445
51150
84305
83440
53918
84293
81844
23071
56925
84284
90580
51204
81932
23344
84269
10695
56052
51763
84262
51138
11083
84516
79892
81611
55227
79188
29100
2519
10901
91289
79170
8569
54968
84617
92359
286257
54913
79139
80303
9416
56898
55969
79087
84245
8673
55256
51102
79073
51260
79050
10813
54935
54732
87769
26354
79029
79098
79902
51673
64834
55702
80222
39
29803
5936
65991
83443
66005
149986
10580
83700
84681
81537
83483
54829
51593
81890
8907
84520
27440
84034
3704
83939
90701
85379
85358
64983
65005
84612
64949
57486
95681
80025
51253
23560
79058
114882
55075
55717
79718
54776
116496
80700
7371
6614
8539
84661
23321
79068
25921
85456
63893
54545
55339
55759
64129
64129
57095
80349
81892
63826
60492
60491
54583
56947
79876
64077
84233
83452
55341
83641
55226
64837
80895
22803
54472
64761
23283
51251
81553
84064
51202
81876
29074
81562
83987
28970
116092
64374
64682
64207
84418
64710
56255
63971
84164
65110
64145
548645
548645
9474
64743
26276
11078
80270
9748
219402
51347
25782
23394
170506
27068
26589
5411
54566
23731
83638
1798
552900
10628
81542
7469
64746
23580
25930
55898
64094
80331
84886
128866
79176
64080
64122
23509
128869
6051
55204
64083
64172
64093
2036
152007
28984
85365
55127
79874
64216
63932
79961
64428
79611
65083
64848
64787
79697
8498
79077
63898
79834
80232
81550
64426
58506
55051
80142
55248
51808
65264
28976
64795
79886
79812
26003
65055
79751
79691
79624
55631
94081
192669
79720
55140
79672
79735
79587
79717
79685
64802
54477
26019
57510
80273
63976
60314
59338
59342
8195
27101
64121
55764
57665
57834
55848
57407
124565
55858
27436
26137
727897
10418
64087
57727
4343
57721
55160
57703
57687
57669
23753
53944
56949
57124
10113
10011
57130
57129
51091
56889
57136
10058
26286
10363
22931
54873
29101
56851
54512
55505
55644
55929
51477
29117
55802
55856
29079
60626
22918
55692
64976
23236
57103
653440
135114
63905
58490
5203
56954
57099
23303
7511
55930
57050
57089
57448
9260
9188
56681
54187
8891
50649
26270
9463
56474
54107
56944
60496
56893
50865
11311
29085
57515
56894
10210
56993
55915
10056
55699
89953
64422
23410
23047
4123
22908
55862
10137
55633
23195
84532
55347
55337
55794
55788
55330
55326
55787
26010
55324
51571
55773
55272
55270
55763
55756
55754
55751
55230
55229
55218
55735
55217
55210
55207
55192
55726
54552
8886
55168
55163
55149
55707
55131
55696
55108
55092
55081
54476
55824
55662
54995
54987
29086
54969
54963
54958
54539
55651
54940
54936
25764
55646
54928
23408
54468
54881
55623
54858
54834
54814
55602
54433
23166
151987
10072
26574
54386
9774
51287
51303
29766
51272
1951
56886
9524
51752
55860
55850
55847
23196
51573
51704
7342
9451
27430
26509
29997
30845
30846
51517
29767
11054
29995
51510
29099
51503
29088
29087
29078
51495
55831
51079
54704
56888
26064
9218
55506
51250
30827
23677
58527
51542
57658
57648
57617
55920
57614
57609
57608
57606
56647
5738
54497
6238
57562
53981
51520
57530
54439
57519
51479
8803
54344
55364
25814
8932
24144
58513
10055
26958
9902
55970
51696
4552
9070
10013
4234
51454
27335
9380
1522
6199
4189
51726
9604
10054
51738
51439
6400
553115
50813
84152
10157
7461
29796
9414
11080
10428
10490
27347
120
222229
25934
8545
10061
26136
26136
10352
11231
23264
56241
57446
51566
23075
25777
51474
6730
29110
10801
29978
51473
27344
51449
51449
11218
23729
29952
55973
51706
55971
5202
22827
29959
58478
51466
55967
8890
738
9031
50808
4152
29883
23270
2686
4482
55577
51605
51361
83699
10165
28988
51164
27283
51434
29882
26088
30968
26232
51690
51163
23272
11215
51154
26060
23131
143
22913
11161
29763
27034
27161
10762
55573
26512
1757
9529
26523
23011
57403
51715
28985
55753
57509
9236
57465
400961
4645
29108
9825
27339
29979
29937
51406
11276
27183
9908
9501
11252
10916
9482
5719
27292
9562
10885
55968
10466
22870
23358
23405
10810
22924
11234
23524
5036
6687
1501
9126
25978
51637
10856
10930
1120
9373
8607
10726
617
7419
11326
1073
25842
4733
10787
10330
22834
22900
22839
23012
22862
23329
23136
22894
373156
28956
28957
28958
51084
51372
26073
26985
23592
23589
9967
51729
51602
23568
10910
51067
51005
23597
51071
7795
51075
57819
51100
51719
51631
51465
51116
51118
51119
50999
51639
51018
51491
51002
51645
51506
51647
51021
51024
50810
51027
51652
11171
51493
25793
57826
23637
23423
81628
9980
203069
26155
25873
26093
26097
25939
11187
10767
5564
7094
9730
23002
23129
9958
10160
283638
83660
9693
1837
7189
10525
26100
10939
25820
23658
25804
25813
51400
9150
11198
51096
26515
26520
23607
26517
58477
10087
29925
9328
9330
9578
9939
10600
51124
51123
29886
27131
10101
6768
23593
9209
29968
10166
50848
27020
10404
10723
29880
28973
22820
550
25932
9054
29105
28972
51128
11117
10564
10565
8379
51143
51142
29924
51368
10390
58472
10053
8671
85477
23473
10163
22875
11196
55667
6277
100131187
9815
3190
6209
11331
1650
5184
57095
