uri,classes,id,label,desc,dataGrade,parent,caseLinkage,cases,casePool,unit,unitLabel,cellTissue,cellTissueContext,bioProcesses,cellComponents,molecularFns,otherfactors,sd,sem,iqr,ci,methods,combinableWiths,potentiallyCombinables,derivedFroms,hasDerivatives,UP,GeneID,authorNote,curatorNote,tag,seeAlso
https://osf.io/fstby#col=1,:individual_level_datum|:caseID|:nPOD_Feature|owl:NamedIndividual,ID,Case ID,Case ID,,https://osf.io/download/mnsey/,:complete_cases,cid:6230|cid:6356|cid:6409|cid:6362|cid:6045|cid:6492|cid:6223|cid:6426|cid:6355|cid:6130|cid:6392|cid:6294|cid:6098|cid:6282|cid:6115|cid:6423|cid:6049|cid:6227|cid:6103|cid:6251|cid:6281|cid:6411|cid:6383|cid:6066|cid:6244|cid:6429|cid:6102|cid:6410|cid:6232|cid:6109|cid:6305|cid:6364|cid:6239|cid:6088|cid:6417|cid:6151|cid:6173|cid:6350|cid:6302|cid:6106|cid:6479|cid:6123|cid:6308|cid:6043|cid:6091|cid:6371|cid:6220|cid:6195|cid:6405|cid:6399|cid:6161|cid:6095|cid:6160|cid:6094|cid:6290|cid:6467|cid:6455|cid:6111|cid:6086|cid:6288|cid:6118|cid:6276|cid:6454|cid:6183|cid:6035|cid:6182|cid:6167|cid:6297|cid:6475|cid:6496|cid:6039|cid:6062|cid:6264|cid:6442|cid:6319|cid:6396|cid:6449|cid:6061|cid:6191|cid:6238|cid:6189|cid:6387|cid:6202|cid:6006|cid:6138|cid:6334|cid:6268|cid:6470|cid:6201|cid:6274|cid:6011|cid:6208|cid:6155|cid:6333|cid:6089|cid:6267|cid:6143|cid:6321|cid:6328|cid:6082|cid:6259|cid:6090|cid:6027|cid:6205|cid:6015|cid:6159|cid:6337|cid:6295|cid:6147|cid:6325|cid:6048|cid:6226|cid:6014|cid:6217|cid:6358|cid:6488|cid:6494|cid:6349|cid:6177|cid:6375|cid:6428|cid:6487|cid:6363|cid:6416|cid:6262|cid:6394|cid:6316|cid:6070|cid:6117|cid:6099|cid:6247|cid:6425|cid:6105|cid:6379|cid:6235|cid:6413|cid:6068|cid:6198|cid:6430|cid:6129|cid:6234|cid:6307|cid:6021|cid:6437|cid:6366|cid:6153|cid:6283|cid:6461|cid:6313|cid:6141|cid:6271|cid:6009|cid:6330|cid:6134|cid:6482|cid:6126|cid:6503|cid:6304|cid:6434|cid:6404|cid:6077|cid:6255|cid:6030|cid:6162|cid:6340|cid:6241|cid:6175|cid:6401|cid:6373|cid:6408|cid:6361|cid:6044|cid:6491|cid:6197|cid:6229|cid:6354|cid:6407|cid:6490|cid:6293|cid:6097|cid:6114|cid:6292|cid:6422|cid:6054|cid:6280|cid:6382|cid:6113|cid:6243|cid:6421|cid:6101|cid:6231|cid:6278|cid:6108|cid:6150|cid:6040|cid:6172|cid:6185|cid:6301|cid:6478|cid:6122|cid:6300|cid:6299|cid:6042|cid:6076|cid:6064|cid:6266|cid:6194|cid:6398|cid:6391|cid:6093|cid:6472|cid:6110|cid:6157|cid:6085|cid:6287|cid:6145|cid:6275|cid:6029|cid:6052|cid:6017|cid:6213|cid:6469|cid:6345|cid:6149|cid:6457|cid:6279|cid:6034|cid:6181|cid:6212|cid:6166|cid:6344|cid:6179|cid:6495|cid:6073|cid:6038|cid:6008|cid:6133|cid:6311|cid:6441|cid:6348|cid:6318|cid:6249|cid:6060|cid:6059|cid:6190|cid:6237|cid:6369|cid:6058|cid:6254|cid:6432|cid:6188|cid:6386|cid:6439|cid:6005|cid:6498|cid:6137|cid:6285|cid:6022|cid:6445|cid:6273|cid:6154|cid:6207|cid:6332|cid:6462|cid:6339|cid:6320|cid:6081|cid:6327|cid:6128|cid:6258|cid:6436|cid:6079|cid:6026|cid:6204|cid:6032|cid:6158|cid:6336|cid:6164|cid:6025|cid:6324|cid:6502|cid:6225|cid:6013|cid:6403|cid:6357|cid:6341|cid:6493|cid:6046|cid:6242|cid:6420|cid:6176|cid:6374|cid:6486|cid:6415|cid:6131|cid:6261|cid:6393|cid:6246|cid:6424|cid:6104|cid:6252|cid:6378|cid:6186|cid:6412|cid:6384|cid:6067|cid:6245|cid:6419|cid:6055|cid:6377|cid:6233|cid:6020|cid:6365|cid:6418|cid:6152|cid:6312|cid:6140|cid:6351|cid:6481|cid:6125|cid:6303|cid:6433|cid:6124|cid:6240|cid:6092|cid:6174|cid:6270|cid:6400|cid:6372|cid:6360|cid:6221|cid:6196|cid:6228|cid:6353|cid:6406|cid:6096|cid:6065|cid:6291|cid:6468|cid:6053|cid:6456|cid:6381|cid:6112|cid:6087|cid:6289|cid:6119|cid:6277|cid:6107|cid:6380|cid:6184|cid:6170|cid:6169|cid:6347|cid:6168|cid:6298|cid:6476|cid:6041|cid:6444|cid:6075|cid:6063|cid:6265|cid:6443|cid:6397|cid:6080|cid:6390|cid:6007|cid:6335|cid:6139|cid:6501|cid:6269|cid:6024|cid:6447|cid:6471|cid:6156|cid:6084|cid:6012|cid:6209|cid:6286|cid:6464|cid:6019|cid:6144|cid:6322|cid:6452|cid:6329|cid:6083|cid:6459|cid:6028|cid:6051|cid:6016|cid:6296|cid:6148|cid:6326|cid:6033|cid:6180|cid:6211|cid:6359|cid:6343|cid:6489|cid:6178|cid:6263|cid:6395|cid:6037|cid:6132|cid:6215|cid:6310|cid:6440|cid:6317|cid:6071|cid:6248|cid:6236|cid:6069|cid:6368|cid:6199|cid:6253|cid:6057|cid:6431|cid:6187|cid:6385|cid:6438|cid:6004|cid:6497|cid:6010|cid:6136|cid:6284|cid:6314|cid:6142|cid:6272|cid:6450|cid:6331|cid:6206|cid:6135|cid:6338|cid:6483|cid:6127|cid:6257|cid:6389|cid:6078|cid:6388|cid:6203|cid:6031|cid:6163|cid:6224,,,,"","",,,,"",,,,,,,,,,,,,,,
https://osf.io/fstby#col=2,:ordinal_datum|:individual_level_datum|:nPOD_Feature|owl:NamedIndividual,RIN,RIN,RNA Integrity Number for recovered donor pancreas,,https://osf.io/download/mnsey/,:complete_cases,cid:6230|cid:6356|cid:6409|cid:6362|cid:6045|cid:6492|cid:6223|cid:6426|cid:6355|cid:6130|cid:6392|cid:6294|cid:6098|cid:6282|cid:6115|cid:6423|cid:6049|cid:6227|cid:6103|cid:6251|cid:6281|cid:6411|cid:6383|cid:6066|cid:6244|cid:6429|cid:6102|cid:6410|cid:6232|cid:6109|cid:6305|cid:6364|cid:6239|cid:6088|cid:6417|cid:6151|cid:6173|cid:6350|cid:6302|cid:6106|cid:6479|cid:6123|cid:6308|cid:6043|cid:6091|cid:6371|cid:6220|cid:6195|cid:6405|cid:6399|cid:6161|cid:6095|cid:6160|cid:6094|cid:6290|cid:6467|cid:6455|cid:6111|cid:6086|cid:6288|cid:6118|cid:6276|cid:6454|cid:6183|cid:6035|cid:6182|cid:6167|cid:6297|cid:6475|cid:6496|cid:6039|cid:6062|cid:6264|cid:6442|cid:6319|cid:6396|cid:6449|cid:6061|cid:6191|cid:6238|cid:6189|cid:6387|cid:6202|cid:6006|cid:6138|cid:6334|cid:6268|cid:6470|cid:6274|cid:6011|cid:6208|cid:6155|cid:6333|cid:6089|cid:6267|cid:6143|cid:6321|cid:6328|cid:6082|cid:6259|cid:6090|cid:6027|cid:6205|cid:6015|cid:6159|cid:6337|cid:6295|cid:6147|cid:6325|cid:6048|cid:6226|cid:6014|cid:6217|cid:6358|cid:6488|cid:6494|cid:6349|cid:6177|cid:6375|cid:6428|cid:6487|cid:6363|cid:6416|cid:6262|cid:6394|cid:6316|cid:6070|cid:6117|cid:6099|cid:6247|cid:6425|cid:6105|cid:6379|cid:6235|cid:6413|cid:6198|cid:6430|cid:6129|cid:6234|cid:6307|cid:6021|cid:6437|cid:6366|cid:6153|cid:6283|cid:6461|cid:6313|cid:6141|cid:6271|cid:6009|cid:6330|cid:6134|cid:6482|cid:6126|cid:6503|cid:6304|cid:6434|cid:6404|cid:6077|cid:6255|cid:6030|cid:6162|cid:6340|cid:6241|cid:6175|cid:6401|cid:6373|cid:6408|cid:6361|cid:6044|cid:6491|cid:6197|cid:6229|cid:6354|cid:6407|cid:6490|cid:6293|cid:6097|cid:6114|cid:6292|cid:6422|cid:6054|cid:6280|cid:6382|cid:6113|cid:6243|cid:6421|cid:6101|cid:6231|cid:6278|cid:6108|cid:6150|cid:6040|cid:6172|cid:6185|cid:6301|cid:6478|cid:6122|cid:6300|cid:6299|cid:6042|cid:6076|cid:6064|cid:6266|cid:6194|cid:6398|cid:6391|cid:6093|cid:6472|cid:6110|cid:6157|cid:6085|cid:6287|cid:6145|cid:6275|cid:6029|cid:6052|cid:6017|cid:6213|cid:6469|cid:6345|cid:6149|cid:6457|cid:6279|cid:6034|cid:6181|cid:6212|cid:6166|cid:6344|cid:6179|cid:6495|cid:6073|cid:6038|cid:6008|cid:6133|cid:6311|cid:6441|cid:6348|cid:6318|cid:6249|cid:6060|cid:6059|cid:6190|cid:6237|cid:6369|cid:6058|cid:6254|cid:6432|cid:6188|cid:6386|cid:6439|cid:6005|cid:6498|cid:6137|cid:6285|cid:6022|cid:6445|cid:6273|cid:6154|cid:6207|cid:6332|cid:6462|cid:6339|cid:6320|cid:6081|cid:6327|cid:6128|cid:6258|cid:6436|cid:6079|cid:6026|cid:6204|cid:6032|cid:6158|cid:6336|cid:6164|cid:6025|cid:6324|cid:6502|cid:6225|cid:6013|cid:6403|cid:6357|cid:6341|cid:6493|cid:6046|cid:6242|cid:6420|cid:6176|cid:6374|cid:6486|cid:6415|cid:6131|cid:6261|cid:6393|cid:6246|cid:6424|cid:6104|cid:6252|cid:6378|cid:6186|cid:6412|cid:6384|cid:6067|cid:6245|cid:6419|cid:6055|cid:6377|cid:6233|cid:6020|cid:6365|cid:6418|cid:6152|cid:6312|cid:6140|cid:6351|cid:6481|cid:6125|cid:6433|cid:6124|cid:6240|cid:6092|cid:6174|cid:6270|cid:6400|cid:6372|cid:6360|cid:6221|cid:6196|cid:6228|cid:6353|cid:6406|cid:6096|cid:6291|cid:6468|cid:6053|cid:6456|cid:6381|cid:6112|cid:6087|cid:6289|cid:6119|cid:6277|cid:6107|cid:6380|cid:6184|cid:6170|cid:6169|cid:6347|cid:6168|cid:6298|cid:6476|cid:6041|cid:6444|cid:6075|cid:6063|cid:6265|cid:6443|cid:6397|cid:6080|cid:6390|cid:6007|cid:6335|cid:6139|cid:6501|cid:6269|cid:6024|cid:6447|cid:6471|cid:6156|cid:6084|cid:6012|cid:6209|cid:6286|cid:6464|cid:6019|cid:6144|cid:6322|cid:6452|cid:6329|cid:6083|cid:6459|cid:6028|cid:6051|cid:6016|cid:6296|cid:6148|cid:6326|cid:6033|cid:6180|cid:6211|cid:6359|cid:6343|cid:6489|cid:6178|cid:6263|cid:6395|cid:6037|cid:6132|cid:6215|cid:6310|cid:6440|cid:6317|cid:6248|cid:6236|cid:6069|cid:6368|cid:6199|cid:6253|cid:6057|cid:6431|cid:6187|cid:6385|cid:6438|cid:6004|cid:6497|cid:6010|cid:6136|cid:6284|cid:6314|cid:6142|cid:6272|cid:6450|cid:6331|cid:6206|cid:6135|cid:6338|cid:6483|cid:6127|cid:6257|cid:6389|cid:6078|cid:6388|cid:6203|cid:6031|cid:6163|cid:6224,,,,obo:UBERON_0001264,obo:UBERON_0001264,,,,obo:NCIT_C63637,,,,,,,,,,,,,,,
