uri,classes,id,label,desc,dataGrade,parent,caseLinkage,cases,casePool,unit,unitLabel,cellTissue,cellTissueContext,bioProcesses,cellComponents,molecularFns,otherfactors,sd,sem,iqr,ci,methods,combinableWiths,potentiallyCombinables,derivedFroms,hasDerivatives,UP,GeneID,authorNote,curatorNote,tag,seeAlso
https://osf.io/k5nyh#col=1,:individual_level_datum|:nPOD_Feature|owl:NamedIndividual|:caseID,ID,Case ID,Case ID,,https://osf.io/download/msf4b/,:complete_cases,cid:6243|cid:6041|cid:6265|cid:6058|cid:6064|cid:6227|cid:6162|cid:6131|cid:6081|cid:6103|cid:6218|cid:6063|cid:6150|cid:6094|cid:6049|cid:6089|cid:6211|cid:6179|cid:6087|cid:6113|cid:6264|cid:6126|cid:6224|cid:6237|cid:6069|cid:6075|cid:6029|cid:6268|cid:6099|cid:6062|cid:6247|cid:6271|cid:6174|cid:6057|cid:6036|cid:6195|cid:6153|cid:6234|cid:6196|cid:6222|cid:6098|cid:6235|cid:6229|cid:6214|cid:6030|cid:6279|cid:6112|cid:6209|cid:6138|cid:6031|cid:6117|cid:6107|cid:6245|cid:6230|cid:6034|cid:6040|cid:6038|cid:6232|cid:6164|cid:6070|cid:6035|cid:6083|cid:6228|cid:6026|cid:6052|cid:6145|cid:6039|cid:6092|cid:6048|cid:6096|cid:6233|cid:6212|cid:6135|cid:6148|cid:6200|cid:6238|cid:6054|cid:6207|cid:6278|cid:6253|cid:6088|cid:6115|cid:6161|cid:6106|cid:6168|cid:6020|cid:6005|cid:6198|cid:6016|cid:6017|cid:6003|cid:6004|cid:6024|cid:6084|cid:6261|cid:6010|cid:6011|cid:6015|cid:6001|cid:6002|cid:6025|cid:6007|cid:6008|cid:6009|cid:6053|cid:6013,,"","","","","",,,,,,,,"",,,,,,,,,,
https://osf.io/k5nyh#col=2,:individual_level_datum|:nPOD_Feature|owl:NamedIndividual|obo:IAO_0000032,Ki67.beta.prct,Ki67+ beta cells (%),"Quantification of beta cell proliferation by Ki67+ staining, reported as % of total Ins+ cells",,https://osf.io/download/msf4b/,:complete_cases,cid:6243|cid:6041|cid:6265|cid:6058|cid:6064|cid:6227|cid:6162|cid:6131|cid:6081|cid:6103|cid:6218|cid:6063|cid:6150|cid:6094|cid:6049|cid:6089|cid:6211|cid:6179|cid:6087|cid:6113|cid:6264|cid:6126|cid:6224|cid:6237|cid:6069|cid:6075|cid:6029|cid:6268|cid:6099|cid:6062|cid:6247|cid:6271|cid:6174|cid:6057|cid:6036|cid:6195|cid:6153|cid:6234|cid:6196|cid:6222|cid:6098|cid:6235|cid:6229|cid:6214|cid:6030|cid:6279|cid:6112|cid:6209|cid:6138|cid:6031|cid:6117|cid:6107|cid:6245|cid:6230|cid:6034|cid:6040|cid:6038|cid:6232|cid:6164|cid:6070|cid:6035|cid:6083|cid:6228|cid:6026|cid:6052|cid:6145|cid:6039|cid:6092|cid:6048|cid:6096|cid:6233|cid:6212|cid:6135|cid:6148|cid:6200|cid:6238|cid:6054|cid:6207|cid:6278|cid:6253|cid:6088|cid:6115|cid:6161|cid:6106|cid:6168|cid:6020|cid:6005|cid:6198|cid:6016|cid:6017|cid:6003|cid:6004|cid:6024|cid:6084|cid:6261|cid:6010|cid:6011|cid:6015|cid:6001|cid:6002|cid:6025|cid:6007|cid:6008|cid:6009|cid:6053|cid:6013,,obo:UO_0000187,%,obo:CL_0000169,obo:UBERON_0001264,obo:GO_0008283,,,,,,,,https://hypothes.is/a/cn_09JbEEeqbQs_v-TDjbg,,,,,,,,,,
https://osf.io/k5nyh#col=3,:individual_level_datum|:nPOD_Feature|owl:NamedIndividual|obo:IAO_0000032,Ki67.acinar.prct,Ki67+ acinar cells (%),"Quantification of acinar cell proliferation by Ki67+ staining, reported as % of Arx+ total cells",,https://osf.io/download/msf4b/,:complete_cases,cid:6243|cid:6041|cid:6265|cid:6058|cid:6064|cid:6227|cid:6162|cid:6131|cid:6081|cid:6103|cid:6218|cid:6063|cid:6150|cid:6094|cid:6049|cid:6089|cid:6211|cid:6179|cid:6087|cid:6113|cid:6264|cid:6126|cid:6224|cid:6237|cid:6069|cid:6075|cid:6029|cid:6268|cid:6099|cid:6062|cid:6247|cid:6271|cid:6174|cid:6057|cid:6036|cid:6195|cid:6153|cid:6234|cid:6196|cid:6222|cid:6098|cid:6235|cid:6229|cid:6214|cid:6030|cid:6279|cid:6112|cid:6209|cid:6138|cid:6031|cid:6117|cid:6107|cid:6245|cid:6230|cid:6034|cid:6040|cid:6038|cid:6232|cid:6164|cid:6070|cid:6035|cid:6083|cid:6228|cid:6026|cid:6052|cid:6145|cid:6039|cid:6092|cid:6048|cid:6096|cid:6233|cid:6212|cid:6135|cid:6148|cid:6200|cid:6238|cid:6054|cid:6207|cid:6278|cid:6253|cid:6088|cid:6115|cid:6161|cid:6106|cid:6168|cid:6020|cid:6005|cid:6198|cid:6016|cid:6017|cid:6003|cid:6004|cid:6024|cid:6084|cid:6261|cid:6010|cid:6011|cid:6015|cid:6001|cid:6002|cid:6025|cid:6007|cid:6008|cid:6009|cid:6053|cid:6013,,obo:UO_0000187,%,obo:CL_0002064,obo:UBERON_0001264,obo:GO_0008283,,,,,,,,https://hypothes.is/a/cn_09JbEEeqbQs_v-TDjbg,,,,,,,,,,
https://osf.io/k5nyh#col=4,:individual_level_datum|:nPOD_Feature|owl:NamedIndividual|obo:IAO_0000032,beta.area.prct,beta area (%),"Beta cell area, reported as % positive staining area in pancreas sections analyzed",,https://osf.io/download/msf4b/,:complete_cases,cid:6243|cid:6041|cid:6265|cid:6058|cid:6064|cid:6227|cid:6162|cid:6131|cid:6081|cid:6103|cid:6218|cid:6063|cid:6150|cid:6094|cid:6049|cid:6089|cid:6211|cid:6179|cid:6087|cid:6113|cid:6264|cid:6126|cid:6224|cid:6237|cid:6069|cid:6075|cid:6029|cid:6268|cid:6099|cid:6062|cid:6247|cid:6271|cid:6174|cid:6057|cid:6036|cid:6195|cid:6153|cid:6234|cid:6196|cid:6222|cid:6098|cid:6235|cid:6229|cid:6214|cid:6030|cid:6279|cid:6112|cid:6209|cid:6138|cid:6031|cid:6117|cid:6107|cid:6245|cid:6230|cid:6034|cid:6040|cid:6038|cid:6232|cid:6164|cid:6070|cid:6035|cid:6083|cid:6228|cid:6026|cid:6052|cid:6145|cid:6039|cid:6092|cid:6048|cid:6096|cid:6233|cid:6212|cid:6135|cid:6148|cid:6200|cid:6238|cid:6054|cid:6207|cid:6278|cid:6253|cid:6088|cid:6115|cid:6161|cid:6106|cid:6168|cid:6020|cid:6005|cid:6198|cid:6016|cid:6017|cid:6003|cid:6004|cid:6024|cid:6084|cid:6261|cid:6010|cid:6011|cid:6015|cid:6001|cid:6002|cid:6025|cid:6007|cid:6008|cid:6009|cid:6053|cid:6013,,obo:UO_0000187,%,obo:CL_0000169,obo:UBERON_0001264,"",,,,,,,,https://hypothes.is/a/S8w6NJbEEeqWvHvi3fWavw,,,,,,,,,,
https://osf.io/k5nyh#col=5,:individual_level_datum|:nPOD_Feature|owl:NamedIndividual|obo:IAO_0000414,beta.mass,beta cell mass (g),"Beta cell mass in grams, calculated from stained beta cell area and pancreas weights",,https://osf.io/download/msf4b/,:complete_cases,cid:6243|cid:6041|cid:6265|cid:6058|cid:6064|cid:6227|cid:6162|cid:6131|cid:6081|cid:6103|cid:6218|cid:6063|cid:6150|cid:6094|cid:6049|cid:6089|cid:6211|cid:6179|cid:6087|cid:6113|cid:6264|cid:6126|cid:6224|cid:6237|cid:6069|cid:6075|cid:6029|cid:6268|cid:6099|cid:6062|cid:6247|cid:6271|cid:6174|cid:6057|cid:6036|cid:6195|cid:6153|cid:6234|cid:6196|cid:6222|cid:6098|cid:6235|cid:6229|cid:6214|cid:6030|cid:6279|cid:6112|cid:6209|cid:6138|cid:6031|cid:6117|cid:6107|cid:6245|cid:6230|cid:6034|cid:6040|cid:6038|cid:6232|cid:6164|cid:6070|cid:6035|cid:6083|cid:6228|cid:6026|cid:6052|cid:6145|cid:6039|cid:6092|cid:6048|cid:6096|cid:6233|cid:6212|cid:6135|cid:6148|cid:6200|cid:6238|cid:6054|cid:6207|cid:6278|cid:6253|cid:6088|cid:6115|cid:6161|cid:6106|cid:6168,,obo:UO_0000021,g,obo:CL_0000169,obo:UBERON_0001264,"",,,,,,,,https://hypothes.is/a/S8w6NJbEEeqWvHvi3fWavw,,,,,,,,,,
