uri,classes,id,label,desc,dataGrade,parent,caseLinkage,cases,casePool,unit,unitLabel,cellTissue,cellTissueContext,bioProcesses,cellComponents,molecularFns,otherfactors,sd,sem,iqr,ci,methods,combinableWiths,potentiallyCombinables,derivedFroms,hasDerivatives,UP,GeneID,authorNote,curatorNote,tag,seeAlso
https://osf.io/wuyf8#col=1,:individual_level_datum|:nPOD_Feature|owl:NamedIndividual|:caseID,ID,Case ID,Case ID,,,:complete_cases,cid:6075|cid:6369|cid:6191|cid:6368|cid:6186|cid:6290|cid:6300|cid:6194|cid:6008|cid:6280|cid:6283|cid:6255|cid:6277|cid:6297|cid:6099|cid:6295|cid:6254|cid:6188|cid:6259|cid:6060|cid:6269|cid:6308|cid:6095|cid:6189|cid:6329|cid:6288|cid:6252|cid:6304|cid:6275,,"",,"","",,,,,,,,,,,,,,,,,,,
https://osf.io/wuyf8#col=2,:individual_level_datum|:nPOD_Feature|obo:IAO_0000032,Ti.ppm,Titanium concentration (ppm),Titanium concentration in pancreas,,,:complete_cases,cid:6075|cid:6369|cid:6191|cid:6368|cid:6186|cid:6290|cid:6300|cid:6194|cid:6008|cid:6280|cid:6283|cid:6255|cid:6277|cid:6297|cid:6099|cid:6295|cid:6254|cid:6188|cid:6259|cid:6060|cid:6269|cid:6308|cid:6095|cid:6189|cid:6329|cid:6288|cid:6252|cid:6304|cid:6275,,obo:UO_0000169,,obo:UBERON_0001069,obo:UBERON_0001264,,,,,,,,,,,,,,,,,,,
