uri,classes,id,label,desc,dataGrade,parent,caseLinkage,cases,casePool,unit,unitLabel,cellTissue,cellTissueContext,bioProcesses,cellComponents,molecularFns,otherfactors,sd,sem,iqr,ci,methods,combinableWiths,potentiallyCombinables,derivedFroms,hasDerivatives,UP,GeneID,authorNote,curatorNote,tag,seeAlso
https://osf.io/fu3tj#col=1,:individual_level_datum|:nPOD_Feature|owl:NamedIndividual|:caseID,ID,Case ID,Case ID,,https://osf.io/download/7f4m9/,:complete_cases,cid:6063|cid:6049|cid:6035|cid:6031|cid:6026|cid:6046|cid:6039|cid:6064|cid:6036|cid:6033|cid:6052|cid:6028|cid:6025|cid:6045|cid:6041|cid:6038,,,,"","",,,,,,,,,"",,,,,,,,,,
https://osf.io/fu3tj#col=2,:individual_level_datum|:binary_datum|:nPOD_Feature|owl:NamedIndividual,InsPos.islets,Insulin+ islets,Insulin-positivity in islets,,https://osf.io/download/7f4m9/,:complete_cases,cid:6063|cid:6049|cid:6035|cid:6031|cid:6026|cid:6046|cid:6039|cid:6064|cid:6036|cid:6033|cid:6052|cid:6028|cid:6025|cid:6045|cid:6041|cid:6038,,,,obo:UBERON_0000006,obo:UBERON_0001264,,,,,,,,,https://hypothes.is/a/SZwQ3Ja0EeqmZIO44Wo4nA|https://hypothes.is/a/BuWhuJa0EeqTapvJ2R8aPg,,,,,,,,,,
https://osf.io/fu3tj#col=3,:individual_level_datum|:binary_datum|:nPOD_Feature|owl:NamedIndividual,HLA.pos,HLA-I expression,Class I HLA-positivity in beta cells,,https://osf.io/download/7f4m9/,:complete_cases,cid:6063|cid:6049|cid:6035|cid:6031|cid:6026|cid:6046|cid:6039|cid:6064|cid:6036|cid:6033|cid:6052|cid:6028|cid:6025|cid:6045|cid:6041|cid:6038,,,,obo:CL_0000169,obo:UBERON_0001264,,,,,,,,,https://hypothes.is/a/SZwQ3Ja0EeqmZIO44Wo4nA|https://hypothes.is/a/BuWhuJa0EeqTapvJ2R8aPg,,,,,,,,,,
https://osf.io/fu3tj#col=4,:individual_level_datum|:binary_datum|:nPOD_Feature|owl:NamedIndividual,Survivin.pos,survivin+ expression,Survivin-positivity in beta cells,,https://osf.io/download/7f4m9/,:complete_cases,cid:6063|cid:6049|cid:6035|cid:6031|cid:6026|cid:6046|cid:6039|cid:6064|cid:6036|cid:6033|cid:6052|cid:6028|cid:6025|cid:6045|cid:6041|cid:6038,,,,obo:CL_0000169,obo:UBERON_0001264,,,,,,,,,https://hypothes.is/a/SZwQ3Ja0EeqmZIO44Wo4nA|https://hypothes.is/a/BuWhuJa0EeqTapvJ2R8aPg,,,,,,,,,,
https://osf.io/fu3tj#col=5,:individual_level_datum|:binary_datum|:nPOD_Feature|owl:NamedIndividual,InsDef.islets,Ins-deficient islets,Presence of insulin-deficient islets observed,,https://osf.io/download/7f4m9/,:complete_cases,cid:6063|cid:6049|cid:6035|cid:6031|cid:6026|cid:6046|cid:6039|cid:6064|cid:6036|cid:6033|cid:6052|cid:6028|cid:6025|cid:6045|cid:6041|cid:6038,,,,obo:UBERON_0000006,obo:UBERON_0001264,,,,,,,,,https://hypothes.is/a/SZwQ3Ja0EeqmZIO44Wo4nA|https://hypothes.is/a/BuWhuJa0EeqTapvJ2R8aPg,,,,,,,,,,
https://osf.io/fu3tj#col=6,:individual_level_datum|:binary_datum|:nPOD_Feature|owl:NamedIndividual,A.type,Type A pattern,Positive for a type A islet insulin-staining pattern,,https://osf.io/download/7f4m9/,:complete_cases,cid:6063|cid:6049|cid:6035|cid:6031|cid:6026|cid:6046|cid:6039|cid:6064|cid:6036|cid:6033|cid:6052|cid:6028|cid:6025|cid:6045|cid:6041|cid:6038,,,,obo:UBERON_0000006,obo:UBERON_0001264,,,,,,,,,https://hypothes.is/a/SZwQ3Ja0EeqmZIO44Wo4nA|https://hypothes.is/a/BuWhuJa0EeqTapvJ2R8aPg,,,,,,,,,,
https://osf.io/fu3tj#col=7,:individual_level_datum|:binary_datum|:nPOD_Feature|owl:NamedIndividual,B.type,Type B pattern,Positive for a type B islet insulin-staining pattern,,https://osf.io/download/7f4m9/,:complete_cases,cid:6063|cid:6049|cid:6035|cid:6031|cid:6026|cid:6046|cid:6039|cid:6064|cid:6036|cid:6033|cid:6052|cid:6028|cid:6025|cid:6045|cid:6041|cid:6038,,,,obo:UBERON_0000006,obo:UBERON_0001264,,,,,,,,,https://hypothes.is/a/SZwQ3Ja0EeqmZIO44Wo4nA|https://hypothes.is/a/BuWhuJa0EeqTapvJ2R8aPg,,,,,,,,,,
