uri,classes,id,label,desc,dataGrade,parent,caseLinkage,cases,casePool,unit,unitLabel,cellTissue,cellTissueContext,bioProcesses,cellComponents,molecularFns,otherfactors,sd,sem,iqr,ci,methods,combinableWiths,potentiallyCombinables,derivedFroms,hasDerivatives,UP,GeneID,authorNote,curatorNote,tag,seeAlso
https://osf.io/9pr7v#col=1,:caseID|:nPOD_Feature|:individual_level_datum|owl:NamedIndividual,ID,Case ID,Case ID,,https://osf.io/download/5r83b/,:complete_cases,cid:6272|cid:6249|cid:6277|cid:6259|cid:6295|cid:6008|cid:6095|cid:6273|cid:6255|cid:6275|cid:6191,,"",,"","",,,,"",,,,,"",,,,,,,,,,
https://osf.io/9pr7v#col=2,obo:STATO_0000047|:nPOD_Feature|:individual_level_datum|owl:NamedIndividual,TiO2.n,Number of  TiO2,Count of TiO2 crystals in pancreas head specimens,,https://osf.io/download/5r83b/,:complete_cases,cid:6272|cid:6249|cid:6277|cid:6259|cid:6295|cid:6008|cid:6095|cid:6273|cid:6255|cid:6275|cid:6191,,obo:UO_0000189,,obo:UBERON_0001069,obo:UBERON_0001264,,,,efo:EFO_0008360,,,,,https://hypothes.is/a/WVKibJbbEeqekzNZacRbcA,,,,,,,,,,
https://osf.io/9pr7v#col=3,obo:STATO_0000047|:nPOD_Feature|:individual_level_datum|owl:NamedIndividual,hFe3oxide.n,Number of  hydrated Fe3oxide,Count of hydrated Fe3oxide crystals in pancreas head specimens,,https://osf.io/download/5r83b/,:complete_cases,cid:6272|cid:6249|cid:6277|cid:6259|cid:6295|cid:6008|cid:6095|cid:6273|cid:6255|cid:6275|cid:6191,,obo:UO_0000189,,obo:UBERON_0001069,obo:UBERON_0001264,,,,efo:EFO_0008360,,,,,https://hypothes.is/a/WVKibJbbEeqekzNZacRbcA,,,,,,,,,,
https://osf.io/9pr7v#col=4,obo:STATO_0000047|:nPOD_Feature|:individual_level_datum|owl:NamedIndividual,Ca2oxalate.n,Number of  Ca2+ oxalate,Count of Ca2+ oxalate crystals in pancreas head specimens,,https://osf.io/download/5r83b/,:complete_cases,cid:6272|cid:6249|cid:6277|cid:6259|cid:6295|cid:6008|cid:6095|cid:6273|cid:6255|cid:6275|cid:6191,,obo:UO_0000189,,obo:UBERON_0001069,obo:UBERON_0001264,,,,efo:EFO_0008360,,,,,https://hypothes.is/a/WVKibJbbEeqekzNZacRbcA,,,,,,,,,,
https://osf.io/9pr7v#col=5,obo:STATO_0000047|:nPOD_Feature|:individual_level_datum|owl:NamedIndividual,graphcarbon.n,Number of  graphene carbon,Count of graphene carbon crystals in pancreas head specimens,,https://osf.io/download/5r83b/,:complete_cases,cid:6272|cid:6249|cid:6277|cid:6259|cid:6295|cid:6008|cid:6095|cid:6273|cid:6255|cid:6275|cid:6191,,obo:UO_0000189,,obo:UBERON_0001069,obo:UBERON_0001264,,,,efo:EFO_0008360,,,,,https://hypothes.is/a/WVKibJbbEeqekzNZacRbcA,,,,,,,,,,
https://osf.io/9pr7v#col=6,obo:STATO_0000047|:nPOD_Feature|:individual_level_datum|owl:NamedIndividual,TiO2,Mean TiO2,Mean TiO2 crystals per TEM of pancreas head specimens,,https://osf.io/download/5r83b/,:complete_cases,cid:6272|cid:6249|cid:6277|cid:6259|cid:6295|cid:6008|cid:6095|cid:6273|cid:6255|cid:6275|cid:6191,,obo:UO_0000189,,obo:UBERON_0001069,obo:UBERON_0001264,,,,efo:EFO_0008360,,,,,https://hypothes.is/a/WVKibJbbEeqekzNZacRbcA,,,,,,,,,,
https://osf.io/9pr7v#col=7,obo:STATO_0000047|:nPOD_Feature|:individual_level_datum|owl:NamedIndividual,hFe3oxide,Mean hydrated Fe3oxide,Mean hydrated Fe3oxide crystals per TEM of pancreas head specimens,,https://osf.io/download/5r83b/,:complete_cases,cid:6272|cid:6249|cid:6277|cid:6259|cid:6295|cid:6008|cid:6095|cid:6273|cid:6255|cid:6275|cid:6191,,obo:UO_0000189,,obo:UBERON_0001069,obo:UBERON_0001264,,,,"",,,,,https://hypothes.is/a/WVKibJbbEeqekzNZacRbcA,,,,,,,,,,
https://osf.io/9pr7v#col=8,obo:STATO_0000047|:nPOD_Feature|:individual_level_datum|owl:NamedIndividual,Ca2oxalate,Mean Ca2+ oxalate,Mean Ca2+ oxalate crystals per TEM of pancreas head specimens,,https://osf.io/download/5r83b/,:complete_cases,cid:6272|cid:6249|cid:6277|cid:6259|cid:6295|cid:6008|cid:6095|cid:6273|cid:6255|cid:6275|cid:6191,,obo:UO_0000189,,obo:UBERON_0001069,obo:UBERON_0001264,,,,efo:EFO_0008360,,,,,https://hypothes.is/a/WVKibJbbEeqekzNZacRbcA,,,,,,,,,,
https://osf.io/9pr7v#col=9,obo:STATO_0000047|:nPOD_Feature|:individual_level_datum|owl:NamedIndividual,graphcarbon,Mean graphene carbon,Mean graphene carbon crystals in pancreas head specimens,,https://osf.io/download/5r83b/,:complete_cases,cid:6272|cid:6249|cid:6277|cid:6259|cid:6295|cid:6008|cid:6095|cid:6273|cid:6255|cid:6275|cid:6191,,obo:UO_0000189,,obo:UBERON_0001069,obo:UBERON_0001264,,,,"",,,,,https://hypothes.is/a/WVKibJbbEeqekzNZacRbcA,,,,,,,,,,
