uri,classes,id,label,desc,dataGrade,parent,caseLinkage,cases,casePool,unit,unitLabel,cellTissue,cellTissueContext,bioProcesses,cellComponents,molecularFns,otherfactors,sd,sem,iqr,ci,methods,combinableWiths,potentiallyCombinables,derivedFroms,hasDerivatives,UP,GeneID,authorNote,curatorNote,tag,seeAlso
https://osf.io/9pskv#col=1,:individual_level_datum|:nPOD_Feature|owl:NamedIndividual|:caseID,ID,Case ID,Case ID,,https://osf.io/download/7ry2q/,:complete_cases,cid:6019|cid:6034|cid:6035|cid:6054|cid:6110|cid:6101|cid:6037|cid:6027|cid:6028|cid:6083|cid:6062|cid:6066|cid:6047|cid:6009|cid:6085|cid:6086|cid:6076|cid:6059|cid:6030|cid:6031|cid:6021|cid:6099|cid:6088|cid:6033|cid:6108|cid:6024|cid:6109|cid:6026|cid:6081|cid:6017|cid:6082|cid:6051|cid:6045|cid:6113|cid:6089|cid:6079|cid:6069|cid:6020|cid:6012|cid:6013|cid:6041|cid:6080|cid:6061|cid:6065|cid:6044|cid:6038|cid:6090|cid:6039|cid:6077|cid:6063|cid:6067|cid:6064|cid:6068|cid:6098|cid:6087|cid:6032|cid:6084|cid:6049|cid:6078|cid:6025|cid:6075,,,,"","",,,,,,,,,"",,,,,,,,,,
https://osf.io/9pskv#col=2,:individual_level_datum|:nPOD_Feature|owl:NamedIndividual|:ordinal_datum,Ins.head,Ins+ islets in pancreas head,"Insulin-positive islets in pancreas head (insulin: 2, normal numbers of insulin-sufficient islets, in excess of 50 per section; 1, decreased numbers (<50; average insulin + islet size reduced); 0, negative)",,https://osf.io/download/7ry2q/,:complete_cases,cid:6019|cid:6034|cid:6035|cid:6054|cid:6110|cid:6101|cid:6037|cid:6027|cid:6028|cid:6083|cid:6062|cid:6066|cid:6047|cid:6009|cid:6085|cid:6086|cid:6076|cid:6059|cid:6030|cid:6031|cid:6021|cid:6099|cid:6088|cid:6033|cid:6108|cid:6024|cid:6109|cid:6026|cid:6081|cid:6017|cid:6082|cid:6051|cid:6045|cid:6113|cid:6089|cid:6079|cid:6069|cid:6020|cid:6012|cid:6013|cid:6041|cid:6080|cid:6061|cid:6065|cid:6044|cid:6038|cid:6090|cid:6039|cid:6077|cid:6063|cid:6067|cid:6064|cid:6068|cid:6098|cid:6087|cid:6032,,,,obo:UBERON_0000006,obo:UBERON_0001069,,,,,,,,,https://hypothes.is/a/Aer19Ja1Eeqi5R_sc5k3Pw,,,,,,,,,,
https://osf.io/9pskv#col=3,:individual_level_datum|:nPOD_Feature|owl:NamedIndividual|:ordinal_datum,Ins.tail,Ins+ islets in pancreas tail,"Insulin-positive islets in pancreas tail (insulin: 2, normal numbers of insulin-sufficient islets, in excess of 50 per section; 1, decreased numbers (<50; average insulin + islet size reduced); 0, negative)",,https://osf.io/download/7ry2q/,:complete_cases,cid:6019|cid:6054|cid:6101|cid:6027|cid:6028|cid:6083|cid:6062|cid:6066|cid:6047|cid:6009|cid:6085|cid:6086|cid:6076|cid:6021|cid:6088|cid:6108|cid:6109|cid:6026|cid:6081|cid:6017|cid:6082|cid:6051|cid:6045|cid:6113|cid:6089|cid:6079|cid:6020|cid:6012|cid:6013|cid:6080|cid:6061|cid:6065|cid:6044|cid:6090|cid:6077|cid:6063|cid:6067|cid:6064|cid:6068|cid:6087|cid:6084|cid:6049|cid:6078|cid:6075,,,,obo:UBERON_0000006,obo:UBERON_0001151,,,,,,,,,https://hypothes.is/a/Aer19Ja1Eeqi5R_sc5k3Pw,,,,,,,,,,
https://osf.io/9pskv#col=4,:individual_level_datum|:nPOD_Feature|owl:NamedIndividual|:ordinal_datum,Ins.body,Ins+ islets in pancreas body,"Insulin-positive islets in pancreas body (insulin: 2, normal numbers of insulin-sufficient islets, in excess of 50 per section; 1, decreased numbers (<50; average insulin + islet size reduced); 0, negative)",,https://osf.io/download/7ry2q/,:complete_cases,cid:6054|cid:6110|cid:6101|cid:6083|cid:6062|cid:6066|cid:6047|cid:6085|cid:6086|cid:6076|cid:6059|cid:6088|cid:6108|cid:6109|cid:6081|cid:6082|cid:6051|cid:6045|cid:6113|cid:6089|cid:6079|cid:6069|cid:6080|cid:6061|cid:6065|cid:6044|cid:6090|cid:6077|cid:6063|cid:6067|cid:6064|cid:6068|cid:6087|cid:6084|cid:6049|cid:6078,,,,obo:UBERON_0000006,obo:UBERON_0001150,,,,,,,,,https://hypothes.is/a/Aer19Ja1Eeqi5R_sc5k3Pw,,,,,,,,,,
https://osf.io/9pskv#col=5,:individual_level_datum|:nPOD_Feature|owl:NamedIndividual|:ordinal_datum,Ins.panc,Ins+ islets in pancreas unspecified region,"Insulin-positive islets in pancreas unspecified region (insulin: 2, normal numbers of insulin-sufficient islets, in excess of 50 per section; 1, decreased numbers (<50; average insulin + islet size reduced); 0, negative)",,https://osf.io/download/7ry2q/,:complete_cases,cid:6031|cid:6025,,,,obo:UBERON_0000006,obo:UBERON_0001264,,,,,,,,,https://hypothes.is/a/Aer19Ja1Eeqi5R_sc5k3Pw,,,,,,,,,,
https://osf.io/9pskv#col=6,:individual_level_datum|:nPOD_Feature|:binary_datum|owl:NamedIndividual,MHCI.head,MHCI+ islets in pancreas head,"MHCI-positive islets in pancreas head (MHC I: 0, negative, based on nondiabetic controls normal expression approximates three positive, nonendocrine cells; 1, positive)",,https://osf.io/download/7ry2q/,:complete_cases,cid:6019|cid:6034|cid:6035|cid:6054|cid:6110|cid:6101|cid:6037|cid:6027|cid:6028|cid:6083|cid:6062|cid:6066|cid:6047|cid:6009|cid:6085|cid:6086|cid:6076|cid:6059|cid:6030|cid:6031|cid:6021|cid:6099|cid:6088|cid:6033|cid:6108|cid:6024|cid:6109|cid:6026|cid:6081|cid:6017|cid:6082|cid:6051|cid:6045|cid:6113|cid:6089|cid:6079|cid:6069|cid:6020|cid:6012|cid:6013|cid:6041|cid:6080|cid:6061|cid:6065|cid:6044|cid:6038|cid:6090|cid:6039|cid:6077|cid:6063|cid:6067|cid:6064|cid:6068|cid:6098|cid:6087|cid:6032,,,,obo:UBERON_0000006,obo:UBERON_0001069,,,,,,,,,https://hypothes.is/a/Aer19Ja1Eeqi5R_sc5k3Pw,,,,,,,,,,
https://osf.io/9pskv#col=7,:individual_level_datum|:nPOD_Feature|:binary_datum|owl:NamedIndividual,MHCI.tail,MHCI+ islets in pancreas tail,"MHCI-positive islets in pancreas tail (MHC I: 0, negative, based on nondiabetic controls normal expression approximates three positive, nonendocrine cells; 1, positive)",,https://osf.io/download/7ry2q/,:complete_cases,cid:6019|cid:6054|cid:6101|cid:6027|cid:6028|cid:6083|cid:6062|cid:6066|cid:6047|cid:6009|cid:6085|cid:6086|cid:6076|cid:6021|cid:6088|cid:6108|cid:6109|cid:6026|cid:6081|cid:6017|cid:6082|cid:6051|cid:6045|cid:6113|cid:6089|cid:6079|cid:6020|cid:6012|cid:6013|cid:6080|cid:6061|cid:6065|cid:6044|cid:6090|cid:6077|cid:6063|cid:6067|cid:6064|cid:6068|cid:6087|cid:6084|cid:6049|cid:6078|cid:6075,,,,obo:UBERON_0000006,obo:UBERON_0001151,,,,,,,,,https://hypothes.is/a/Aer19Ja1Eeqi5R_sc5k3Pw,,,,,,,,,,
https://osf.io/9pskv#col=8,:individual_level_datum|:nPOD_Feature|:binary_datum|owl:NamedIndividual,MHCI.body,MHCI+ islets in pancreas body,"MHCI-positive islets in pancreas body (MHC I: 0, negative, based on nondiabetic controls normal expression approximates three positive, nonendocrine cells; 1, positive)",,https://osf.io/download/7ry2q/,:complete_cases,cid:6054|cid:6110|cid:6101|cid:6083|cid:6062|cid:6066|cid:6047|cid:6085|cid:6086|cid:6076|cid:6059|cid:6088|cid:6108|cid:6109|cid:6081|cid:6082|cid:6051|cid:6045|cid:6113|cid:6089|cid:6079|cid:6069|cid:6080|cid:6061|cid:6065|cid:6044|cid:6090|cid:6077|cid:6063|cid:6067|cid:6064|cid:6068|cid:6087|cid:6084|cid:6049|cid:6078,,,,obo:UBERON_0000006,obo:UBERON_0001150,,,,,,,,,https://hypothes.is/a/Aer19Ja1Eeqi5R_sc5k3Pw,,,,,,,,,,
https://osf.io/9pskv#col=9,:individual_level_datum|:nPOD_Feature|:binary_datum|owl:NamedIndividual,MHCI.panc,MHCI+ islets in pancreas unspecified region,"MHCI-positive islets in pancreas unspecified region (MHC I: 0, negative, based on nondiabetic controls normal expression approximates three positive, nonendocrine cells; 1, positive)",,https://osf.io/download/7ry2q/,:complete_cases,cid:6031|cid:6025,,,,obo:UBERON_0000006,obo:UBERON_0001264,,,,,,,,,https://hypothes.is/a/Aer19Ja1Eeqi5R_sc5k3Pw,,,,,,,,,,
https://osf.io/9pskv#col=10,:individual_level_datum|:nPOD_Feature|:binary_datum|owl:NamedIndividual,CD8.head,CD8+ islets in pancreas head,"CD8-positive islets in pancreas head (CD8: 0, normal, less than five per islet; 1, accumulation of more than five cells per islet)",,https://osf.io/download/7ry2q/,:complete_cases,cid:6019|cid:6034|cid:6035|cid:6054|cid:6110|cid:6101|cid:6037|cid:6027|cid:6028|cid:6083|cid:6062|cid:6066|cid:6047|cid:6009|cid:6085|cid:6086|cid:6076|cid:6059|cid:6030|cid:6031|cid:6021|cid:6099|cid:6088|cid:6033|cid:6108|cid:6024|cid:6109|cid:6026|cid:6081|cid:6017|cid:6082|cid:6051|cid:6045|cid:6113|cid:6089|cid:6079|cid:6069|cid:6020|cid:6012|cid:6013|cid:6041|cid:6080|cid:6061|cid:6065|cid:6044|cid:6038|cid:6090|cid:6039|cid:6077|cid:6063|cid:6067|cid:6064|cid:6068|cid:6098|cid:6087|cid:6032,,,,obo:UBERON_0000006,obo:UBERON_0001069,,,,,,,,,https://hypothes.is/a/Aer19Ja1Eeqi5R_sc5k3Pw,,,,,,,,,,
https://osf.io/9pskv#col=11,:individual_level_datum|:nPOD_Feature|:binary_datum|owl:NamedIndividual,CD8.tail,CD8+ islets in pancreas tail,"CD8-positive islets in pancreas tail (CD8: 0, normal, less than five per islet; 1, accumulation of more than five cells per islet)",,https://osf.io/download/7ry2q/,:complete_cases,cid:6019|cid:6054|cid:6101|cid:6027|cid:6028|cid:6083|cid:6062|cid:6066|cid:6047|cid:6009|cid:6085|cid:6086|cid:6076|cid:6021|cid:6088|cid:6108|cid:6109|cid:6026|cid:6081|cid:6017|cid:6082|cid:6051|cid:6045|cid:6113|cid:6089|cid:6079|cid:6020|cid:6012|cid:6013|cid:6080|cid:6061|cid:6065|cid:6044|cid:6090|cid:6077|cid:6063|cid:6067|cid:6064|cid:6068|cid:6087|cid:6084|cid:6049|cid:6078|cid:6075,,,,obo:UBERON_0000006,obo:UBERON_0001151,,,,,,,,,https://hypothes.is/a/Aer19Ja1Eeqi5R_sc5k3Pw,,,,,,,,,,
https://osf.io/9pskv#col=12,:individual_level_datum|:nPOD_Feature|:binary_datum|owl:NamedIndividual,CD8.body,CD8+ islets in pancreas body,"CD8-positive islets in pancreas body (CD8: 0, normal, less than five per islet; 1, accumulation of more than five cells per islet)",,https://osf.io/download/7ry2q/,:complete_cases,cid:6054|cid:6110|cid:6101|cid:6083|cid:6062|cid:6066|cid:6047|cid:6085|cid:6086|cid:6076|cid:6059|cid:6088|cid:6108|cid:6109|cid:6081|cid:6082|cid:6051|cid:6045|cid:6113|cid:6089|cid:6079|cid:6069|cid:6080|cid:6061|cid:6065|cid:6044|cid:6090|cid:6077|cid:6063|cid:6067|cid:6064|cid:6068|cid:6087|cid:6084|cid:6049|cid:6078,,,,obo:UBERON_0000006,obo:UBERON_0001150,,,,,,,,,https://hypothes.is/a/Aer19Ja1Eeqi5R_sc5k3Pw,,,,,,,,,,
https://osf.io/9pskv#col=13,:individual_level_datum|:nPOD_Feature|:binary_datum|owl:NamedIndividual,CD8.panc,CD8+ islets in pancreas unspecified region,"CD8-positive islets in pancreas unspecified region (CD8: 0, normal, less than five per islet; 1, accumulation of more than five cells per islet)",,https://osf.io/download/7ry2q/,:complete_cases,cid:6031|cid:6025,,,,obo:UBERON_0000006,obo:UBERON_0001264,,,,,,,,,https://hypothes.is/a/Aer19Ja1Eeqi5R_sc5k3Pw,,,,,,,,,,
https://osf.io/9pskv#col=14,:individual_level_datum|:nPOD_Feature|:binary_datum|owl:NamedIndividual,Ins,"Ins+ islets, summarized over all pancreas regions","Ins-positive islets, summarized over all pancreas regions (insulin: 2, normal numbers of insulin-sufficient islets, in excess of 50 per section; 1, decreased numbers (<50; average insulin + islet size reduced); 0, negative)",,https://osf.io/download/7ry2q/,:complete_cases,cid:6019|cid:6034|cid:6035|cid:6054|cid:6110|cid:6101|cid:6037|cid:6027|cid:6028|cid:6083|cid:6062|cid:6066|cid:6047|cid:6009|cid:6085|cid:6086|cid:6076|cid:6059|cid:6030|cid:6031|cid:6021|cid:6099|cid:6088|cid:6033|cid:6108|cid:6024|cid:6109|cid:6026|cid:6081|cid:6017|cid:6082|cid:6051|cid:6045|cid:6113|cid:6089|cid:6079|cid:6069|cid:6020|cid:6012|cid:6013|cid:6041|cid:6080|cid:6061|cid:6065|cid:6044|cid:6038|cid:6090|cid:6039|cid:6077|cid:6063|cid:6067|cid:6064|cid:6068|cid:6098|cid:6087|cid:6032|cid:6084|cid:6049|cid:6078|cid:6025|cid:6075,,,,obo:UBERON_0000006,obo:UBERON_0001264,,,,,,,,,https://hypothes.is/a/Aer19Ja1Eeqi5R_sc5k3Pw,,,,,,,,,,
https://osf.io/9pskv#col=15,:individual_level_datum|:nPOD_Feature|:binary_datum|owl:NamedIndividual,MHCI,"MHCI+ islets, summarized over all pancreas regions","MHCI-positive islets, summarized over all pancreas regions (MHC I: 0, negative, based on nondiabetic controls normal expression approximates three positive, nonendocrine cells; 1, positive)",,https://osf.io/download/7ry2q/,:complete_cases,cid:6019|cid:6034|cid:6035|cid:6054|cid:6110|cid:6101|cid:6037|cid:6027|cid:6028|cid:6083|cid:6062|cid:6066|cid:6047|cid:6009|cid:6085|cid:6086|cid:6076|cid:6059|cid:6030|cid:6031|cid:6021|cid:6099|cid:6088|cid:6033|cid:6108|cid:6024|cid:6109|cid:6026|cid:6081|cid:6017|cid:6082|cid:6051|cid:6045|cid:6113|cid:6089|cid:6079|cid:6069|cid:6020|cid:6012|cid:6013|cid:6041|cid:6080|cid:6061|cid:6065|cid:6044|cid:6038|cid:6090|cid:6039|cid:6077|cid:6063|cid:6067|cid:6064|cid:6068|cid:6098|cid:6087|cid:6032|cid:6084|cid:6049|cid:6078|cid:6025|cid:6075,,,,obo:UBERON_0000006,obo:UBERON_0001264,,,,,,,,,https://hypothes.is/a/Aer19Ja1Eeqi5R_sc5k3Pw,,,,,,,,,,
https://osf.io/9pskv#col=16,:individual_level_datum|:nPOD_Feature|:binary_datum|owl:NamedIndividual,CD8,"CD8+ islets, summarized over all pancreas regions","CD8-positive islets, summarized over all pancreas regions (CD8: 0, normal, less than five per islet; 1, accumulation of more than five cells per islet)",,https://osf.io/download/7ry2q/,:complete_cases,cid:6019|cid:6034|cid:6035|cid:6054|cid:6110|cid:6101|cid:6037|cid:6027|cid:6028|cid:6083|cid:6062|cid:6066|cid:6047|cid:6009|cid:6085|cid:6086|cid:6076|cid:6059|cid:6030|cid:6031|cid:6021|cid:6099|cid:6088|cid:6033|cid:6108|cid:6024|cid:6109|cid:6026|cid:6081|cid:6017|cid:6082|cid:6051|cid:6045|cid:6113|cid:6089|cid:6079|cid:6069|cid:6020|cid:6012|cid:6013|cid:6041|cid:6080|cid:6061|cid:6065|cid:6044|cid:6038|cid:6090|cid:6039|cid:6077|cid:6063|cid:6067|cid:6064|cid:6068|cid:6098|cid:6087|cid:6032|cid:6084|cid:6049|cid:6078|cid:6025|cid:6075,,,,obo:UBERON_0000006,obo:UBERON_0001264,,,,,,,,,https://hypothes.is/a/Aer19Ja1Eeqi5R_sc5k3Pw,,,,,,,,,,
