uri,classes,id,label,desc,dataGrade,parent,caseLinkage,cases,casePool,unit,unitLabel,cellTissue,cellTissueContext,bioProcesses,cellComponents,molecularFns,otherfactors,sd,sem,iqr,ci,methods,combinableWiths,potentiallyCombinables,derivedFroms,hasDerivatives,UP,GeneID,authorNote,curatorNote,tag,seeAlso
https://osf.io/evhnp#col=1,:individual_level_datum|:nPOD_Feature|owl:NamedIndividual|:caseID,ID,Case ID,Case ID,,https://osf.io/download/s7qa4/,:complete_cases,cid:6035|cid:6128|cid:6140|cid:6080|cid:6029|cid:6048|cid:6137|cid:6138|cid:6060|cid:6099|cid:6062|cid:6047|cid:6038|cid:6063|cid:6098|cid:6134|cid:6130|cid:6057|cid:6037|cid:6030|cid:6058|cid:6141|cid:6034|cid:6005|cid:6013|cid:6044|cid:6039|cid:6059,,,,"","",,,,,,,,,"",,,,,,"",,,,
https://osf.io/evhnp#col=2,:individual_level_datum|obo:OBI_0000101|:nPOD_Feature|owl:NamedIndividual,EIF4G3.PLN,EIF4G3 expression,EIF4G3 expression in pancreatic lymph node (expression relative to Actb (x10^-6)),,https://osf.io/download/s7qa4/,:complete_cases,cid:6035|cid:6128|cid:6140|cid:6080|cid:6029|cid:6048|cid:6137|cid:6138|cid:6060|cid:6099|cid:6062|cid:6047|cid:6038|cid:6063|cid:6098|cid:6134|cid:6130|cid:6057|cid:6037|cid:6030,,,,obo:UBERON_0002527,obo:UBERON_0001264,,,,,,,,,https://hypothes.is/a/GtfdPJa3Eeq5Bq9iemt3tg,,,,,,ncbigene:8672,,,,
https://osf.io/evhnp#col=3,:individual_level_datum|obo:OBI_0000101|:nPOD_Feature|owl:NamedIndividual,EIF4G1.PLN,EIF4G1 expression,EIF4G1 expression in pancreatic lymph node (expression relative to Actb (x10^-6)),,https://osf.io/download/s7qa4/,:complete_cases,cid:6035|cid:6128|cid:6140|cid:6080|cid:6029|cid:6048|cid:6137|cid:6138|cid:6060|cid:6099|cid:6062|cid:6047|cid:6038|cid:6063|cid:6098|cid:6134|cid:6130|cid:6057|cid:6037|cid:6058|cid:6141|cid:6034|cid:6005|cid:6013|cid:6044|cid:6039|cid:6059,,,,obo:UBERON_0002527,obo:UBERON_0001264,,,,,,,,,https://hypothes.is/a/GtfdPJa3Eeq5Bq9iemt3tg,,,,,,ncbigene:1981,,,,
https://osf.io/evhnp#col=4,:individual_level_datum|obo:OBI_0000101|:nPOD_Feature|owl:NamedIndividual,CASP3.PLN,CASP3 expression,CASP3 expression in pancreatic lymph node (expression relative to GAPDH (x10^-3)),,https://osf.io/download/s7qa4/,:complete_cases,cid:6035|cid:6128|cid:6140|cid:6080|cid:6029|cid:6048|cid:6137|cid:6060|cid:6099|cid:6062|cid:6047|cid:6038|cid:6063|cid:6098|cid:6134|cid:6130|cid:6057|cid:6037|cid:6058|cid:6141|cid:6034|cid:6005|cid:6013|cid:6044|cid:6039|cid:6059,,,,obo:UBERON_0002527,obo:UBERON_0001264,,,,,,,,,https://hypothes.is/a/GtfdPJa3Eeq5Bq9iemt3tg,,,,,,ncbigene:836,,,,
