uri,classes,id,label,desc,dataGrade,parent,caseLinkage,cases,casePool,unit,unitLabel,cellTissue,cellTissueContext,bioProcesses,cellComponents,molecularFns,otherfactors,sd,sem,iqr,ci,methods,combinableWiths,potentiallyCombinables,derivedFroms,hasDerivatives,UP,GeneID,authorNote,curatorNote,tag,seeAlso
https://osf.io/8ym7v#col=1,:caseID|owl:NamedIndividual|:nPOD_Feature|:individual_level_datum,ID,Case ID,Case ID,,https://osf.io/download/chj8m/,:complete_cases,cid:6267|cid:6046|cid:6224|cid:6209|cid:6171|cid:6045|cid:6087|cid:6034|cid:6197|cid:6123|cid:6162|cid:6230|cid:6167|cid:6070|cid:6247|cid:6148|cid:6088|cid:6179|cid:6134|cid:6212|cid:6178|cid:6039|cid:6243|cid:6064|cid:6158|cid:6160|cid:6113,,"","","","",,,,,,,,,,,,,,,,,,,
https://osf.io/8ym7v#col=2,owl:NamedIndividual|:nPOD_Feature|:individual_level_datum|obo:IAO_0000032,nitrotyrosine.prct,Nitrotyrosine+ (%),Nitrotyrosine expression as percentage of insulin-positive islets with nitrotyrosine staining,,https://osf.io/download/chj8m/,:complete_cases,cid:6267|cid:6046|cid:6224|cid:6209|cid:6171|cid:6045|cid:6087|cid:6034|cid:6197|cid:6123|cid:6162|cid:6230|cid:6167|cid:6070|cid:6247|cid:6148|cid:6088|cid:6179|cid:6134|cid:6212|cid:6178|cid:6039|cid:6243|cid:6064|cid:6158|cid:6160|cid:6113,,obo:UO_0000187,%,obo:UBERON_0000006,obo:UBERON_0000006,,,,,,,,,,,,,,,,,,,
