uri,classes,id,label,desc,dataGrade,parent,caseLinkage,cases,casePool,unit,unitLabel,cellTissue,cellTissueContext,bioProcesses,cellComponents,molecularFns,otherfactors,sd,sem,iqr,ci,methods,combinableWiths,potentiallyCombinables,derivedFroms,hasDerivatives,UP,GeneID,authorNote,curatorNote,tag,seeAlso
https://osf.io/j2q7s#col=1,owl:NamedIndividual|:nPOD_Feature|:individual_level_datum|:caseID,ID,Case ID,Case ID,,https://osf.io/download/8sbyt/,:complete_cases,cid:6112|cid:6132|cid:6059|cid:6029|cid:6144|cid:6139|cid:6142|cid:6109|cid:6149|cid:6137|cid:6191|cid:6133|cid:6021,,,,"","","",,,,,"",,,"",,,,,,,,,,
https://osf.io/j2q7s#col=2,obo:OBI_0000010|owl:NamedIndividual|:nPOD_Feature|:individual_level_datum,ATF6.RFI,ATF6 RFI,"Relative fluorescence intensity (RFI) of ATF6 in pancreatic sections, calculated on 15 to 25 islets per time point",,https://osf.io/download/8sbyt/,:complete_cases,cid:6112|cid:6132|cid:6059|cid:6029|cid:6144|cid:6139|cid:6142|cid:6109|cid:6149|cid:6137|cid:6191|cid:6133|cid:6021,,,,obo:UBERON_0000006,obo:UBERON_0000006,obo:GO_0036500,,,,,https://osf.io/download/8sbyt#col=3,,,https://hypothes.is/a/Ia7YVJa8EeqeeycROZKMYw,,,,,,,,,,
https://osf.io/j2q7s#col=3,owl:NamedIndividual|:nPOD_Feature|:individual_level_datum|obo:STATO_0000037,ATF6.RFI_SEM,ATF6 RFI (SEM),ATF6 RFI (SEM),,https://osf.io/download/8sbyt/,:complete_cases,cid:6112|cid:6132|cid:6059|cid:6029|cid:6144|cid:6139|cid:6142|cid:6109|cid:6149|cid:6137|cid:6191|cid:6133|cid:6021,,,,obo:UBERON_0000006,obo:UBERON_0000006,"",,,,,"",,,"",,,,,,,,,,
https://osf.io/j2q7s#col=4,obo:OBI_0000010|owl:NamedIndividual|:nPOD_Feature|:individual_level_datum,XBP1.RFI,XBP1 RFI,"Relative fluorescence intensity (RFI) of XBP1 in pancreatic sections, calculated on 15 to 25 islets per time point",,https://osf.io/download/8sbyt/,:complete_cases,cid:6112|cid:6132|cid:6059|cid:6029|cid:6144|cid:6139|cid:6142|cid:6109|cid:6149|cid:6137|cid:6191|cid:6133|cid:6021,,,,obo:UBERON_0000006,obo:UBERON_0000006,obo:GO_0036498,,,,,https://osf.io/download/8sbyt#col=5,,,https://hypothes.is/a/Ia7YVJa8EeqeeycROZKMYw,,,,,,,,,,
https://osf.io/j2q7s#col=5,owl:NamedIndividual|:nPOD_Feature|:individual_level_datum|obo:STATO_0000037,XBP1.RFI_SEM,XBP1 RFI (SEM),XBP1 RFI (SEM),,https://osf.io/download/8sbyt/,:complete_cases,cid:6112|cid:6132|cid:6059|cid:6029|cid:6144|cid:6139|cid:6142|cid:6109|cid:6149|cid:6137|cid:6191|cid:6133|cid:6021,,,,obo:UBERON_0000006,obo:UBERON_0000006,"",,,,,"",,,"",,,,,,,,,,
https://osf.io/j2q7s#col=6,obo:OBI_0000010|owl:NamedIndividual|:nPOD_Feature|:individual_level_datum,peIF2a.RFI,peIF2a.RFI,"Relative fluorescence intensity (RFI) of peIF2a in pancreatic sections, calculated on 15 to 25 islets per time point",,https://osf.io/download/8sbyt/,:complete_cases,cid:6112|cid:6132|cid:6059|cid:6029|cid:6144|cid:6139|cid:6142|cid:6109|cid:6149|cid:6137|cid:6191|cid:6133|cid:6021,,,,obo:UBERON_0000006,obo:UBERON_0000006,"",,,,,https://osf.io/download/8sbyt#col=7,,,https://hypothes.is/a/Ia7YVJa8EeqeeycROZKMYw,,,,,,,,,,
https://osf.io/j2q7s#col=7,owl:NamedIndividual|:nPOD_Feature|:individual_level_datum|obo:STATO_0000037,peIF2a.RFI_SEM,peIF2a.RFI_SEM,peIF2a.RFI_SEM,,https://osf.io/download/8sbyt/,:complete_cases,cid:6112|cid:6132|cid:6059|cid:6029|cid:6144|cid:6139|cid:6142|cid:6109|cid:6149|cid:6137|cid:6191|cid:6133|cid:6021,,,,obo:UBERON_0000006,obo:UBERON_0000006,"",,,,,"",,,"",,,,,,,,,,
