uri,classes,id,label,desc,dataGrade,parent,caseLinkage,cases,casePool,unit,unitLabel,cellTissue,cellTissueContext,bioProcesses,cellComponents,molecularFns,otherfactors,sd,sem,iqr,ci,methods,combinableWiths,potentiallyCombinables,derivedFroms,hasDerivatives,UP,GeneID,authorNote,curatorNote,tag,seeAlso
https://osf.io/ptfej#col=1,:individual_level_datum|owl:NamedIndividual|:nPOD_Feature|:caseID,ID,Case ID,Case ID,,https://osf.io/download/y3hk8/,:complete_cases,cid:6094|cid:6075|cid:6198|cid:6134|cid:6046|cid:6070|cid:6096|cid:6084|cid:6209|cid:6102|cid:6129|cid:6212|cid:6104|cid:6012|cid:6052|cid:6069,,:unit,"","","",,"",,,"",,,,"",,,,,,,,,,
https://osf.io/ptfej#col=2,:individual_level_datum|owl:NamedIndividual|:nPOD_Feature|obo:IAO_0000032,HS.prct,HS %,Expression of heparan sulfate as percent area stained,,https://osf.io/download/y3hk8/,:complete_cases,cid:6094|cid:6075|cid:6198|cid:6134|cid:6046|cid:6070|cid:6096|cid:6084|cid:6209|cid:6102|cid:6129|cid:6212|cid:6104|cid:6012|cid:6052|cid:6069,,obo:UO_0000187,%,obo:UBERON_0000006,obo:UBERON_0000006,,obo:GO_0062023,,,https://osf.io/download/y3hk8#col=7,,,,https://dx.doi.org/10.17504/protocols.io.kvzcw76,,,,,,,,,,
https://osf.io/ptfej#col=3,:individual_level_datum|owl:NamedIndividual|:nPOD_Feature|obo:IAO_0000032,Col18.prct,Col18 %,Expression of collagen type XVIII as percent area stained,,https://osf.io/download/y3hk8/,:complete_cases,cid:6094|cid:6075|cid:6198|cid:6134|cid:6046|cid:6070|cid:6096|cid:6084|cid:6209|cid:6102|cid:6129|cid:6212|cid:6104|cid:6012,,obo:UO_0000187,%,obo:UBERON_0000006,obo:UBERON_0000006,,obo:GO_0062023,,,https://osf.io/download/y3hk8#col=8,,,,https://dx.doi.org/10.17504/protocols.io.kvzcw76,,,,,,,,,,
https://osf.io/ptfej#col=4,:individual_level_datum|owl:NamedIndividual|:nPOD_Feature|obo:IAO_0000032,Sdc1.prct,Sdc1 %,Expression of syndecan-1 as percent area stained,,https://osf.io/download/y3hk8/,:complete_cases,cid:6094|cid:6075|cid:6198|cid:6134|cid:6046|cid:6070|cid:6096|cid:6084|cid:6209,,obo:UO_0000187,%,obo:UBERON_0000006,obo:UBERON_0000006,,obo:GO_0031012,,,https://osf.io/download/y3hk8#col=9,,,,https://dx.doi.org/10.17504/protocols.io.kv3cw8n,,,,,,,,,,
https://osf.io/ptfej#col=5,:individual_level_datum|owl:NamedIndividual|:nPOD_Feature|obo:IAO_0000032,Insulin.prct,Insulin %,Expression of insulin as percent area stained,,https://osf.io/download/y3hk8/,:complete_cases,cid:6094|cid:6075|cid:6198|cid:6134|cid:6046|cid:6070|cid:6096|cid:6084|cid:6209|cid:6102|cid:6129|cid:6212|cid:6104|cid:6012|cid:6052|cid:6069,,obo:UO_0000187,%,obo:UBERON_0000006,obo:UBERON_0000006,,"",,,https://osf.io/download/y3hk8#col=10,,,,https://dx.doi.org/10.17504/protocols.io.kvycw7w,,,,,,,,,,
https://osf.io/ptfej#col=6,:individual_level_datum|owl:NamedIndividual|:nPOD_Feature|obo:IAO_0000032,Glucagon.prct,Glucagon %,Expression of glucagon as percent area stained,,https://osf.io/download/y3hk8/,:complete_cases,cid:6094|cid:6075|cid:6198|cid:6134|cid:6070|cid:6084|cid:6209|cid:6129|cid:6212|cid:6104|cid:6012|cid:6052|cid:6069,,obo:UO_0000187,%,obo:UBERON_0000006,obo:UBERON_0000006,,"",,,https://osf.io/download/y3hk8#col=11,,,,https://dx.doi.org/10.17504/protocols.io.kvycw7w,,,,,,,,,,
https://osf.io/ptfej#col=7,:individual_level_datum|owl:NamedIndividual|:nPOD_Feature|obo:STATO_0000237,HS.prct_SD,HS % (SD),HS % (SD),,https://osf.io/download/y3hk8/,:complete_cases,cid:6094|cid:6075|cid:6198|cid:6134|cid:6046|cid:6070|cid:6096|cid:6084|cid:6209|cid:6102|cid:6129|cid:6212|cid:6104|cid:6012|cid:6052|cid:6069,,"","",obo:UBERON_0000006,obo:UBERON_0000006,,"",,,"",,,,"",,,,,,,,,,
https://osf.io/ptfej#col=8,:individual_level_datum|owl:NamedIndividual|:nPOD_Feature|obo:STATO_0000237,Col18.prct_SD,Col18 % (SD),Col18 % (SD),,https://osf.io/download/y3hk8/,:complete_cases,cid:6094|cid:6075|cid:6198|cid:6134|cid:6046|cid:6070|cid:6096|cid:6084|cid:6209|cid:6102|cid:6129|cid:6212|cid:6104|cid:6012,,"","",obo:UBERON_0000006,obo:UBERON_0000006,,"",,,"",,,,"",,,,,,,,,,
https://osf.io/ptfej#col=9,:individual_level_datum|owl:NamedIndividual|:nPOD_Feature|obo:STATO_0000237,Sdc1.prct_SD,Sdc1 % (SD),Sdc1 % (SD),,https://osf.io/download/y3hk8/,:complete_cases,cid:6094|cid:6075|cid:6198|cid:6134|cid:6046|cid:6070|cid:6096|cid:6084|cid:6209,,"","",obo:UBERON_0000006,obo:UBERON_0000006,,"",,,"",,,,"",,,,,,,,,,
https://osf.io/ptfej#col=10,:individual_level_datum|owl:NamedIndividual|:nPOD_Feature|obo:STATO_0000237,Insulin.prct_SD,Insulin % (SD),Insulin % (SD),,https://osf.io/download/y3hk8/,:complete_cases,cid:6094|cid:6075|cid:6198|cid:6134|cid:6046|cid:6070|cid:6096|cid:6084|cid:6209|cid:6102|cid:6129|cid:6212|cid:6104|cid:6012|cid:6052|cid:6069,,"","",obo:UBERON_0000006,obo:UBERON_0000006,,"",,,"",,,,"",,,,,,,,,,
https://osf.io/ptfej#col=11,:individual_level_datum|owl:NamedIndividual|:nPOD_Feature|obo:STATO_0000237,Glucagon.prct_SD,Glucagon % (SD),Glucagon % (SD),,https://osf.io/download/y3hk8/,:complete_cases,cid:6094|cid:6075|cid:6198|cid:6134|cid:6070|cid:6084|cid:6209|cid:6129|cid:6212|cid:6104|cid:6012|cid:6052|cid:6069,,"","",obo:UBERON_0000006,obo:UBERON_0000006,,"",,,"",,,,"",,,,,,,,,,
