uri,classes,id,label,desc,dataGrade,parent,caseLinkage,cases,casePool,unit,unitLabel,cellTissue,cellTissueContext,bioProcesses,cellComponents,molecularFns,otherfactors,sd,sem,iqr,ci,methods,combinableWiths,potentiallyCombinables,derivedFroms,hasDerivatives,UP,GeneID,authorNote,curatorNote,tag,seeAlso
https://osf.io/qu7m6#col=1,owl:NamedIndividual|:individual_level_datum|:nPOD_Feature|:caseID,ID,Case ID,Case ID,,https://osf.io/download/vqyst/,:complete_cases,cid:6414|cid:6459|cid:6458|cid:6422|cid:6450|cid:6413|cid:6432|cid:6371|cid:6457|cid:6454|cid:6449|cid:6397|cid:6424|cid:6456,,,,"","",,,,,,,,,"",,,,,,"",,,,
https://osf.io/qu7m6#col=2,owl:NamedIndividual|:dCt|:individual_level_datum|:nPOD_Feature,AIRE,AIRE,AIRE delta Ct gene expression value normalized to the housekeeping HPRT1 gene,,https://osf.io/download/vqyst/,:complete_cases,cid:6414|cid:6459|cid:6458|cid:6422|cid:6450|cid:6413|cid:6432|cid:6371|cid:6457|cid:6454|cid:6449|cid:6397|cid:6424|cid:6456,,,,obo:CL_0000499,obo:UBERON_0002527,,,,,,,,,https://hypothes.is/a/hSjm0JbgEeqsOQuby6wisg,,,,,,ncbigene:326,,,,
https://osf.io/qu7m6#col=3,owl:NamedIndividual|:dCt|:individual_level_datum|:nPOD_Feature,DEAF1,DEAF1,DEAF1 delta Ct gene expression value normalized to the housekeeping HPRT1 gene,,https://osf.io/download/vqyst/,:complete_cases,cid:6414|cid:6459|cid:6458|cid:6422|cid:6450|cid:6413|cid:6432|cid:6371|cid:6457|cid:6454|cid:6449|cid:6397|cid:6424|cid:6456,,,,obo:CL_0000499,obo:UBERON_0002527,,,,,,,,,https://hypothes.is/a/hSjm0JbgEeqsOQuby6wisg,,,,,,ncbigene:10522,,,,
https://osf.io/qu7m6#col=4,owl:NamedIndividual|:dCt|:individual_level_datum|:nPOD_Feature,FEZF2,FEZF2,FEZF2 delta Ct gene expression value normalized to the housekeeping HPRT1 gene,,https://osf.io/download/vqyst/,:complete_cases,cid:6414|cid:6459|cid:6458|cid:6422|cid:6450|cid:6413|cid:6432|cid:6371|cid:6457|cid:6454|cid:6449|cid:6397|cid:6424|cid:6456,,,,obo:CL_0000499,obo:UBERON_0002527,,,,,,,,,https://hypothes.is/a/hSjm0JbgEeqsOQuby6wisg,,,,,,ncbigene:55079,,,,
https://osf.io/qu7m6#col=5,owl:NamedIndividual|:dCt|:individual_level_datum|:nPOD_Feature,INS,INS,INS delta Ct gene expression value normalized to the housekeeping HPRT1 gene,,https://osf.io/download/vqyst/,:complete_cases,cid:6414|cid:6459|cid:6458|cid:6422|cid:6450|cid:6413|cid:6432|cid:6371|cid:6457|cid:6454|cid:6449|cid:6397|cid:6424|cid:6456,,,,obo:CL_0000499,obo:UBERON_0002527,,,,,,,,,https://hypothes.is/a/hSjm0JbgEeqsOQuby6wisg,,,,,,ncbigene:3630,,,,
https://osf.io/qu7m6#col=6,owl:NamedIndividual|:dCt|:individual_level_datum|:nPOD_Feature,GAD2,GAD2,GAD2 delta Ct gene expression value normalized to the housekeeping HPRT1 gene,,https://osf.io/download/vqyst/,:complete_cases,cid:6414|cid:6459|cid:6458|cid:6422|cid:6450|cid:6413|cid:6432|cid:6371|cid:6457|cid:6454|cid:6449|cid:6397|cid:6424|cid:6456,,,,obo:CL_0000499,obo:UBERON_0002527,,,,,,,,,https://hypothes.is/a/hSjm0JbgEeqsOQuby6wisg,,,,,,ncbigene:2572,,,,
https://osf.io/qu7m6#col=7,owl:NamedIndividual|:dCt|:individual_level_datum|:nPOD_Feature,PTPRN,PTPRN,PTPRN delta Ct gene expression value normalized to the housekeeping HPRT1 gene,,https://osf.io/download/vqyst/,:complete_cases,cid:6414|cid:6459|cid:6458|cid:6422|cid:6450|cid:6413|cid:6432|cid:6371|cid:6457|cid:6454|cid:6449|cid:6397|cid:6424|cid:6456,,,,obo:CL_0000499,obo:UBERON_0002527,,,,,,,,,https://hypothes.is/a/hSjm0JbgEeqsOQuby6wisg,,,,,,ncbigene:5798,,,,
https://osf.io/qu7m6#col=8,owl:NamedIndividual|:dCt|:individual_level_datum|:nPOD_Feature,G6PC2,G6PC2,G6PC2 delta Ct gene expression value normalized to the housekeeping HPRT1 gene,,https://osf.io/download/vqyst/,:complete_cases,cid:6414|cid:6459|cid:6458|cid:6422|cid:6450|cid:6413|cid:6432|cid:6371|cid:6457|cid:6454|cid:6449|cid:6397|cid:6424|cid:6456,,,,obo:CL_0000499,obo:UBERON_0002527,,,,,,,,,https://hypothes.is/a/hSjm0JbgEeqsOQuby6wisg,,,,,,ncbigene:57818,,,,
https://osf.io/qu7m6#col=9,owl:NamedIndividual|:dCt|:individual_level_datum|:nPOD_Feature,CHGA,CHGA,CHGA delta Ct gene expression value normalized to the housekeeping HPRT1 gene,,https://osf.io/download/vqyst/,:complete_cases,cid:6414|cid:6459|cid:6458|cid:6422|cid:6450|cid:6413|cid:6432|cid:6371|cid:6457|cid:6454|cid:6449|cid:6397|cid:6424|cid:6456,,,,obo:CL_0000499,obo:UBERON_0002527,,,,,,,,,https://hypothes.is/a/hSjm0JbgEeqsOQuby6wisg,,,,,,ncbigene:1113,,,,
https://osf.io/qu7m6#col=10,owl:NamedIndividual|:dCt|:individual_level_datum|:nPOD_Feature,SLC30A8,SLC30A8,SLC30A8 delta Ct gene expression value normalized to the housekeeping HPRT1 gene,,https://osf.io/download/vqyst/,:complete_cases,cid:6414|cid:6459|cid:6458|cid:6422|cid:6450|cid:6413|cid:6432|cid:6371|cid:6457|cid:6454|cid:6449|cid:6397|cid:6424|cid:6456,,,,obo:CL_0000499,obo:UBERON_0002527,,,,,,,,,https://hypothes.is/a/hSjm0JbgEeqsOQuby6wisg,,,,,,ncbigene:169026,,,,
https://osf.io/qu7m6#col=11,owl:NamedIndividual|:dCt|:individual_level_datum|:nPOD_Feature,ICA1,ICA1,ICA1 delta Ct gene expression value normalized to the housekeeping HPRT1 gene,,https://osf.io/download/vqyst/,:complete_cases,cid:6414|cid:6459|cid:6458|cid:6422|cid:6450|cid:6413|cid:6432|cid:6371|cid:6457|cid:6454|cid:6449|cid:6397|cid:6424|cid:6456,,,,obo:CL_0000499,obo:UBERON_0002527,,,,,,,,,https://hypothes.is/a/hSjm0JbgEeqsOQuby6wisg,,,,,,ncbigene:3382,,,,
https://osf.io/qu7m6#col=12,owl:NamedIndividual|:dCt|:individual_level_datum|:nPOD_Feature,IAPP,IAPP,IAPP delta Ct gene expression value normalized to the housekeeping HPRT1 gene,,https://osf.io/download/vqyst/,:complete_cases,cid:6414|cid:6459|cid:6458|cid:6422|cid:6450|cid:6413|cid:6432|cid:6371|cid:6457|cid:6454|cid:6449|cid:6397|cid:6424|cid:6456,,,,obo:CL_0000499,obo:UBERON_0002527,,,,,,,,,https://hypothes.is/a/hSjm0JbgEeqsOQuby6wisg,,,,,,ncbigene:3375,,,,
https://osf.io/qu7m6#col=13,owl:NamedIndividual|:dCt|:individual_level_datum|:nPOD_Feature,CELA1,CELA1,CELA1 delta Ct gene expression value normalized to the housekeeping HPRT1 gene,,https://osf.io/download/vqyst/,:complete_cases,cid:6414|cid:6459|cid:6458|cid:6422|cid:6450|cid:6413|cid:6432|cid:6371|cid:6457|cid:6454|cid:6449|cid:6397|cid:6424|cid:6456,,,,obo:CL_0000499,obo:UBERON_0002527,,,,,,,,,https://hypothes.is/a/hSjm0JbgEeqsOQuby6wisg,,,,,,ncbigene:1990,,,,
https://osf.io/qu7m6#col=14,owl:NamedIndividual|:dCt|:individual_level_datum|:nPOD_Feature,AMBP,AMBP,AMBP delta Ct gene expression value normalized to the housekeeping HPRT1 gene,,https://osf.io/download/vqyst/,:complete_cases,cid:6414|cid:6459|cid:6458|cid:6422|cid:6450|cid:6413|cid:6432|cid:6371|cid:6457|cid:6454|cid:6449|cid:6397|cid:6424|cid:6456,,,,obo:CL_0000499,obo:UBERON_0002527,,,,,,,,,https://hypothes.is/a/hSjm0JbgEeqsOQuby6wisg,,,,,,ncbigene:259,,,,
https://osf.io/qu7m6#col=15,owl:NamedIndividual|:dCt|:individual_level_datum|:nPOD_Feature,ARRB1,ARRB1,ARRB1 delta Ct gene expression value normalized to the housekeeping HPRT1 gene,,https://osf.io/download/vqyst/,:complete_cases,cid:6414|cid:6459|cid:6458|cid:6422|cid:6450|cid:6413|cid:6432|cid:6371|cid:6457|cid:6454|cid:6449|cid:6397|cid:6424|cid:6456,,,,obo:CL_0000499,obo:UBERON_0002527,,,,,,,,,https://hypothes.is/a/hSjm0JbgEeqsOQuby6wisg,,,,,,ncbigene:408,,,,
https://osf.io/qu7m6#col=16,owl:NamedIndividual|:dCt|:individual_level_datum|:nPOD_Feature,TYR,TYR,TYR delta Ct gene expression value normalized to the housekeeping HPRT1 gene,,https://osf.io/download/vqyst/,:complete_cases,cid:6414|cid:6459|cid:6458|cid:6422|cid:6450|cid:6413|cid:6432|cid:6371|cid:6457|cid:6454|cid:6449|cid:6397|cid:6424|cid:6456,,,,obo:CL_0000499,obo:UBERON_0002527,,,,,,,,,https://hypothes.is/a/hSjm0JbgEeqsOQuby6wisg,,,,,,ncbigene:7299,,,,
https://osf.io/qu7m6#col=17,owl:NamedIndividual|:dCt|:individual_level_datum|:nPOD_Feature,MLANA,MLANA,MLANA delta Ct gene expression value normalized to the housekeeping HPRT1 gene,,https://osf.io/download/vqyst/,:complete_cases,cid:6414|cid:6459|cid:6458|cid:6422|cid:6450|cid:6413|cid:6432|cid:6371|cid:6457|cid:6454|cid:6449|cid:6397|cid:6424|cid:6456,,,,obo:CL_0000499,obo:UBERON_0002527,,,,,,,,,https://hypothes.is/a/hSjm0JbgEeqsOQuby6wisg,,,,,,ncbigene:2315,,,,
https://osf.io/qu7m6#col=18,owl:NamedIndividual|:dCt|:individual_level_datum|:nPOD_Feature,TGFB1,TGFB1,TGFB1 delta Ct gene expression value normalized to the housekeeping HPRT1 gene,,https://osf.io/download/vqyst/,:complete_cases,cid:6414|cid:6459|cid:6458|cid:6422|cid:6450|cid:6413|cid:6432|cid:6371|cid:6457|cid:6454|cid:6449|cid:6397|cid:6424|cid:6456,,,,obo:CL_0000499,obo:UBERON_0002527,,,,,,,,,https://hypothes.is/a/hSjm0JbgEeqsOQuby6wisg,,,,,,ncbigene:7040,,,,
https://osf.io/qu7m6#col=19,owl:NamedIndividual|:dCt|:individual_level_datum|:nPOD_Feature,IL10,IL10,IL10 delta Ct gene expression value normalized to the housekeeping HPRT1 gene,,https://osf.io/download/vqyst/,:complete_cases,cid:6414|cid:6459|cid:6458|cid:6422|cid:6450|cid:6413|cid:6432|cid:6371|cid:6457|cid:6454|cid:6449|cid:6397|cid:6424|cid:6456,,,,obo:CL_0000499,obo:UBERON_0002527,,,,,,,,,https://hypothes.is/a/hSjm0JbgEeqsOQuby6wisg,,,,,,ncbigene:3586,,,,
https://osf.io/qu7m6#col=20,owl:NamedIndividual|:dCt|:individual_level_datum|:nPOD_Feature,IL27,IL27,IL27 delta Ct gene expression value normalized to the housekeeping HPRT1 gene,,https://osf.io/download/vqyst/,:complete_cases,cid:6414|cid:6459|cid:6458|cid:6422|cid:6450|cid:6413|cid:6432|cid:6371|cid:6457|cid:6454|cid:6449|cid:6397|cid:6424|cid:6456,,,,obo:CL_0000499,obo:UBERON_0002527,,,,,,,,,https://hypothes.is/a/hSjm0JbgEeqsOQuby6wisg,,,,,,ncbigene:246778,,,,
https://osf.io/qu7m6#col=21,owl:NamedIndividual|:dCt|:individual_level_datum|:nPOD_Feature,IL12A,IL12A,IL12A delta Ct gene expression value normalized to the housekeeping HPRT1 gene,,https://osf.io/download/vqyst/,:complete_cases,cid:6414|cid:6459|cid:6458|cid:6422|cid:6450|cid:6413|cid:6432|cid:6371|cid:6457|cid:6454|cid:6449|cid:6397|cid:6424|cid:6456,,,,obo:CL_0000499,obo:UBERON_0002527,,,,,,,,,https://hypothes.is/a/hSjm0JbgEeqsOQuby6wisg,,,,,,ncbigene:3592,,,,
https://osf.io/qu7m6#col=22,owl:NamedIndividual|:dCt|:individual_level_datum|:nPOD_Feature,EBI3,EBI3,EBI3 delta Ct gene expression value normalized to the housekeeping HPRT1 gene,,https://osf.io/download/vqyst/,:complete_cases,cid:6414|cid:6459|cid:6458|cid:6422|cid:6450|cid:6413|cid:6432|cid:6371|cid:6457|cid:6454|cid:6449|cid:6397|cid:6424|cid:6456,,,,obo:CL_0000499,obo:UBERON_0002527,,,,,,,,,https://hypothes.is/a/hSjm0JbgEeqsOQuby6wisg,,,,,,ncbigene:10148,,,,
https://osf.io/qu7m6#col=23,owl:NamedIndividual|:dCt|:individual_level_datum|:nPOD_Feature,IL1RN,IL1RN,IL1RN delta Ct gene expression value normalized to the housekeeping HPRT1 gene,,https://osf.io/download/vqyst/,:complete_cases,cid:6414|cid:6459|cid:6458|cid:6422|cid:6450|cid:6413|cid:6432|cid:6371|cid:6457|cid:6454|cid:6449|cid:6397|cid:6424|cid:6456,,,,obo:CL_0000499,obo:UBERON_0002527,,,,,,,,,https://hypothes.is/a/hSjm0JbgEeqsOQuby6wisg,,,,,,ncbigene:3557,,,,
https://osf.io/qu7m6#col=24,owl:NamedIndividual|:dCt|:individual_level_datum|:nPOD_Feature,LGALS1,LGALS1,LGALS1 delta Ct gene expression value normalized to the housekeeping HPRT1 gene,,https://osf.io/download/vqyst/,:complete_cases,cid:6414|cid:6459|cid:6458|cid:6422|cid:6450|cid:6413|cid:6432|cid:6371|cid:6457|cid:6454|cid:6449|cid:6397|cid:6424|cid:6456,,,,obo:CL_0000499,obo:UBERON_0002527,,,,,,,,,https://hypothes.is/a/hSjm0JbgEeqsOQuby6wisg,,,,,,ncbigene:3956,,,,
https://osf.io/qu7m6#col=25,owl:NamedIndividual|:dCt|:individual_level_datum|:nPOD_Feature,LGALS9,LGALS9,LGALS9 delta Ct gene expression value normalized to the housekeeping HPRT1 gene,,https://osf.io/download/vqyst/,:complete_cases,cid:6414|cid:6459|cid:6458|cid:6422|cid:6450|cid:6413|cid:6432|cid:6371|cid:6457|cid:6454|cid:6449|cid:6397|cid:6424|cid:6456,,,,obo:CL_0000499,obo:UBERON_0002527,,,,,,,,,https://hypothes.is/a/hSjm0JbgEeqsOQuby6wisg,,,,,,ncbigene:3965,,,,
https://osf.io/qu7m6#col=26,owl:NamedIndividual|:dCt|:individual_level_datum|:nPOD_Feature,TSLP,TSLP,TSLP delta Ct gene expression value normalized to the housekeeping HPRT1 gene,,https://osf.io/download/vqyst/,:complete_cases,cid:6414|cid:6459|cid:6458|cid:6422|cid:6450|cid:6413|cid:6432|cid:6371|cid:6457|cid:6454|cid:6449|cid:6397|cid:6424|cid:6456,,,,obo:CL_0000499,obo:UBERON_0002527,,,,,,,,,https://hypothes.is/a/hSjm0JbgEeqsOQuby6wisg,,,,,,ncbigene:85480,,,,
https://osf.io/qu7m6#col=27,owl:NamedIndividual|:dCt|:individual_level_datum|:nPOD_Feature,ENTPD1,ENTPD1,ENTPD1 delta Ct gene expression value normalized to the housekeeping HPRT1 gene,,https://osf.io/download/vqyst/,:complete_cases,cid:6414|cid:6459|cid:6458|cid:6422|cid:6450|cid:6413|cid:6432|cid:6371|cid:6457|cid:6454|cid:6449|cid:6397|cid:6424|cid:6456,,,,obo:CL_0000499,obo:UBERON_0002527,,,,,,,,,https://hypothes.is/a/hSjm0JbgEeqsOQuby6wisg,,,,,,ncbigene:953,,,,
https://osf.io/qu7m6#col=28,owl:NamedIndividual|:dCt|:individual_level_datum|:nPOD_Feature,NT5E,NT5E,NT5E delta Ct gene expression value normalized to the housekeeping HPRT1 gene,,https://osf.io/download/vqyst/,:complete_cases,cid:6414|cid:6459|cid:6458|cid:6422|cid:6450|cid:6413|cid:6432|cid:6371|cid:6457|cid:6454|cid:6449|cid:6397|cid:6424|cid:6456,,,,obo:CL_0000499,obo:UBERON_0002527,,,,,,,,,https://hypothes.is/a/hSjm0JbgEeqsOQuby6wisg,,,,,,ncbigene:4907,,,,
https://osf.io/qu7m6#col=29,owl:NamedIndividual|:dCt|:individual_level_datum|:nPOD_Feature,CD274,CD274,CD274 delta Ct gene expression value normalized to the housekeeping HPRT1 gene,,https://osf.io/download/vqyst/,:complete_cases,cid:6414|cid:6459|cid:6458|cid:6422|cid:6450|cid:6413|cid:6432|cid:6371|cid:6457|cid:6454|cid:6449|cid:6397|cid:6424|cid:6456,,,,obo:CL_0000499,obo:UBERON_0002527,,,,,,,,,https://hypothes.is/a/hSjm0JbgEeqsOQuby6wisg,,,,,,ncbigene:29126,,,,
https://osf.io/qu7m6#col=30,owl:NamedIndividual|:dCt|:individual_level_datum|:nPOD_Feature,PDCD1LG2,PDCD1LG2,PDCD1LG2 delta Ct gene expression value normalized to the housekeeping HPRT1 gene,,https://osf.io/download/vqyst/,:complete_cases,cid:6414|cid:6459|cid:6458|cid:6422|cid:6450|cid:6413|cid:6432|cid:6371|cid:6457|cid:6454|cid:6449|cid:6397|cid:6424|cid:6456,,,,obo:CL_0000499,obo:UBERON_0002527,,,,,,,,,https://hypothes.is/a/hSjm0JbgEeqsOQuby6wisg,,,,,,ncbigene:80380,,,,
https://osf.io/qu7m6#col=31,owl:NamedIndividual|:dCt|:individual_level_datum|:nPOD_Feature,SEMA4A,SEMA4A,SEMA4A delta Ct gene expression value normalized to the housekeeping HPRT1 gene,,https://osf.io/download/vqyst/,:complete_cases,cid:6414|cid:6459|cid:6458|cid:6422|cid:6450|cid:6413|cid:6432|cid:6371|cid:6457|cid:6454|cid:6449|cid:6397|cid:6424|cid:6456,,,,obo:CL_0000499,obo:UBERON_0002527,,,,,,,,,https://hypothes.is/a/hSjm0JbgEeqsOQuby6wisg,,,,,,ncbigene:64218,,,,
https://osf.io/qu7m6#col=32,owl:NamedIndividual|:dCt|:individual_level_datum|:nPOD_Feature,VTCN1,VTCN1,VTCN1 delta Ct gene expression value normalized to the housekeeping HPRT1 gene,,https://osf.io/download/vqyst/,:complete_cases,cid:6414|cid:6459|cid:6458|cid:6422|cid:6450|cid:6413|cid:6432|cid:6371|cid:6457|cid:6454|cid:6449|cid:6397|cid:6424|cid:6456,,,,obo:CL_0000499,obo:UBERON_0002527,,,,,,,,,https://hypothes.is/a/hSjm0JbgEeqsOQuby6wisg,,,,,,ncbigene:79679,,,,
https://osf.io/qu7m6#col=33,owl:NamedIndividual|:dCt|:individual_level_datum|:nPOD_Feature,ICOSLG,ICOSLG,ICOSLG delta Ct gene expression value normalized to the housekeeping HPRT1 gene,,https://osf.io/download/vqyst/,:complete_cases,cid:6414|cid:6459|cid:6458|cid:6422|cid:6450|cid:6413|cid:6432|cid:6371|cid:6457|cid:6454|cid:6449|cid:6397|cid:6424|cid:6456,,,,obo:CL_0000499,obo:UBERON_0002527,,,,,,,,,https://hypothes.is/a/hSjm0JbgEeqsOQuby6wisg,,,,,,ncbigene:23308,,,,
https://osf.io/qu7m6#col=34,owl:NamedIndividual|:dCt|:individual_level_datum|:nPOD_Feature,TNFRSF14,TNFRSF14,TNFRSF14 delta Ct gene expression value normalized to the housekeeping HPRT1 gene,,https://osf.io/download/vqyst/,:complete_cases,cid:6414|cid:6459|cid:6458|cid:6422|cid:6450|cid:6413|cid:6432|cid:6371|cid:6457|cid:6454|cid:6449|cid:6397|cid:6424|cid:6456,,,,obo:CL_0000499,obo:UBERON_0002527,,,,,,,,,https://hypothes.is/a/hSjm0JbgEeqsOQuby6wisg,,,,,,ncbigene:8764,,,,
https://osf.io/qu7m6#col=35,owl:NamedIndividual|:dCt|:individual_level_datum|:nPOD_Feature,LILRB4,LILRB4,LILRB4 delta Ct gene expression value normalized to the housekeeping HPRT1 gene,,https://osf.io/download/vqyst/,:complete_cases,cid:6414|cid:6459|cid:6458|cid:6422|cid:6450|cid:6413|cid:6432|cid:6371|cid:6457|cid:6454|cid:6449|cid:6397|cid:6424|cid:6456,,,,obo:CL_0000499,obo:UBERON_0002527,,,,,,,,,https://hypothes.is/a/hSjm0JbgEeqsOQuby6wisg,,,,,,ncbigene:11006,,,,
https://osf.io/qu7m6#col=36,owl:NamedIndividual|:dCt|:individual_level_datum|:nPOD_Feature,LILRB2,LILRB2,LILRB2 delta Ct gene expression value normalized to the housekeeping HPRT1 gene,,https://osf.io/download/vqyst/,:complete_cases,cid:6414|cid:6459|cid:6458|cid:6422|cid:6450|cid:6413|cid:6432|cid:6371|cid:6457|cid:6454|cid:6449|cid:6397|cid:6424|cid:6456,,,,obo:CL_0000499,obo:UBERON_0002527,,,,,,,,,https://hypothes.is/a/hSjm0JbgEeqsOQuby6wisg,,,,,,ncbigene:10288,,,,
https://osf.io/qu7m6#col=37,owl:NamedIndividual|:dCt|:individual_level_datum|:nPOD_Feature,FAS,FAS,FAS delta Ct gene expression value normalized to the housekeeping HPRT1 gene,,https://osf.io/download/vqyst/,:complete_cases,cid:6414|cid:6459|cid:6458|cid:6422|cid:6450|cid:6413|cid:6432|cid:6371|cid:6457|cid:6454|cid:6449|cid:6397|cid:6424|cid:6456,,,,obo:CL_0000499,obo:UBERON_0002527,,,,,,,,,https://hypothes.is/a/hSjm0JbgEeqsOQuby6wisg,,,,,,ncbigene:355,,,,
https://osf.io/qu7m6#col=38,owl:NamedIndividual|:dCt|:individual_level_datum|:nPOD_Feature,FASLG,FASLG,FASLG delta Ct gene expression value normalized to the housekeeping HPRT1 gene,,https://osf.io/download/vqyst/,:complete_cases,cid:6414|cid:6459|cid:6458|cid:6422|cid:6450|cid:6413|cid:6432|cid:6371|cid:6457|cid:6454|cid:6449|cid:6397|cid:6424|cid:6456,,,,obo:CL_0000499,obo:UBERON_0002527,,,,,,,,,https://hypothes.is/a/hSjm0JbgEeqsOQuby6wisg,,,,,,ncbigene:356,,,,
https://osf.io/qu7m6#col=39,owl:NamedIndividual|:dCt|:individual_level_datum|:nPOD_Feature,IDO1,IDO1,IDO1 delta Ct gene expression value normalized to the housekeeping HPRT1 gene,,https://osf.io/download/vqyst/,:complete_cases,cid:6414|cid:6459|cid:6458|cid:6422|cid:6450|cid:6413|cid:6432|cid:6371|cid:6457|cid:6454|cid:6449|cid:6397|cid:6424|cid:6456,,,,obo:CL_0000499,obo:UBERON_0002527,,,,,,,,,https://hypothes.is/a/hSjm0JbgEeqsOQuby6wisg,,,,,,ncbigene:3620,,,,
https://osf.io/qu7m6#col=40,owl:NamedIndividual|:dCt|:individual_level_datum|:nPOD_Feature,ALDH1A1,ALDH1A1,ALDH1A1 delta Ct gene expression value normalized to the housekeeping HPRT1 gene,,https://osf.io/download/vqyst/,:complete_cases,cid:6414|cid:6459|cid:6458|cid:6422|cid:6450|cid:6413|cid:6432|cid:6371|cid:6457|cid:6454|cid:6449|cid:6397|cid:6424|cid:6456,,,,obo:CL_0000499,obo:UBERON_0002527,,,,,,,,,https://hypothes.is/a/hSjm0JbgEeqsOQuby6wisg,,,,,,ncbigene:216,,,,
https://osf.io/qu7m6#col=41,owl:NamedIndividual|:dCt|:individual_level_datum|:nPOD_Feature,ARG1,ARG1,ARG1 delta Ct gene expression value normalized to the housekeeping HPRT1 gene,,https://osf.io/download/vqyst/,:complete_cases,cid:6414|cid:6459|cid:6458|cid:6422|cid:6450|cid:6413|cid:6432|cid:6371|cid:6457|cid:6454|cid:6449|cid:6397|cid:6424|cid:6456,,,,obo:CL_0000499,obo:UBERON_0002527,,,,,,,,,https://hypothes.is/a/hSjm0JbgEeqsOQuby6wisg,,,,,,ncbigene:383,,,,
https://osf.io/qu7m6#col=42,owl:NamedIndividual|:dCt|:individual_level_datum|:nPOD_Feature,ARG2,ARG2,ARG2 delta Ct gene expression value normalized to the housekeeping HPRT1 gene,,https://osf.io/download/vqyst/,:complete_cases,cid:6414|cid:6459|cid:6458|cid:6422|cid:6450|cid:6413|cid:6432|cid:6371|cid:6457|cid:6454|cid:6449|cid:6397|cid:6424|cid:6456,,,,obo:CL_0000499,obo:UBERON_0002527,,,,,,,,,https://hypothes.is/a/hSjm0JbgEeqsOQuby6wisg,,,,,,ncbigene:384,,,,
https://osf.io/qu7m6#col=43,owl:NamedIndividual|:dCt|:individual_level_datum|:nPOD_Feature,NOS2,NOS2,NOS2 delta Ct gene expression value normalized to the housekeeping HPRT1 gene,,https://osf.io/download/vqyst/,:complete_cases,cid:6414|cid:6459|cid:6458|cid:6422|cid:6450|cid:6413|cid:6432|cid:6371|cid:6457|cid:6454|cid:6449|cid:6397|cid:6424|cid:6456,,,,obo:CL_0000499,obo:UBERON_0002527,,,,,,,,,https://hypothes.is/a/hSjm0JbgEeqsOQuby6wisg,,,,,,ncbigene:4843,,,,
https://osf.io/qu7m6#col=44,owl:NamedIndividual|:dCt|:individual_level_datum|:nPOD_Feature,HMOX1,HMOX1,HMOX1 delta Ct gene expression value normalized to the housekeeping HPRT1 gene,,https://osf.io/download/vqyst/,:complete_cases,cid:6414|cid:6459|cid:6458|cid:6422|cid:6450|cid:6413|cid:6432|cid:6371|cid:6457|cid:6454|cid:6449|cid:6397|cid:6424|cid:6456,,,,obo:CL_0000499,obo:UBERON_0002527,,,,,,,,,https://hypothes.is/a/hSjm0JbgEeqsOQuby6wisg,,,,,,ncbigene:3162,,,,
https://osf.io/qu7m6#col=45,owl:NamedIndividual|:dCt|:individual_level_datum|:nPOD_Feature,TNFAIP3,TNFAIP3,TNFAIP3 delta Ct gene expression value normalized to the housekeeping HPRT1 gene,,https://osf.io/download/vqyst/,:complete_cases,cid:6414|cid:6459|cid:6458|cid:6422|cid:6450|cid:6413|cid:6432|cid:6371|cid:6457|cid:6454|cid:6449|cid:6397|cid:6424|cid:6456,,,,obo:CL_0000499,obo:UBERON_0002527,,,,,,,,,https://hypothes.is/a/hSjm0JbgEeqsOQuby6wisg,,,,,,ncbigene:7128,,,,
