uri,classes,id,label,desc,dataGrade,parent,caseLinkage,cases,casePool,unit,unitLabel,cellTissue,cellTissueContext,bioProcesses,cellComponents,molecularFns,otherfactors,sd,sem,iqr,ci,methods,combinableWiths,potentiallyCombinables,derivedFroms,hasDerivatives,UP,GeneID,authorNote,curatorNote,tag,seeAlso
https://osf.io/rh7cp#col=1,owl:NamedIndividual|:nPOD_Feature|:individual_level_datum|:caseID,ID,Case ID,Case ID,,https://osf.io/download/zcdj7/,:complete_cases,cid:6031|cid:6196|cid:6083|cid:6086|cid:6113|cid:6085|cid:6088|cid:6265|cid:6062|cid:6243|cid:6212|cid:6049|cid:6089|cid:6066|cid:6026|cid:6145|cid:6074|cid:6148|cid:6078|cid:6038|cid:6150|cid:6161|cid:6035|cid:6039|cid:6087|cid:6064|cid:6063|cid:6245|cid:6207|cid:6135|cid:6247|cid:6040|cid:6081|cid:6264|cid:6084|cid:6261|cid:6224|cid:6228|cid:6138|cid:6065|cid:6025|cid:6068|cid:6268|cid:6036|cid:6042|cid:6041|cid:6050|cid:6198|cid:6237|cid:6052|cid:6054|cid:6211|cid:6070|cid:6195|cid:6209|cid:6024|cid:6048|cid:6174|cid:6232|cid:6017|cid:6162|cid:6011|cid:6227|cid:6271|cid:6020,,"","","","",,,,,"","",,,"",,,,,,,,,,
https://osf.io/rh7cp#col=2,obo:IAO_0000032|owl:NamedIndividual|:nPOD_Feature|:individual_level_datum,strong.ins.prct,Strong insulin-low islets (%),Percent of islets with strong Insulin-low islets,,https://osf.io/download/zcdj7/,:complete_cases,cid:6031|cid:6196|cid:6083|cid:6086|cid:6113|cid:6085|cid:6088|cid:6265|cid:6062|cid:6243|cid:6212|cid:6049|cid:6089|cid:6066|cid:6026|cid:6145|cid:6074|cid:6148|cid:6078|cid:6038|cid:6150|cid:6161|cid:6035|cid:6039|cid:6087|cid:6064|cid:6063|cid:6245|cid:6207|cid:6135|cid:6247|cid:6040|cid:6081|cid:6264|cid:6084|cid:6261|cid:6224|cid:6228|cid:6138|cid:6065|cid:6025|cid:6068|cid:6268|cid:6036|cid:6042|cid:6041|cid:6050|cid:6198|cid:6237|cid:6052|cid:6054|cid:6211|cid:6070|cid:6195|cid:6209,,obo:UO_0000187,%,obo:UBERON_0000006,obo:UBERON_0000006,,,,,https://osf.io/download/zcdj7#col=3,"",,,https://hypothes.is/a/6c9ukJcFEeqQFm-I-lMVvA,,,,,,,,,,
https://osf.io/rh7cp#col=3,owl:NamedIndividual|:nPOD_Feature|:individual_level_datum|obo:STATO_0000237,strong.ins.prct_SD,Strong insulin-low islets (%) (SD),Strong Insulin-low islets (%) (SD),,https://osf.io/download/zcdj7/,:complete_cases,cid:6031|cid:6196|cid:6083|cid:6086|cid:6113|cid:6085|cid:6088|cid:6265|cid:6062|cid:6243|cid:6212|cid:6049|cid:6089|cid:6066|cid:6026|cid:6145|cid:6074|cid:6148|cid:6078|cid:6038|cid:6150|cid:6161|cid:6035|cid:6039|cid:6087|cid:6064|cid:6063|cid:6245|cid:6207|cid:6135|cid:6247|cid:6040|cid:6081|cid:6264|cid:6084|cid:6261|cid:6224|cid:6228|cid:6138|cid:6065|cid:6025|cid:6068|cid:6268|cid:6036|cid:6042|cid:6041|cid:6050|cid:6198|cid:6237|cid:6052|cid:6054|cid:6211|cid:6070|cid:6195|cid:6209,,"","",obo:UBERON_0000006,obo:UBERON_0000006,,,,,"","",,,"",,,,,,,,,,
https://osf.io/rh7cp#col=4,obo:IAO_0000032|owl:NamedIndividual|:nPOD_Feature|:individual_level_datum,moderate.ins.prct,Moderate insulin-low islets (%),Percent of islets with moderate Insulin-low islets,,https://osf.io/download/zcdj7/,:complete_cases,cid:6031|cid:6196|cid:6083|cid:6086|cid:6113|cid:6085|cid:6088|cid:6265|cid:6062|cid:6243|cid:6212|cid:6049|cid:6089|cid:6066|cid:6026|cid:6145|cid:6074|cid:6148|cid:6078|cid:6038|cid:6150|cid:6161|cid:6035|cid:6039|cid:6087|cid:6064|cid:6063|cid:6245|cid:6207|cid:6135|cid:6247|cid:6040|cid:6081|cid:6264|cid:6084|cid:6261|cid:6224|cid:6228|cid:6138|cid:6065|cid:6025|cid:6068|cid:6268|cid:6036|cid:6042|cid:6041|cid:6050|cid:6198|cid:6237|cid:6052|cid:6054|cid:6211|cid:6070|cid:6195|cid:6209,,obo:UO_0000187,%,obo:UBERON_0000006,obo:UBERON_0000006,,,,,https://osf.io/download/zcdj7#col=5,"",,,https://hypothes.is/a/6c9ukJcFEeqQFm-I-lMVvA,,,,,,,,,,
https://osf.io/rh7cp#col=5,owl:NamedIndividual|:nPOD_Feature|:individual_level_datum|obo:STATO_0000237,moderate.ins.prct_SD,Moderate insulin-low islets (%) (SD),Moderate Insulin-low islets (%) (SD),,https://osf.io/download/zcdj7/,:complete_cases,cid:6031|cid:6196|cid:6083|cid:6086|cid:6113|cid:6085|cid:6088|cid:6265|cid:6062|cid:6243|cid:6212|cid:6049|cid:6089|cid:6066|cid:6026|cid:6145|cid:6074|cid:6148|cid:6078|cid:6038|cid:6150|cid:6161|cid:6035|cid:6039|cid:6087|cid:6064|cid:6063|cid:6245|cid:6207|cid:6135|cid:6247|cid:6040|cid:6081|cid:6264|cid:6084|cid:6261|cid:6224|cid:6228|cid:6138|cid:6065|cid:6025|cid:6068|cid:6268|cid:6036|cid:6042|cid:6041|cid:6050|cid:6198|cid:6237|cid:6052|cid:6054|cid:6211|cid:6070|cid:6195|cid:6209,,"","",obo:UBERON_0000006,obo:UBERON_0000006,,,,,"","",,,"",,,,,,,,,,
https://osf.io/rh7cp#col=6,obo:IAO_0000032|owl:NamedIndividual|:nPOD_Feature|:individual_level_datum,no.ins.prct,No Insulin-low islets (%),Percent of islets with no Insulin-low islets,,https://osf.io/download/zcdj7/,:complete_cases,cid:6031|cid:6196|cid:6083|cid:6086|cid:6113|cid:6085|cid:6088|cid:6265|cid:6062|cid:6243|cid:6212|cid:6049|cid:6089|cid:6066|cid:6026|cid:6145|cid:6074|cid:6148|cid:6078|cid:6038|cid:6150|cid:6161|cid:6035|cid:6039|cid:6087|cid:6064|cid:6063|cid:6245|cid:6207|cid:6135|cid:6247|cid:6040|cid:6081|cid:6264|cid:6084|cid:6261|cid:6224|cid:6228|cid:6138|cid:6065|cid:6025|cid:6068|cid:6268|cid:6036|cid:6042|cid:6041|cid:6050|cid:6198|cid:6237|cid:6052|cid:6054|cid:6211|cid:6070|cid:6195|cid:6209,,obo:UO_0000187,%,obo:UBERON_0000006,obo:UBERON_0000006,,,,,https://osf.io/download/zcdj7#col=7,"",,,https://hypothes.is/a/6c9ukJcFEeqQFm-I-lMVvA,,,,,,,,,,
https://osf.io/rh7cp#col=7,owl:NamedIndividual|:nPOD_Feature|:individual_level_datum|obo:STATO_0000237,no.ins.prct_SD,No Insulin-low islets (%) (SD),No Insulin-low islets (%) (SD),,https://osf.io/download/zcdj7/,:complete_cases,cid:6031|cid:6196|cid:6083|cid:6086|cid:6113|cid:6085|cid:6088|cid:6265|cid:6062|cid:6243|cid:6212|cid:6049|cid:6089|cid:6066|cid:6026|cid:6145|cid:6074|cid:6148|cid:6078|cid:6038|cid:6150|cid:6161|cid:6035|cid:6039|cid:6087|cid:6064|cid:6063|cid:6245|cid:6207|cid:6135|cid:6247|cid:6040|cid:6081|cid:6264|cid:6084|cid:6261|cid:6224|cid:6228|cid:6138|cid:6065|cid:6025|cid:6068|cid:6268|cid:6036|cid:6042|cid:6041|cid:6050|cid:6198|cid:6237|cid:6052|cid:6054|cid:6211|cid:6070|cid:6195|cid:6209,,"","",obo:UBERON_0000006,obo:UBERON_0000006,,,,,"","",,,"",,,,,,,,,,
https://osf.io/rh7cp#col=8,obo:IAO_0000032|owl:NamedIndividual|:nPOD_Feature|:individual_level_datum,endocrine.prct,islet endocrine area (% total),Percent islet endocrine area,,https://osf.io/download/zcdj7/,:complete_cases,cid:6031|cid:6083|cid:6086|cid:6085|cid:6088|cid:6265|cid:6243|cid:6049|cid:6066|cid:6026|cid:6148|cid:6078|cid:6135|cid:6084|cid:6261|cid:6228|cid:6065|cid:6268|cid:6042|cid:6041|cid:6198|cid:6052|cid:6054|cid:6070|cid:6195,,obo:UO_0000187,%,obo:UBERON_0000006,obo:UBERON_0000006,,,,,"","",,,"",,,,,,,,,,
https://osf.io/rh7cp#col=9,obo:IAO_0000032|owl:NamedIndividual|:nPOD_Feature|:individual_level_datum,Syn.InsLo.prct,Insulin-low islets (% of Syn+ islets),Insulin-low islets as percent of total Syn+ islets,,https://osf.io/download/zcdj7/,:complete_cases,cid:6031|cid:6083|cid:6086|cid:6085|cid:6088|cid:6265|cid:6243|cid:6049|cid:6066|cid:6026|cid:6148|cid:6078|cid:6135|cid:6084|cid:6261|cid:6228|cid:6065|cid:6268|cid:6042|cid:6041|cid:6198|cid:6052|cid:6054|cid:6070|cid:6195,,obo:UO_0000187,%,obo:UBERON_0000006,obo:UBERON_0000006,,,,,https://osf.io/download/zcdj7#col=10,"",,,https://hypothes.is/a/jhGjOJbeEeqZWC-tUnl0Pw,,,,,,,,,,
https://osf.io/rh7cp#col=10,owl:NamedIndividual|:nPOD_Feature|:individual_level_datum|obo:STATO_0000237,Syn.InsLo.prct_SD,Insulin-low islets (% of Syn+ islets) (SD),Insulin-low islets (% of Syn+ islets) (SD),,https://osf.io/download/zcdj7/,:complete_cases,cid:6031|cid:6083|cid:6086|cid:6085|cid:6088|cid:6265|cid:6243|cid:6049|cid:6066|cid:6026|cid:6148|cid:6078|cid:6135|cid:6084|cid:6261|cid:6228|cid:6065|cid:6268|cid:6042|cid:6041|cid:6198|cid:6052|cid:6054|cid:6070|cid:6195,,"","",obo:UBERON_0000006,obo:UBERON_0000006,,,,,"","",,,"",,,,,,,,,,
https://osf.io/rh7cp#col=11,obo:IAO_0000032|owl:NamedIndividual|:nPOD_Feature|:individual_level_datum,InsNeg.islet.prct,Ins- islets (%),Percent of islets that are insulin-negative,,https://osf.io/download/zcdj7/,:complete_cases,cid:6031|cid:6086|cid:6085|cid:6265|cid:6243|cid:6026|cid:6148|cid:6135|cid:6065|cid:6042|cid:6041|cid:6052|cid:6054|cid:6070|cid:6195|cid:6024|cid:6048|cid:6174|cid:6232|cid:6017|cid:6162|cid:6011|cid:6227|cid:6271|cid:6020,,obo:UO_0000187,%,obo:UBERON_0000006,obo:UBERON_0000006,,,,,"","",,,"",,,,,,,,,,
https://osf.io/rh7cp#col=12,obo:IAO_0000032|owl:NamedIndividual|:nPOD_Feature|:individual_level_datum,InsPos.islet.prct,Ins+ islets (%),Percent of islets that are insulin-positive,,https://osf.io/download/zcdj7/,:complete_cases,cid:6031|cid:6086|cid:6085|cid:6265|cid:6243|cid:6026|cid:6148|cid:6135|cid:6065|cid:6042|cid:6041|cid:6052|cid:6054|cid:6070|cid:6195|cid:6024|cid:6048|cid:6174|cid:6232|cid:6017|cid:6162|cid:6011|cid:6227|cid:6271|cid:6020,,obo:UO_0000187,%,obo:UBERON_0000006,obo:UBERON_0000006,,,,,"","",,,"",,,,,,,,,,
https://osf.io/rh7cp#col=13,obo:IAO_0000032|owl:NamedIndividual|:nPOD_Feature|:individual_level_datum,InsNeg.islet.size,Average Insulin-negative islet size (um^2),Average Insulin-negative islet size,,https://osf.io/download/zcdj7/,:complete_cases,cid:6031|cid:6086|cid:6085|cid:6265|cid:6243|cid:6026|cid:6148|cid:6135|cid:6065|cid:6042|cid:6041|cid:6052|cid:6054|cid:6070|cid:6195,,obo:UO_0010001,um^2,obo:UBERON_0000006,obo:UBERON_0000006,,,,,"",https://osf.io/download/zcdj7#col=114,,,https://hypothes.is/a/UY0qDpcGEeqWm-tdZlpl9w,,,,,,,,,,
https://osf.io/rh7cp#col=14,owl:NamedIndividual|:nPOD_Feature|:individual_level_datum|obo:STATO_0000037,InsNeg.islet.size_SEM,Average Insulin-negative islet size (um^2) (SEM),Average Insulin-negative islet size (um^2) (SEM),,https://osf.io/download/zcdj7/,:complete_cases,cid:6031|cid:6086|cid:6085|cid:6265|cid:6243|cid:6026|cid:6148|cid:6135|cid:6065|cid:6042|cid:6041|cid:6052|cid:6054|cid:6070|cid:6195,,"","",obo:UBERON_0000006,obo:UBERON_0000006,,,,,"","",,,"",,,,,,,,,,
https://osf.io/rh7cp#col=15,obo:IAO_0000032|owl:NamedIndividual|:nPOD_Feature|:individual_level_datum,InsPos.islet.size,Average Insulin-positive islet size (um^2),Average Insulin-positive islet size,,https://osf.io/download/zcdj7/,:complete_cases,cid:6031|cid:6086|cid:6085|cid:6265|cid:6243|cid:6026|cid:6148|cid:6135|cid:6065|cid:6042|cid:6041|cid:6052|cid:6054|cid:6070|cid:6195|cid:6024|cid:6048|cid:6174|cid:6232|cid:6017|cid:6162|cid:6011|cid:6227|cid:6271|cid:6020,,obo:UO_0010001,um^2,obo:UBERON_0000006,obo:UBERON_0000006,,,,,"",https://osf.io/download/zcdj7#col=116,,,https://hypothes.is/a/UY0qDpcGEeqWm-tdZlpl9w,,,,,,,,,,
https://osf.io/rh7cp#col=16,owl:NamedIndividual|:nPOD_Feature|:individual_level_datum|obo:STATO_0000037,InsPos.islet.size_SEM,Average Insulin-positive islet size (um^2) (SEM,Average Insulin-positive islet size (um^2) (SEM,,https://osf.io/download/zcdj7/,:complete_cases,cid:6031|cid:6086|cid:6085|cid:6265|cid:6243|cid:6026|cid:6148|cid:6135|cid:6065|cid:6042|cid:6041|cid:6052|cid:6054|cid:6070|cid:6195|cid:6024|cid:6048|cid:6174|cid:6232|cid:6017|cid:6162|cid:6011|cid:6227|cid:6271|cid:6020,,"","",obo:UBERON_0000006,obo:UBERON_0000006,,,,,"","",,,"",,,,,,,,,,
