uri,classes,id,label,desc,dataGrade,parent,caseLinkage,cases,casePool,unit,unitLabel,cellTissue,cellTissueContext,bioProcesses,cellComponents,molecularFns,otherfactors,sd,sem,iqr,ci,methods,combinableWiths,potentiallyCombinables,derivedFroms,hasDerivatives,UP,GeneID,authorNote,curatorNote,tag,seeAlso
https://osf.io/dbxf7#col=1,:individual_level_datum|:nPOD_Feature|owl:NamedIndividual|:caseID,ID,Case ID,Case ID,,,:complete_cases,cid:6046|cid:6052|cid:6070|cid:6088|cid:6113|cid:6123|cid:6151|cid:6154|cid:6171|cid:6209|cid:6224|cid:6232|cid:6268|cid:6271|cid:6295|cid:6335|cid:6342|cid:6367|cid:6377|cid:6386|cid:6429|cid:6456,,"",,"","",,,,,,,,,,,,,,,,,,,
https://osf.io/dbxf7#col=2,obo:STATO_0000237|:individual_level_datum|:nPOD_Feature,CD8Tcells.mm2.islet.PB_SD,"CD8 T cells per mm2 islet, PB (SD)",Standard deviation of CD8 T cell density in islet in pancreas body,,,:complete_cases,cid:6046|cid:6052|cid:6070|cid:6113|cid:6154|cid:6171|cid:6224|cid:6232|cid:6335|cid:6377|cid:6386|cid:6429|cid:6456,,"",,obo:UBERON_0001150,obo:UBERON_0001264,,,,,,,,,,,,,,,,,,,
https://osf.io/dbxf7#col=3,obo:STATO_0000237|:individual_level_datum|:nPOD_Feature,CD8Tcells.mm2.islet.PH_SD,"CD8 T cells per mm2 islet, PH (SD)",Standard deviation of CD8 T cell density in islet in pancreas head,,,:complete_cases,cid:6046|cid:6113|cid:6151|cid:6154|cid:6224|cid:6342|cid:6367,,"",,obo:UBERON_0001069,obo:UBERON_0001264,,,,,,,,,,,,,,,,,,,
https://osf.io/dbxf7#col=4,obo:STATO_0000237|:individual_level_datum|:nPOD_Feature,CD8Tcells.mm2.islet.PT_SD,"CD8 T cells per mm2 islet, PT (SD)",Standard deviation of CD8 T cell density in islet in pancreas tail,,,:complete_cases,cid:6046|cid:6052|cid:6070|cid:6088|cid:6123|cid:6151|cid:6154|cid:6209|cid:6224|cid:6268|cid:6271|cid:6295|cid:6429|cid:6456,,"",,obo:UBERON_0001151,obo:UBERON_0001264,,,,,,,,,,,,,,,,,,,
https://osf.io/dbxf7#col=5,obo:STATO_0000047|:individual_level_datum|:nPOD_Feature,CD8Tcells.mm2.islet.PB,"CD8 T cells per mm2 islet, PB",CD8 T cell density in islet in pancreas body,,,:complete_cases,cid:6046|cid:6052|cid:6070|cid:6113|cid:6154|cid:6171|cid:6224|cid:6232|cid:6335|cid:6377|cid:6386|cid:6429|cid:6456,,:cells_per_square_mm,,obo:UBERON_0001150,obo:UBERON_0001264,,,,,,,,,,,,,,,,,,,
https://osf.io/dbxf7#col=6,obo:STATO_0000047|:individual_level_datum|:nPOD_Feature,CD8Tcells.mm2.islet.PH,"CD8 T cells per mm2 islet, PH",CD8 T cell density in islet in pancreas head,,,:complete_cases,cid:6046|cid:6113|cid:6151|cid:6154|cid:6224|cid:6342|cid:6367,,:cells_per_square_mm,,obo:UBERON_0001069,obo:UBERON_0001264,,,,,,,,,,,,,,,,,,,
https://osf.io/dbxf7#col=7,obo:STATO_0000047|:individual_level_datum|:nPOD_Feature,CD8Tcells.mm2.islet.PT,"CD8 T cells per mm2 islet, PT",CD8 T cell density in islet in pancreas tail,,,:complete_cases,cid:6046|cid:6052|cid:6070|cid:6088|cid:6123|cid:6151|cid:6154|cid:6209|cid:6224|cid:6268|cid:6271|cid:6295|cid:6429|cid:6456,,:cells_per_square_mm,,obo:UBERON_0001151,obo:UBERON_0001264,,,,,,,,,,,,,,,,,,,
https://osf.io/dbxf7#col=8,obo:STATO_0000237|:individual_level_datum|:nPOD_Feature,CD8Tcells.prct.islet.PB_SD,"CD8 T cells % islet, PB (SD)",Standard deviation of percent CD8 T cell in islet in pancreas body,,,:complete_cases,cid:6046|cid:6052|cid:6070|cid:6113|cid:6154|cid:6171|cid:6224|cid:6232|cid:6335|cid:6377|cid:6386|cid:6429|cid:6456,,"",,obo:UBERON_0001150,obo:UBERON_0001264,,,,,,,,,,,,,,,,,,,
https://osf.io/dbxf7#col=9,obo:STATO_0000237|:individual_level_datum|:nPOD_Feature,CD8Tcells.prct.islet.PH_SD,"CD8 T cells % islet, PH (SD)",Standard deviation of percent CD8 T cell in islet in pancreas head,,,:complete_cases,cid:6046|cid:6113|cid:6151|cid:6154|cid:6224|cid:6342|cid:6367,,"",,obo:UBERON_0001069,obo:UBERON_0001264,,,,,,,,,,,,,,,,,,,
https://osf.io/dbxf7#col=10,obo:STATO_0000237|:individual_level_datum|:nPOD_Feature,CD8Tcells.prct.islet.PT_SD,"CD8 T cells % islet, PT (SD)",Standard deviation of percent CD8 T cell in islet in pancreas tail,,,:complete_cases,cid:6046|cid:6052|cid:6070|cid:6088|cid:6123|cid:6151|cid:6154|cid:6209|cid:6224|cid:6268|cid:6271|cid:6295|cid:6429|cid:6456,,"",,obo:UBERON_0001151,obo:UBERON_0001264,,,,,,,,,,,,,,,,,,,
https://osf.io/dbxf7#col=11,obo:STATO_0000184|:individual_level_datum|:nPOD_Feature,CD8Tcells.prct.islet.PB,"CD8 T cells % islet, PB",CD8 T cell percent in islet in pancreas body,,,:complete_cases,cid:6046|cid:6052|cid:6070|cid:6113|cid:6154|cid:6171|cid:6224|cid:6232|cid:6335|cid:6377|cid:6386|cid:6429|cid:6456,,obo:UO_0000187,,obo:UBERON_0001150,obo:UBERON_0001264,,,,,,,,,,,,,,,,,,,
https://osf.io/dbxf7#col=12,obo:STATO_0000184|:individual_level_datum|:nPOD_Feature,CD8Tcells.prct.islet.PH,"CD8 T cells % islet, PH",CD8 T cell percent in islet in pancreas head,,,:complete_cases,cid:6046|cid:6113|cid:6151|cid:6154|cid:6224|cid:6342|cid:6367,,obo:UO_0000187,,obo:UBERON_0001069,obo:UBERON_0001264,,,,,,,,,,,,,,,,,,,
https://osf.io/dbxf7#col=13,obo:STATO_0000184|:individual_level_datum|:nPOD_Feature,CD8Tcells.prct.islet.PT,"CD8 T cells % islet, PT",CD8 T cell percent in islet in pancreas tail,,,:complete_cases,cid:6046|cid:6052|cid:6070|cid:6088|cid:6123|cid:6151|cid:6154|cid:6209|cid:6224|cid:6268|cid:6271|cid:6295|cid:6429|cid:6456,,obo:UO_0000187,,obo:UBERON_0001151,obo:UBERON_0001264,,,,,,,,,,,,,,,,,,,
https://osf.io/dbxf7#col=14,obo:STATO_0000237|:individual_level_datum|:nPOD_Feature,CD8Tcells.mm2.periislet.PB_SD,"CD8 T cells per mm2 periislet, PB (SD)",Standard deviation of CD8 T cell density in periislet area in pancreas body,,,:complete_cases,cid:6046|cid:6052|cid:6070|cid:6113|cid:6154|cid:6171|cid:6224|cid:6232|cid:6335|cid:6377|cid:6386|cid:6429|cid:6456,,"",,obo:UBERON_0001150,obo:UBERON_0001264,,,,,,,,,,,,,,,,,,,
https://osf.io/dbxf7#col=15,obo:STATO_0000237|:individual_level_datum|:nPOD_Feature,CD8Tcells.mm2.periislet.PH_SD,"CD8 T cells per mm2 periislet, PH (SD)",Standard deviation of CD8 T cell density in periislet area in pancreas head,,,:complete_cases,cid:6046|cid:6113|cid:6151|cid:6154|cid:6224|cid:6342|cid:6367,,"",,obo:UBERON_0001069,obo:UBERON_0001264,,,,,,,,,,,,,,,,,,,
https://osf.io/dbxf7#col=16,obo:STATO_0000237|:individual_level_datum|:nPOD_Feature,CD8Tcells.mm2.periislet.PT_SD,"CD8 T cells per mm2 periislet, PT (SD)",Standard deviation of CD8 T cell density in periislet area in pancreas tail,,,:complete_cases,cid:6046|cid:6052|cid:6070|cid:6088|cid:6123|cid:6151|cid:6154|cid:6209|cid:6224|cid:6268|cid:6271|cid:6295|cid:6429|cid:6456,,"",,obo:UBERON_0001151,obo:UBERON_0001264,,,,,,,,,,,,,,,,,,,
https://osf.io/dbxf7#col=17,obo:STATO_0000047|:individual_level_datum|:nPOD_Feature,CD8Tcells.mm2.periislet.PB,"CD8 T cells per mm2 periislet, PB",CD8 T cell density in periislet area in pancreas body,,,:complete_cases,cid:6046|cid:6052|cid:6070|cid:6113|cid:6154|cid:6171|cid:6224|cid:6232|cid:6335|cid:6377|cid:6386|cid:6429|cid:6456,,:cells_per_square_mm,,obo:UBERON_0001150,obo:UBERON_0001264,,,,,,,,,,,,,,,,,,,
https://osf.io/dbxf7#col=18,obo:STATO_0000047|:individual_level_datum|:nPOD_Feature,CD8Tcells.mm2.periislet.PH,"CD8 T cells per mm2 periislet, PH",CD8 T cell density in periislet area in pancreas head,,,:complete_cases,cid:6046|cid:6113|cid:6151|cid:6154|cid:6224|cid:6342|cid:6367,,:cells_per_square_mm,,obo:UBERON_0001069,obo:UBERON_0001264,,,,,,,,,,,,,,,,,,,
https://osf.io/dbxf7#col=19,obo:STATO_0000047|:individual_level_datum|:nPOD_Feature,CD8Tcells.mm2.periislet.PT,"CD8 T cells per mm2 periislet, PT",CD8 T cell density in periislet area in pancreas tail,,,:complete_cases,cid:6046|cid:6052|cid:6070|cid:6088|cid:6123|cid:6151|cid:6154|cid:6209|cid:6224|cid:6268|cid:6271|cid:6295|cid:6429|cid:6456,,:cells_per_square_mm,,obo:UBERON_0001151,obo:UBERON_0001264,,,,,,,,,,,,,,,,,,,
https://osf.io/dbxf7#col=20,obo:STATO_0000237|:individual_level_datum|:nPOD_Feature,CD8Tcells.prct.periislet.PB_SD,"CD8 T cells % periislet, PB (SD)",Standard deviation of percent CD8 T cell in periislet area in pancreas body,,,:complete_cases,cid:6046|cid:6052|cid:6070|cid:6113|cid:6154|cid:6171|cid:6224|cid:6232|cid:6335|cid:6377|cid:6386|cid:6429|cid:6456,,"",,obo:UBERON_0001150,obo:UBERON_0001264,,,,,,,,,,,,,,,,,,,
https://osf.io/dbxf7#col=21,obo:STATO_0000237|:individual_level_datum|:nPOD_Feature,CD8Tcells.prct.periislet.PH_SD,"CD8 T cells % periislet, PH (SD)",Standard deviation of percent CD8 T cell in periislet area in pancreas head,,,:complete_cases,cid:6046|cid:6113|cid:6151|cid:6154|cid:6224|cid:6342|cid:6367,,"",,obo:UBERON_0001069,obo:UBERON_0001264,,,,,,,,,,,,,,,,,,,
https://osf.io/dbxf7#col=22,obo:STATO_0000237|:individual_level_datum|:nPOD_Feature,CD8Tcells.prct.periislet.PT_SD,"CD8 T cells % periislet, PT (SD)",Standard deviation of percent CD8 T cell in periislet area in pancreas tail,,,:complete_cases,cid:6046|cid:6052|cid:6070|cid:6088|cid:6123|cid:6151|cid:6154|cid:6209|cid:6224|cid:6268|cid:6271|cid:6295|cid:6429|cid:6456,,"",,obo:UBERON_0001151,obo:UBERON_0001264,,,,,,,,,,,,,,,,,,,
https://osf.io/dbxf7#col=23,obo:STATO_0000184|:individual_level_datum|:nPOD_Feature,CD8Tcells.prct.periislet.PB,"CD8 T cells % periislet, PB",CD8 T cell percent in periislet area in pancreas body,,,:complete_cases,cid:6046|cid:6052|cid:6070|cid:6113|cid:6154|cid:6171|cid:6224|cid:6232|cid:6335|cid:6377|cid:6386|cid:6429|cid:6456,,obo:UO_0000187,,obo:UBERON_0001150,obo:UBERON_0001264,,,,,,,,,,,,,,,,,,,
https://osf.io/dbxf7#col=24,obo:STATO_0000184|:individual_level_datum|:nPOD_Feature,CD8Tcells.prct.periislet.PH,"CD8 T cells % periislet, PH",CD8 T cell percent in periislet area in pancreas head,,,:complete_cases,cid:6046|cid:6113|cid:6151|cid:6154|cid:6224|cid:6342|cid:6367,,obo:UO_0000187,,obo:UBERON_0001069,obo:UBERON_0001264,,,,,,,,,,,,,,,,,,,
https://osf.io/dbxf7#col=25,obo:STATO_0000184|:individual_level_datum|:nPOD_Feature,CD8Tcells.prct.periislet.PT,"CD8 T cells % periislet, PT",CD8 T cell percent in periislet area in pancreas tail,,,:complete_cases,cid:6046|cid:6052|cid:6070|cid:6088|cid:6123|cid:6151|cid:6154|cid:6209|cid:6224|cid:6268|cid:6271|cid:6295|cid:6429|cid:6456,,obo:UO_0000187,,obo:UBERON_0001151,obo:UBERON_0001264,,,,,,,,,,,,,,,,,,,
https://osf.io/dbxf7#col=26,obo:STATO_0000237|:individual_level_datum|:nPOD_Feature,CD8Tcells.mm2.exocrine.PB_SD,"CD8 T cells per mm2 exocrine, PB (SD)",Standard deviation of CD8 T cell density in exocrine area in pancreas body,,,:complete_cases,cid:6046|cid:6052|cid:6070|cid:6113|cid:6154|cid:6171|cid:6224|cid:6232|cid:6335|cid:6377|cid:6386|cid:6429|cid:6456,,"",,obo:UBERON_0001150,obo:UBERON_0001264,,,,,,,,,,,,,,,,,,,
https://osf.io/dbxf7#col=27,obo:STATO_0000237|:individual_level_datum|:nPOD_Feature,CD8Tcells.mm2.exocrine.PH_SD,"CD8 T cells per mm2 exocrine, PH (SD)",Standard deviation of CD8 T cell density in exocrine area in pancreas head,,,:complete_cases,cid:6046|cid:6113|cid:6151|cid:6154|cid:6224|cid:6342|cid:6367,,"",,obo:UBERON_0001069,obo:UBERON_0001264,,,,,,,,,,,,,,,,,,,
https://osf.io/dbxf7#col=28,obo:STATO_0000237|:individual_level_datum|:nPOD_Feature,CD8Tcells.mm2.exocrine.PT_SD,"CD8 T cells per mm2 exocrine, PT (SD)",Standard deviation of CD8 T cell density in exocrine area in pancreas tail,,,:complete_cases,cid:6046|cid:6052|cid:6070|cid:6088|cid:6123|cid:6151|cid:6154|cid:6209|cid:6268|cid:6271|cid:6295|cid:6456,,"",,obo:UBERON_0001151,obo:UBERON_0001264,,,,,,,,,,,,,,,,,,,
https://osf.io/dbxf7#col=29,obo:STATO_0000047|:individual_level_datum|:nPOD_Feature,CD8Tcells.mm2.exocrine.PB,"CD8 T cells per mm2 exocrine, PB",CD8 T cell density in exocrine area in pancreas body,,,:complete_cases,cid:6046|cid:6052|cid:6070|cid:6113|cid:6154|cid:6171|cid:6224|cid:6232|cid:6335|cid:6377|cid:6386|cid:6429|cid:6456,,:cells_per_square_mm,,obo:UBERON_0001150,obo:UBERON_0001264,,,,,,,,,,,,,,,,,,,
https://osf.io/dbxf7#col=30,obo:STATO_0000047|:individual_level_datum|:nPOD_Feature,CD8Tcells.mm2.exocrine.PH,"CD8 T cells per mm2 exocrine, PH",CD8 T cell density in exocrine area in pancreas head,,,:complete_cases,cid:6046|cid:6113|cid:6151|cid:6154|cid:6224|cid:6342|cid:6367,,:cells_per_square_mm,,obo:UBERON_0001069,obo:UBERON_0001264,,,,,,,,,,,,,,,,,,,
https://osf.io/dbxf7#col=31,obo:STATO_0000047|:individual_level_datum|:nPOD_Feature,CD8Tcells.mm2.exocrine.PT,"CD8 T cells per mm2 exocrine, PT",CD8 T cell density in exocrine area in pancreas tail,,,:complete_cases,cid:6046|cid:6052|cid:6070|cid:6088|cid:6123|cid:6151|cid:6154|cid:6209|cid:6268|cid:6271|cid:6295|cid:6429|cid:6456,,:cells_per_square_mm,,obo:UBERON_0001151,obo:UBERON_0001264,,,,,,,,,,,,,,,,,,,
https://osf.io/dbxf7#col=32,obo:STATO_0000237|:individual_level_datum|:nPOD_Feature,CD8Tcells.prct.exocrine.PB_SD,"CD8 T cells % exocrine, PB (SD)",Standard deviation of percent CD8 T cell in exocrine area in pancreas body,,,:complete_cases,cid:6046|cid:6052|cid:6070|cid:6113|cid:6154|cid:6171|cid:6224|cid:6232|cid:6335|cid:6377|cid:6386|cid:6429|cid:6456,,"",,obo:UBERON_0001150,obo:UBERON_0001264,,,,,,,,,,,,,,,,,,,
https://osf.io/dbxf7#col=33,obo:STATO_0000237|:individual_level_datum|:nPOD_Feature,CD8Tcells.prct.exocrine.PH_SD,"CD8 T cells % exocrine, PH (SD)",Standard deviation of percent CD8 T cell in exocrine area in pancreas head,,,:complete_cases,cid:6046|cid:6113|cid:6151|cid:6154|cid:6224|cid:6342|cid:6367,,"",,obo:UBERON_0001069,obo:UBERON_0001264,,,,,,,,,,,,,,,,,,,
https://osf.io/dbxf7#col=34,obo:STATO_0000237|:individual_level_datum|:nPOD_Feature,CD8Tcells.prct.exocrine.PT_SD,"CD8 T cells % exocrine, PT (SD)",Standard deviation of percent CD8 T cell in exocrine area in pancreas tail,,,:complete_cases,cid:6046|cid:6052|cid:6070|cid:6088|cid:6123|cid:6151|cid:6154|cid:6209|cid:6268|cid:6271|cid:6295|cid:6456,,"",,obo:UBERON_0001151,obo:UBERON_0001264,,,,,,,,,,,,,,,,,,,
https://osf.io/dbxf7#col=35,obo:STATO_0000184|:individual_level_datum|:nPOD_Feature,CD8Tcells.prct.exocrine.PB,"CD8 T cells % exocrine, PB",CD8 T cell percent in exocrine area in pancreas body,,,:complete_cases,cid:6046|cid:6052|cid:6070|cid:6113|cid:6154|cid:6171|cid:6224|cid:6232|cid:6335|cid:6377|cid:6386|cid:6429|cid:6456,,obo:UO_0000187,,obo:UBERON_0001150,obo:UBERON_0001264,,,,,,,,,,,,,,,,,,,
https://osf.io/dbxf7#col=36,obo:STATO_0000184|:individual_level_datum|:nPOD_Feature,CD8Tcells.prct.exocrine.PH,"CD8 T cells % exocrine, PH",CD8 T cell percent in exocrine area in pancreas head,,,:complete_cases,cid:6046|cid:6113|cid:6151|cid:6154|cid:6224|cid:6342|cid:6367,,obo:UO_0000187,,obo:UBERON_0001069,obo:UBERON_0001264,,,,,,,,,,,,,,,,,,,
https://osf.io/dbxf7#col=37,obo:STATO_0000184|:individual_level_datum|:nPOD_Feature,CD8Tcells.prct.exocrine.PT,"CD8 T cells % exocrine, PT",CD8 T cell percent in exocrine area in pancreas tail,,,:complete_cases,cid:6046|cid:6052|cid:6070|cid:6088|cid:6123|cid:6151|cid:6154|cid:6209|cid:6268|cid:6271|cid:6295|cid:6429|cid:6456,,obo:UO_0000187,,obo:UBERON_0001151,obo:UBERON_0001264,,,,,,,,,,,,,,,,,,,
