uri,classes,id,label,desc,dataGrade,parent,caseLinkage,cases,casePool,unit,unitLabel,cellTissue,cellTissueContext,bioProcesses,cellComponents,molecularFns,otherfactors,sd,sem,iqr,ci,methods,combinableWiths,potentiallyCombinables,derivedFroms,hasDerivatives,UP,GeneID,authorNote,curatorNote,tag,seeAlso
https://osf.io/xsh7e#col=1,:nPOD_Feature|owl:NamedIndividual|:individual_level_datum|:caseID,ID,Case ID,Case ID,,https://osf.io/download/wbygn/,:complete_cases,cid:6113|cid:6167|cid:6178|cid:6153|cid:6174|cid:6098|cid:6158|cid:6179|cid:6027|cid:6024|cid:6087|cid:6052|cid:6197,,"","","","",,,,,,,,,"",,,,,,,,,,
https://osf.io/xsh7e#col=2,obo:STATO_0000047|:nPOD_Feature|owl:NamedIndividual|:individual_level_datum,MPO.cells.head,MPO+ cells/mm^2,"Quantification of MPO-positive cells in pancreatic tail sections, number of cells per squared millimeter",,https://osf.io/download/wbygn/,:complete_cases,cid:6113|cid:6167|cid:6178|cid:6153|cid:6174|cid:6098|cid:6158|cid:6179|cid:6027|cid:6024|cid:6087|cid:6052|cid:6197,,:cells_per_square_mm,cells/mm^2,obo:CL_0000775,obo:UBERON_0001069,,,,,,,,,https://hypothes.is/a/QrYrXJbeEeqVY_OvZimJgA,,,,,,,,,,
https://osf.io/xsh7e#col=3,obo:STATO_0000047|:nPOD_Feature|owl:NamedIndividual|:individual_level_datum,MPO.cells.tail,MPO+ cells/mm^2,"Quantification of MPO-positive cells in pancreatic head sections, number of cells per squared millimeter",,https://osf.io/download/wbygn/,:complete_cases,cid:6113|cid:6167|cid:6178|cid:6098|cid:6179|cid:6027|cid:6087,,:cells_per_square_mm,cells/mm^2,obo:CL_0000775,obo:UBERON_0001151,,,,,,,,,https://hypothes.is/a/QrYrXJbeEeqVY_OvZimJgA,,,,,,,,,,
