uri,classes,id,label,desc,dataGrade,parent,caseLinkage,cases,casePool,unit,unitLabel,cellTissue,cellTissueContext,bioProcesses,cellComponents,molecularFns,otherfactors,sd,sem,iqr,ci,methods,combinableWiths,potentiallyCombinables,derivedFroms,hasDerivatives,UP,GeneID,authorNote,curatorNote,tag,seeAlso
https://osf.io/76btc#col=1,owl:NamedIndividual|:individual_level_datum|:nPOD_Feature|:caseID,ID,Case ID,Case ID,,https://osf.io/download/nauch/,:complete_cases,cid:6300|cid:6280|cid:6102|cid:6017|cid:6335|cid:6012|cid:6290|cid:6022|cid:6127|cid:8003|cid:6060|cid:6221|cid:6126|cid:6234|cid:6249|cid:6020|cid:6139|cid:6013|cid:6295|cid:6168|cid:6288|cid:6165|cid:6254|cid:6179|cid:6149|cid:6142|cid:6133|cid:6199|cid:6255|cid:6186|cid:6095,,,"","","",,,,,,"",,,,,,,,,,,,,
https://osf.io/76btc#col=2,owl:NamedIndividual|:individual_level_datum|:nPOD_Feature|obo:OBI_0000010,PC2,PC2,Proprotein Convertase 2 measured by fluorescence intensity,,https://osf.io/download/nauch/,:complete_cases,cid:6335|cid:6290|cid:6127|cid:6060|cid:6126|cid:6234|cid:6139|cid:6254|cid:6179|cid:6149|cid:6142|cid:6133|cid:6199|cid:6255|cid:6186|cid:6095,,,arbitrary units (AU),obo:UBERON_0001264,obo:UBERON_0001264,,,,,,https://osf.io/download/nauch#col=3,,,,,,,,,,,,,
https://osf.io/76btc#col=3,obo:STATO_0000037|owl:NamedIndividual|:individual_level_datum|:nPOD_Feature,PC2_SEM,PC2 (SEM),PC2 (SEM),,https://osf.io/download/nauch/,:complete_cases,cid:6335|cid:6290|cid:6127|cid:6060|cid:6126|cid:6234|cid:6139|cid:6254|cid:6179|cid:6149|cid:6142|cid:6133|cid:6199|cid:6255|cid:6186|cid:6095,,,"",obo:UBERON_0001264,obo:UBERON_0001264,,,,,,"",,,,,,,,,,,,,
https://osf.io/76btc#col=4,owl:NamedIndividual|:individual_level_datum|:nPOD_Feature|obo:OBI_0000010,PC1.3,PC1/3,Proprotein Convertase 1/3 measured by fluorescence intensity,,https://osf.io/download/nauch/,:complete_cases,cid:6300|cid:6280|cid:6102|cid:6017|cid:6335|cid:6012|cid:6290|cid:6022|cid:6127|cid:8003|cid:6060|cid:6221|cid:6126|cid:6234|cid:6249|cid:6020|cid:6139|cid:6013|cid:6295|cid:6168|cid:6288|cid:6165|cid:6254|cid:6179,,,arbitrary units (AU),obo:UBERON_0001264,obo:UBERON_0001264,,,,,,https://osf.io/download/nauch#col=5,,,,,,,,,,,,,
https://osf.io/76btc#col=5,obo:STATO_0000037|owl:NamedIndividual|:individual_level_datum|:nPOD_Feature,PC1.3_SEM,PC1/3 (SEM),PC1/3 (SEM),,https://osf.io/download/nauch/,:complete_cases,cid:6300|cid:6280|cid:6102|cid:6017|cid:6335|cid:6012|cid:6290|cid:6022|cid:6127|cid:8003|cid:6060|cid:6221|cid:6126|cid:6234|cid:6249|cid:6020|cid:6139|cid:6013|cid:6295|cid:6168|cid:6288|cid:6165|cid:6254|cid:6179,,,"",obo:UBERON_0001264,obo:UBERON_0001264,,,,,,"",,,,,,,,,,,,,
