uri,classes,id,label,desc,dataGrade,parent,caseLinkage,cases,casePool,unit,unitLabel,cellTissue,cellTissueContext,bioProcesses,cellComponents,molecularFns,otherfactors,sd,sem,iqr,ci,methods,combinableWiths,potentiallyCombinables,derivedFroms,hasDerivatives,UP,GeneID,authorNote,curatorNote,tag,seeAlso
https://osf.io/t46zr#col=1,:individual_level_datum|:nPOD_Feature|owl:NamedIndividual|:caseID,ID,Case ID,Case ID,,,:complete_cases,cid:6015|cid:6029|cid:6034|cid:6055|cid:6104|cid:6179|cid:6229|cid:6038|cid:6041|cid:6054|cid:6077|cid:6141|cid:6143|cid:6173|cid:6180|cid:6208|cid:6040|cid:6069|cid:6070|cid:6121|cid:6211|cid:6224|cid:6237|cid:6243,,"",,"","",,,,,,,,,,,,,,,,,,,
https://osf.io/t46zr#col=2,:binary_datum|:individual_level_datum|:nPOD_Feature,Ins.pos,Insulin positivity,Insulin-positive cells present,,,:complete_cases,cid:6015|cid:6029|cid:6034|cid:6055|cid:6104|cid:6179|cid:6229|cid:6038|cid:6041|cid:6054|cid:6077|cid:6141|cid:6143|cid:6173|cid:6180|cid:6208|cid:6040|cid:6069|cid:6070|cid:6121|cid:6211|cid:6224|cid:6237|cid:6243,,"",,obo:UBERON_0000006,obo:UBERON_0001264,,,,,,,,,,,,,,,,,,,
https://osf.io/t46zr#col=3,obo:IAO_0000300,Proins.phenotype,Proinsulin (PI) staining phenotype,Summary characterization of proinsulin staining phenotype,,,:complete_cases,cid:6015|cid:6029|cid:6034|cid:6055|cid:6104|cid:6179|cid:6229|cid:6038|cid:6041|cid:6054|cid:6077|cid:6141|cid:6143|cid:6173|cid:6180|cid:6208|cid:6040|cid:6069|cid:6070|cid:6121|cid:6211|cid:6224|cid:6237|cid:6243,,"",,obo:UBERON_0000006,obo:UBERON_0001264,,,,,,,,,,,,,,,,,,,
https://osf.io/t46zr#col=4,obo:STATO_0000184|:individual_level_datum|:nPOD_Feature,Proins.Ins.ratio,Proinsulin to insulin ratio,Proinsulin to insulin ratio as measured by  fluorescence intensity,,,:complete_cases,cid:6015|cid:6029|cid:6034|cid:6055|cid:6104|cid:6179|cid:6229|cid:6038|cid:6040|cid:6069|cid:6070|cid:6121|cid:6211|cid:6224|cid:6237|cid:6243,,obo:UO_0010006,,obo:UBERON_0000006,obo:UBERON_0001264,,,,,,,,,,,,,,,,,,,
