uri,classes,id,label,desc,dataGrade,parent,caseLinkage,cases,casePool,unit,unitLabel,cellTissue,cellTissueContext,bioProcesses,cellComponents,molecularFns,otherfactors,sd,sem,iqr,ci,methods,combinableWiths,potentiallyCombinables,derivedFroms,hasDerivatives,UP,GeneID,authorNote,curatorNote,tag,seeAlso
https://osf.io/vjxmq#col=1,:nPOD_Feature|owl:NamedIndividual|:individual_level_datum|:caseID,ID,Case ID,Case ID,,https://osf.io/download/fcd46/,:complete_cases,cid:6140|cid:6115|cid:6172|cid:6107|cid:6278|cid:6178|cid:6005|cid:6008|cid:6254|cid:6229|cid:6104|cid:6144|cid:6092|cid:6003|cid:6057|cid:6235|cid:6099|cid:6134|cid:6106|cid:6011|cid:6073|cid:6117|cid:6179|cid:6007|cid:6131|cid:6162|cid:6279|cid:6187|cid:6165|cid:6200|cid:6048|cid:6230|cid:6219|cid:6126|cid:6060|cid:6129|cid:6251|cid:6222|cid:6019|cid:6174|cid:6250|cid:6047,,"","","","","",,,,"",,,,"",,,,,,,,,,
https://osf.io/vjxmq#col=2,:nPOD_Feature|owl:NamedIndividual|:individual_level_datum|:ordinal_datum,hosp.bin,hosp.bin,"Hospitalisation time, binned",,https://osf.io/download/fcd46/,:complete_cases,cid:6140|cid:6115|cid:6172|cid:6107|cid:6278|cid:6178|cid:6005|cid:6008|cid:6254|cid:6229|cid:6104|cid:6144|cid:6092|cid:6003|cid:6057|cid:6235|cid:6099|cid:6134|cid:6106|cid:6011|cid:6073|cid:6117|cid:6179|cid:6007|cid:6131|cid:6162|cid:6279|cid:6187|cid:6165|cid:6200|cid:6048|cid:6230|cid:6219|cid:6126|cid:6060|cid:6129|cid:6251|cid:6222|cid:6019|cid:6174|cid:6250|cid:6047,,"","","","","",,,,"",,,,"",,,,,,,,,,
https://osf.io/vjxmq#col=3,:nPOD_Feature|owl:NamedIndividual|:individual_level_datum|obo:IAO_0000032,CD68.prct,CD68+ %,CD68+ cells as percentage of total islet cells counted,,https://osf.io/download/fcd46/,:complete_cases,cid:6140|cid:6115|cid:6172|cid:6107|cid:6278|cid:6178|cid:6005|cid:6008|cid:6254|cid:6229|cid:6104|cid:6144|cid:6092|cid:6003|cid:6057|cid:6235|cid:6099|cid:6134|cid:6106|cid:6011|cid:6073|cid:6117|cid:6179|cid:6007|cid:6131|cid:6162|cid:6279|cid:6187|cid:6165|cid:6200|cid:6048|cid:6230|cid:6219|cid:6126|cid:6060|cid:6129|cid:6251|cid:6222|cid:6019|cid:6174|cid:6250|cid:6047,,obo:UO_0000187,%,obo:CL_0000235,obo:UBERON_0000006,"",,,,https://osf.io/download/fcd46#col=4,,,,https://hypothes.is/a/iog2nJbJEeqTtAfP3CuhcA,,,,,,,,,,
https://osf.io/vjxmq#col=4,:nPOD_Feature|owl:NamedIndividual|:individual_level_datum|obo:STATO_0000237,CD68.prct_SD,CD68+ % (SD),CD68+ % (SD),,https://osf.io/download/fcd46/,:complete_cases,cid:6140|cid:6115|cid:6172|cid:6107|cid:6278|cid:6178|cid:6005|cid:6008|cid:6254|cid:6229|cid:6104|cid:6144|cid:6092|cid:6003|cid:6057|cid:6235|cid:6099|cid:6134|cid:6106|cid:6011|cid:6073|cid:6117|cid:6179|cid:6007|cid:6131|cid:6162|cid:6279|cid:6187|cid:6165|cid:6200|cid:6048|cid:6230|cid:6219|cid:6126|cid:6060|cid:6129|cid:6251|cid:6222|cid:6019|cid:6174|cid:6250|cid:6047,,"","",obo:CL_0000235,obo:UBERON_0000006,"",,,,"",,,,"",,,,,,,,,,
https://osf.io/vjxmq#col=5,:nPOD_Feature|owl:NamedIndividual|:individual_level_datum|obo:IAO_0000032,Ins.prct,Ins+ %,Ins+ cells as percentage of total islet cells counted,,https://osf.io/download/fcd46/,:complete_cases,cid:6140|cid:6115|cid:6172|cid:6107|cid:6278|cid:6178|cid:6005|cid:6008|cid:6254|cid:6229|cid:6104|cid:6144|cid:6092|cid:6003|cid:6057|cid:6235|cid:6099|cid:6134|cid:6106|cid:6011|cid:6073|cid:6117|cid:6179|cid:6007|cid:6131|cid:6162|cid:6279|cid:6187|cid:6165|cid:6200|cid:6048|cid:6230|cid:6219|cid:6126|cid:6060|cid:6129|cid:6251|cid:6222|cid:6019|cid:6174|cid:6250|cid:6047,,obo:UO_0000187,%,obo:CL_0000169,obo:UBERON_0000006,"",,,,https://osf.io/download/fcd46#col=6,,,,https://hypothes.is/a/iog2nJbJEeqTtAfP3CuhcA,,,,,,,,,,
https://osf.io/vjxmq#col=6,:nPOD_Feature|owl:NamedIndividual|:individual_level_datum|obo:STATO_0000237,Ins.prct_SD,Ins+ % (SD),Ins+ % (SD),,https://osf.io/download/fcd46/,:complete_cases,cid:6140|cid:6115|cid:6172|cid:6107|cid:6278|cid:6178|cid:6005|cid:6008|cid:6254|cid:6229|cid:6104|cid:6144|cid:6092|cid:6003|cid:6057|cid:6235|cid:6099|cid:6134|cid:6106|cid:6011|cid:6073|cid:6117|cid:6179|cid:6007|cid:6131|cid:6162|cid:6279|cid:6187|cid:6165|cid:6200|cid:6048|cid:6230|cid:6219|cid:6126|cid:6060|cid:6129|cid:6251|cid:6222|cid:6019|cid:6174|cid:6250|cid:6047,,"","",obo:CL_0000169,obo:UBERON_0000006,"",,,,"",,,,"",,,,,,,,,,
https://osf.io/vjxmq#col=7,:nPOD_Feature|owl:NamedIndividual|:individual_level_datum|obo:IAO_0000032,Ki67.prct,Ki67+ %,Ki67+ cells as percentage of total islet cells counted,,https://osf.io/download/fcd46/,:complete_cases,cid:6140|cid:6115|cid:6172|cid:6107|cid:6278|cid:6178|cid:6005|cid:6008|cid:6254|cid:6229|cid:6104|cid:6144|cid:6092|cid:6003|cid:6057|cid:6235|cid:6099|cid:6134|cid:6106|cid:6011|cid:6073|cid:6117|cid:6179|cid:6007|cid:6131|cid:6162|cid:6279|cid:6187|cid:6165|cid:6200|cid:6048|cid:6230|cid:6219|cid:6126|cid:6060|cid:6129|cid:6251|cid:6222|cid:6019|cid:6174|cid:6250|cid:6047,,obo:UO_0000187,%,"",obo:UBERON_0000006,obo:GO_0008283,,,,https://osf.io/download/fcd46#col=8,,,,https://hypothes.is/a/iog2nJbJEeqTtAfP3CuhcA,,,,,,,,,,
https://osf.io/vjxmq#col=8,:nPOD_Feature|owl:NamedIndividual|:individual_level_datum|obo:STATO_0000237,Ki67.prct_SD,Ki67+ % (SD),Ki67+ % (SD),,https://osf.io/download/fcd46/,:complete_cases,cid:6140|cid:6115|cid:6172|cid:6107|cid:6278|cid:6178|cid:6005|cid:6008|cid:6254|cid:6229|cid:6104|cid:6144|cid:6092|cid:6003|cid:6057|cid:6235|cid:6099|cid:6134|cid:6106|cid:6011|cid:6073|cid:6117|cid:6179|cid:6007|cid:6131|cid:6162|cid:6279|cid:6187|cid:6165|cid:6200|cid:6048|cid:6230|cid:6219|cid:6126|cid:6060|cid:6129|cid:6251|cid:6222|cid:6019|cid:6174|cid:6250|cid:6047,,"","","",obo:UBERON_0000006,"",,,,"",,,,"",,,,,,,,,,
https://osf.io/vjxmq#col=9,:nPOD_Feature|owl:NamedIndividual|:individual_level_datum|obo:IAO_0000032,Ki67.Ins.prct,Ki67+/Ins+ %,Ki67+/Ins+ cells as percentage of total islet cells counted,,https://osf.io/download/fcd46/,:complete_cases,cid:6140|cid:6115|cid:6172|cid:6107|cid:6278|cid:6178|cid:6005|cid:6008|cid:6254|cid:6229|cid:6104|cid:6144|cid:6092|cid:6003|cid:6057|cid:6235|cid:6099|cid:6134|cid:6106|cid:6011|cid:6073|cid:6117|cid:6179|cid:6007|cid:6131|cid:6162|cid:6279|cid:6187|cid:6165|cid:6200|cid:6048|cid:6230|cid:6219|cid:6126|cid:6060|cid:6129|cid:6251|cid:6222|cid:6019|cid:6174|cid:6250|cid:6047,,obo:UO_0000187,%,obo:CL_0000169,obo:UBERON_0000006,obo:GO_0008283,,,,https://osf.io/download/fcd46#col=10,,,,https://hypothes.is/a/iog2nJbJEeqTtAfP3CuhcA,,,,,,,,,,
https://osf.io/vjxmq#col=10,:nPOD_Feature|owl:NamedIndividual|:individual_level_datum|obo:STATO_0000237,Ki67.Ins.prct_SD,Ki67+/Ins+ % (SD),Ki67+/Ins+ % (SD),,https://osf.io/download/fcd46/,:complete_cases,cid:6140|cid:6115|cid:6172|cid:6107|cid:6278|cid:6178|cid:6005|cid:6008|cid:6254|cid:6229|cid:6104|cid:6144|cid:6092|cid:6003|cid:6057|cid:6235|cid:6099|cid:6134|cid:6106|cid:6011|cid:6073|cid:6117|cid:6179|cid:6007|cid:6131|cid:6162|cid:6279|cid:6187|cid:6165|cid:6200|cid:6048|cid:6230|cid:6219|cid:6126|cid:6060|cid:6129|cid:6251|cid:6222|cid:6019|cid:6174|cid:6250|cid:6047,,"","",obo:CL_0000169,obo:UBERON_0000006,"",,,,"",,,,"",,,,,,,,,,
https://osf.io/vjxmq#col=11,:nPOD_Feature|owl:NamedIndividual|:individual_level_datum|obo:IAO_0000032,CD45.prct,CD45+ %,CD45+ cells as percentage of total islet cells counted,,https://osf.io/download/fcd46/,:complete_cases,cid:6140|cid:6115|cid:6172|cid:6107|cid:6278|cid:6178|cid:6005|cid:6008|cid:6254|cid:6229|cid:6104|cid:6144|cid:6092|cid:6003|cid:6057|cid:6235|cid:6099|cid:6134|cid:6106|cid:6011|cid:6073|cid:6117|cid:6179|cid:6007|cid:6131|cid:6162|cid:6279|cid:6187|cid:6165|cid:6200|cid:6048|cid:6230|cid:6219|cid:6126|cid:6060|cid:6129|cid:6251|cid:6222|cid:6019|cid:6174|cid:6250|cid:6047,,obo:UO_0000187,%,obo:CL_0000738,obo:UBERON_0000006,"",,,,https://osf.io/download/fcd46#col=112,,,,https://hypothes.is/a/iog2nJbJEeqTtAfP3CuhcA,,,,,,,,,,
https://osf.io/vjxmq#col=12,:nPOD_Feature|owl:NamedIndividual|:individual_level_datum|obo:STATO_0000237,CD45.prct_SD,CD45+ % (SD),CD45+ % (SD),,https://osf.io/download/fcd46/,:complete_cases,cid:6140|cid:6115|cid:6172|cid:6107|cid:6278|cid:6178|cid:6005|cid:6008|cid:6254|cid:6229|cid:6104|cid:6144|cid:6092|cid:6003|cid:6057|cid:6235|cid:6099|cid:6134|cid:6106|cid:6011|cid:6073|cid:6117|cid:6179|cid:6007|cid:6131|cid:6162|cid:6279|cid:6187|cid:6165|cid:6200|cid:6048|cid:6230|cid:6219|cid:6126|cid:6060|cid:6129|cid:6251|cid:6222|cid:6019|cid:6174|cid:6250|cid:6047,,"","",obo:CL_0000738,obo:UBERON_0000006,"",,,,"",,,,"",,,,,,,,,,
