uri,classes,id,label,desc,dataGrade,parent,caseLinkage,cases,casePool,unit,unitLabel,cellTissue,cellTissueContext,bioProcesses,cellComponents,molecularFns,otherfactors,sd,sem,iqr,ci,methods,combinableWiths,potentiallyCombinables,derivedFroms,hasDerivatives,UP,GeneID,authorNote,curatorNote,tag,seeAlso
https://osf.io/kmrzg#col=1,:individual_level_datum|:caseID|owl:NamedIndividual|:nPOD_Feature,ID,Case ID,Case ID,,https://osf.io/download/ra98t/,:complete_cases,cid:6214|cid:6125|cid:6047|cid:6178|cid:6182|cid:6129|cid:6044|cid:6156|cid:6131|cid:6151|cid:6184|cid:6160|cid:6187|cid:6168|cid:6217|cid:6117|cid:6137|cid:6060|cid:6268|cid:6126|cid:6099|cid:6165|cid:6027|cid:6201|cid:6112|cid:6103|cid:6030|cid:6209|cid:6140|cid:6057|cid:6158|cid:6154|cid:6101|cid:6210|cid:6228|cid:6174|cid:6098|cid:6115|cid:6063|cid:6197|cid:6170|cid:6147|cid:6172|cid:6113|cid:6106|cid:6102|cid:6122|cid:6075|cid:6095|cid:6058|cid:6091|cid:6219|cid:6048|cid:6104|cid:6052|cid:6183|cid:6107|cid:6029|cid:6171|cid:6134|cid:6130|cid:6055|cid:6181|cid:6162|cid:6094|cid:6247|cid:6190|cid:6034|cid:6144|cid:6096|cid:6092,,"","","","",,,,,,,,,"",,,,,,,,,,
https://osf.io/kmrzg#col=2,:individual_level_datum|obo:IAO_0000032|owl:NamedIndividual|:nPOD_Feature,beta.mass,beta cell mass (g),Beta cell mass computationally derived from stained images of pancreas,,https://osf.io/download/ra98t/,:complete_cases,cid:6214|cid:6125|cid:6047|cid:6178|cid:6182|cid:6129|cid:6044|cid:6156|cid:6131|cid:6151|cid:6184|cid:6160|cid:6187|cid:6168|cid:6217|cid:6117|cid:6137|cid:6060|cid:6268|cid:6126|cid:6099|cid:6165|cid:6027|cid:6201|cid:6112|cid:6103|cid:6030|cid:6209|cid:6140|cid:6057|cid:6158|cid:6154|cid:6101|cid:6210|cid:6228|cid:6174|cid:6098|cid:6115|cid:6063|cid:6197|cid:6170|cid:6147|cid:6172|cid:6113|cid:6106|cid:6102|cid:6122|cid:6075|cid:6095|cid:6058|cid:6091|cid:6219|cid:6048|cid:6104|cid:6052|cid:6183|cid:6107|cid:6029|cid:6171|cid:6134|cid:6130|cid:6055|cid:6181|cid:6162|cid:6094|cid:6247|cid:6190|cid:6034|cid:6144|cid:6096|cid:6092,,obo:UO_0000021,g,obo:CL_0000169,obo:UBERON_0001264,,,,,,,,,https://hypothes.is/a/kcBmuJbAEeqPtNvvmpKRlw,,,,,,,,,,
