uri,classes,id,label,desc,dataGrade,parent,caseLinkage,cases,casePool,unit,unitLabel,cellTissue,cellTissueContext,bioProcesses,cellComponents,molecularFns,otherfactors,sd,sem,iqr,ci,methods,combinableWiths,potentiallyCombinables,derivedFroms,hasDerivatives,UP,GeneID,authorNote,curatorNote,tag,seeAlso
https://osf.io/mnbry#col=1,:nPOD_Feature|:caseID|owl:NamedIndividual|:individual_level_datum,ID,Case ID,Case ID,,https://osf.io/download/a2rej/,:complete_cases,cid:6051|cid:6030|cid:6055|cid:6162|cid:6088|cid:6180|cid:6069|cid:6081|cid:6174|cid:6099|cid:6084,,"","","","",,,,,,,,,"",,,,,,,,,,
https://osf.io/mnbry#col=2,:nPOD_Feature|owl:NamedIndividual|:individual_level_datum|obo:IAO_0000032,MMC.prct,Mmcs of total cells (%),Frequency of maternal microchimeric (MMc) cells as percent of cells assessed in pancreas,,https://osf.io/download/a2rej/,:complete_cases,cid:6051|cid:6030|cid:6055|cid:6162|cid:6088|cid:6180|cid:6069|cid:6081|cid:6174|cid:6099|cid:6084,,obo:UO_0000187,%,obo:UBERON_0001264,obo:UBERON_0001264,,,,,,,,,https://hypothes.is/a/RmM7Cpa7EeqZLdNJwnsTxQ,,,,,,,,,,
https://osf.io/mnbry#col=3,:nPOD_Feature|owl:NamedIndividual|:individual_level_datum|obo:IAO_0000032,InsPos.MMC.prct,Ins+ MMcs of total cells (%),Frequency of maternal microchimeric (MMc) cells in the beta cell population,,https://osf.io/download/a2rej/,:complete_cases,cid:6051|cid:6030|cid:6055|cid:6162|cid:6088|cid:6180|cid:6069|cid:6081|cid:6174|cid:6099|cid:6084,,obo:UO_0000187,%,obo:UBERON_0001264,obo:UBERON_0001264,,,,,,,,,https://hypothes.is/a/RmM7Cpa7EeqZLdNJwnsTxQ,,,,,,,,,,
https://osf.io/mnbry#col=4,:nPOD_Feature|owl:NamedIndividual|:individual_level_datum|obo:IAO_0000032,Anue.Polyploidy.prct,Aneuploidy or polyploidy cells (%),Frequency of cells with aneuploidy/polyploidy as percent of cells assessed in pancreas,,https://osf.io/download/a2rej/,:complete_cases,cid:6051|cid:6030|cid:6055|cid:6162|cid:6088|cid:6180|cid:6069|cid:6081|cid:6174|cid:6099|cid:6084,,obo:UO_0000187,%,obo:UBERON_0001264,obo:UBERON_0001264,,,,,,,,,https://hypothes.is/a/RmM7Cpa7EeqZLdNJwnsTxQ,,,,,,,,,,
