ID	Race	A.1	B.1	DRB1.1	DQB1.1	A.2	B.2	DRB1.2	DQB1.2
6401	Hispanic/Latino	33:03	14:02	07:01	02:02	31:01	51:01	13:01	06:03
6402	Caucasian	02:01	57:01	03:01	02:01	02:01	13:02	04:01	03:02
6404	Hispanic/Latino	01:01	08:01	03:01	02:01	01:01	08:01	03:01	02:01
6405	Hispanic/Latino	30:02	18:01	03:01	02:01	31:01	40:02	04:07	03:02
6406	Caucasian	02:01	44:03	07:01	02:01	11:01	51:08	03:01	02:02
6407	Caucasian	01:01	44:03	13:01	06:03	02:01	07:02	15:01	06:02
6408	Caucasian	03:01	18:01	04:50	03:02	01:01	58:01	07:01	02:02
6409	Asian	29:01	07:05	10:01	05:01	11:01	18:01	12:02	03:01
6410	Caucasian	11:01	15:01	04:01	03:02	01:01	35:02	11:04	03:01
6411	Caucasian	23:01	44:03	04:01	03:01	25:01	40:02	11:01	03:01
6412	Caucasian	01:01	57:01	07:01	03:03	02:01	57:01	07:01	03:03
6413	Caucasian	02:01	51:01	01:01	05:01	01:01	08:01	03:01	02:01
6415	African Am	23:01	53:01	07:01	02:01	33:03	44:10	03:01	02:02
6416	Caucasian	01:01	37:01	04:01	03:02	11:01	07:02	15:01	06:02
6417	Caucasian	25:01	18:01	15:01	06:02	31:01	40:01	15:01	06:02
6418	Caucasian	02:01	15:01	04:01	03:02	32:01	51:01	11:03	03:01
6420	Caucasian	03:01	07:02	01:01	05:01	02:01	41:02	11:04	03:01
6421	Hispanic/Latino	02:01	15:01	01:01	05:01	03:01	27:05	01:01	05:01
6422	Caucasian	01:01	18:01	03:01	02:01	02:01	15:01	04:01	03:02
6423	Hispanic/Latino	31:01	51:01	01:01	05:01	68:03	39:05	04:07	03:02
6424	Caucasian	30:01	08:01	03:01	02:01	68:01	35:03	04:01	03:02
6425	Caucasian	01:01	08:01	03:01	02:01	02:01	44:02	15:01	06:02
6427	Caucasian	29:02	35:02	07:01	02:02	32:01	57:01	07:01	02:02
6428	African Am	02:06	40:02	08:02	04:02	31:01	15:01	16:02	03:01
6429	African Am	02:01	44:02	01:03	05:01	01:01	81:01	03:01	02:01
6430	Caucasian	26:01	38:01	13:02	06:04	01:01	08:09	14:01	05:03
6431	Caucasian	33:03	50:01	01:01	05:01	24:02	39:06	08:01	04:02
6432	African Am	03:01	07:02	01:01	05:01	03:01	15:01	04:01	03:02
6433	Hispanic/Latino	68:01	45:01	04:05	03:02	30:02	08:01	12:01	03:01
6434	Caucasian	02:05	49:01	01:02	05:01	33:03	57:01	04:02	03:02
6435	African Am	23:01	14:02	03:01	02:01	02:01	81:01	11:01	02:02
6436	Caucasian	29:02	45:01	04:01	03:02	24:02	39:06	13:01	06:03
6437	Caucasian	01:01	08:01	03:01	02:01	23:01	18:01	11:04	03:01
6438	Caucasian	02:01	08:01	03:01	02:01	11:01	45:01	07:01	02:02
6439	African Am	02:01	35:01	03:02	04:02	02:01	35:01	08:04	03:19
6440	Caucasian	33:01	14:02	01:02	05:01	02:01	15:01	13:01	06:03
6441	Caucasian	01:01	08:01	03:01	02:01	01:01	57:01	04:04	03:02
6442	Caucasian	03:01	07:02	03:01	02:01	02:06	44:02	13:01	06:03
6443	Caucasian	26:01	35:01	01:01	05:01	03:01	07:02	04:01	03:01
6444	Hispanic/Latino	02:06	35:12	08:02	04:02	24:02	18:01	15:01	06:02
6445	Caucasian	26:01	38:01	11:01	03:01	30:01	51:01	11:01	03:01
6447	Caucasian	02:01	18:01	11:04	03:01	26:01	38:01	13:02	06:04
6448	Caucasian	24:02	55:01	01:01	05:01	24:03	49:01	14:01	05:03
6449	Caucasian	24:02	39:01	01:01	05:01	01:01	57:01	01:01	05:01
6450	Caucasian	01:01	08:01	03:01	02:01	33:01	14:02	03:01	02:01
6452	Caucasian	03:01	14:02	04:04	03:02	26:01	57:01	11:03	03:01
6453	Hispanic/Latino	33:03	18:01	07:01	03:03	02:05	58:01	11:01	06:02
6455	Caucasian	02:01	07:02	04:04	03:02	03:01	07:02	15:01	06:02
6456	African Am	02:01	14:01	04:05	03:02	23:01	82:01	13:01	06:03
6457	Caucasian	01:01	08:01	03:01	02:01	24:02	07:02	04:03	03:02
6458	African Am	01:01	08:01	03:01	02:01	68:02	15:03	13:01	06:04
6459	Caucasian	01:01	08:01	03:01	02:01	03:01	07:02	04:04	03:02
6460	Caucasian	02:01	27:05	01:03	03:01	02:01	07:02	13:02	06:04
6461	Caucasian	03:01	51:01	04:01	03:02	02:01	18:01	11:04	03:01
6462	Caucasian	02:01	40:01	01:01	05:01	25:01	18:01	15:01	06:02
6463	Caucasian	02:01	15:01	03:01	02:01	24:02	55:01	16:01	05:02
6464	Hispanic/Latino	23:01	07:05	04:05	03:02	02:01	45:01	12:01	03:01
6465	African Am	02:01	35:01	11:01	03:01	01:02	58:01	13:04	03:19
6466	Caucasian	02:01	15:01	04:01	03:02	31:01	15:18	04:01	03:02
6467	Caucasian	68:01	40:01	08:01	04:02	31:01	39:01	14:01	05:03
6468	Caucasian	23:01	07:02	08:01	04:02	24:02	15:01	13:01	06:03
6469	Caucasian	24:02	15:18	04:01	03:02	30:01	49:01	04:03	03:02
6470	Caucasian	01:01	44:03	07:01	02:02	01:01	57:01	07:01	02:02
6471	African Am	30:01	42:01	13:02	06:04	11:01	07:02	15:03	06:02
6473	African Am	23:01	15:10	03:01	02:01	02:05	49:01	04:05	03:02
6474	African Am	30:02	07:02	12:02	06:02	03:01	07:02	08:04	03:19
6475	Hispanic/Latino	24:02	50:02	03:01	02:01	02:01	48:01	08:02	04:02
6476	African Am	02:02	81:01	03:02	04:02	02:01	44:10	13:02	06:09
6477	African Am	29:02	13:02	01:01	05:01	02:01	07:02	01:03	05:01
6478	African Am	01:01	08:01	03:01	02:01	36:01	53:01	11:01	06:02
6479	Hispanic/Latino	01:01	50:01	04:04	03:02	32:01	15:01	13:01	06:03
6480	Caucasian	03:01	07:02	01:01	05:01	11:01	40:01	04:01	03:08
6481	Caucasian	02:01	44:02	13:01	06:03	68:01	44:02	15:01	06:02
6482	Caucasian	11:01	50:01	03:01	02:01	03:01	38:01	13:01	06:03
6483	Caucasian	01:01	08:01	03:01	02:01	03:01	27:05	07:01	02:02
6484	African Am	24:02	39:01	04:07	03:02	26:01	08:01	13:04	03:19
6485	Caucasian	33:01	14:02	01:02	05:01	02:01	44:02	04:01	03:02
6486	Caucasian	01:01	49:01	13:01	06:03	29:01	07:05	14:01	05:03
6487	African Am	30:01	42:02	07:01	03:02	68:02	81:01	16:02	05:02
6488	Caucasian	02:01	15:01	11:03	03:01	03:01	47:01	13:01	06:03
6489	Hispanic/Latino	02:01	41:01	03:01	02:01	24:02	40:05	04:04	03:02
6490	Caucasian	02:01	07:02	03:01	02:01	24:02	40:02	11:01	03:01
6491	Hispanic/Latino	32:01	40:01	13:01	06:03	30:01	57:01	15:02	06:01
6492	Hispanic/Latino	31:01	52:01	14:06	03:01	68:01	40:02	14:02	03:04
6493	Caucasian	01:01	08:01	03:01	02:01	29:02	44:03	07:01	02:02
6494	African Am	23:01	45:01	12:01	03:01	23:01	15:03	13:02	05:01
6495	Caucasian	24:02	18:01	03:01	02:01	02:01	40:01	04:08	03:01
6496	African Am	24:02	45:01	15:03	06:02	02:02	44:03	16:02	05:02
6497	Hispanic/Latino	31:01	15:01	04:07	03:02	02:01	45:01	11:01	06:02
6498	Caucasian	31:01	40:01	04:04	03:02	68:01	44:02	13:01	06:03
6499	Caucasian	02:01	07:02	04:01	03:01	68:01	44:02	13:02	06:04
6500	African Am	29:02	42:01	03:02	04:02	68:01	44:02	11:01	03:01
6501	Caucasian	68:01	50:01	07:01	02:02	02:01	40:01	15:01	06:02
6502	American Indian/Alaska Native	24:02	81:01	11:02	03:01	34:02	82:01	14:01	05:03
6503	African Am	23:01	07:02	11:01	06:02	30:02	58:01	11:02	03:19
6504	Hispanic/Latino	03:01	07:02	04:04	03:02	66:02	07:02	04:05	03:02
6505	Hispanic/Latino	02:01	44:02	04:02	03:02	03:01	35:01	07:01	02:02
6506	Caucasian	02:01	15:01	04:01	03:02	02:06	51:01	08:02	04:02
6508	Caucasian	68:01	40:01	01:01	05:01	26:01	51:01	14:01	05:03
6509	Caucasian	11:01	35:01	01:01	05:01	11:01	15:01	13:01	06:03
