ID	sex	race	cause.death.cat	age	height	weight	BMI	ABO.grp	donor.type
1000	Male	Caucasian	head trauma	11.98	145	52.2	24.8	A+	Pending
1001				NA	NA	NA	NA		
102				NA	NA	NA	NA		CMA
104				NA	NA	NA	NA		
1338	Male	Asian	DKA, cerebral edema	14	NA	NA	NA		Fulminant
3005	Female	Caucasian	multi system organ failure	49	160	63.5	24.8		Transplant
5000	Female	Caucasian	anoxia	18.76	163	66.5	25	A+	T1D
503	Male	Hispanic/Latino		47	NA	NA	24.7		Autoab Pos
6001	Male	Caucasian	head trauma	22	185	75	21.9	O+	No diabetes
6002	Male	Caucasian	head trauma	39	177.8	75	23.7	O+	Autoab Pos
6003	Female	Caucasian	head trauma	23	160	75	29.3	O+	No diabetes
6004	Male	Caucasian	head trauma	33	NA	NA	30.9	O+	No diabetes
6005	Female	Caucasian	cerebrovascular/stroke	5	104	16.8	15.7	A-	No diabetes
6006	Male	Caucasian		62	NA	NA	NA		Other-No Diabetes
6007	Male	African Am	anoxia	9	143	41	20	O+	No diabetes
6008	Female	Caucasian	head trauma	50	160	62	24.2	O+	No diabetes
6009	Male	Caucasian	anoxia	45	178	97	30.6	A-	No diabetes
6010	Female	Caucasian	cerebrovascular/stroke	47	170	56.8	19.7	A-	No diabetes
6011	Female	African Am	cerebrovascular/stroke	46	163	70	26.3	O+	No diabetes
6012	Female	Caucasian	cerebrovascular/stroke	68	168	67	23.7	O+	No diabetes
6013	Male	Caucasian	cerebrovascular/stroke	65	193	90	24.2	A+	No diabetes
6014	Male	Caucasian	anoxia	2	88	16	20.7	O+	No diabetes
6015	Female	Caucasian	anoxia	39	178	102	32.2	A+	No diabetes
6016	Female	Caucasian	cerebrovascular/stroke	64	168	88	31.2	A+	No diabetes
6017	Female	Caucasian	cerebrovascular/stroke	59	162.6	68	24.8	A+	No diabetes
6018	Male	African Am	hyperglycemia	18	NA	NA	NA		Other-No Diabetes
6019	Male	Caucasian	head trauma	42	175	95	31	O-	No diabetes
6020	Male	Caucasian	cerebrovascular/stroke	60	185	102	29.8	A+	No diabetes
6021	Female	Hispanic/Latino	cerebrovascular/stroke	72	163	65	24.5	O+	No diabetes
6022	Male	Caucasian	cerebrovascular/stroke	75	188	108	30.6	A+	No diabetes
6023	Male	Caucasian	head trauma	66	182.9	114	34	A+	Autoab Pos
6024	Male	Caucasian	head trauma	21	185	95	27.8	A+	No diabetes
6025	Male	Caucasian	anoxia	23.8	170.2	79	26.6	O+	T1D
6026	Male	Caucasian	head trauma	22.4	167.6	68	24.1	A+	T1D
6027	Male	Caucasian		18.8	177.8	63	19.9	A+	Autoab Pos
6028	Male	African Am	head trauma	33.2	180.3	97.7	30.2	O+	T2D
6029	Female	Hispanic/Latino	cerebrovascular/stroke	24	163	60	22.6	O+	No diabetes
6030	Male	Caucasian	head trauma	30.1	177.8	86	27.1	O+	No diabetes
6031	Male	Caucasian	cerebrovascular/stroke	39	182.9	82	24.5	A+	T1D
6032	Male	Caucasian	anoxia	33.8	190.5	106.1	29.4	O+	T1D
6033	Male	Caucasian	cerebrovascular/stroke	40.6	172.7	72	24.1	B+	Monogenic Diabetes
6034	Female	Caucasian	head trauma	32	157.5	62	25.2	A+	No diabetes
6035	Male	Caucasian	cerebrovascular/stroke	32.1	177.8	86	27.1	O+	T1D
6036	Female	African Am	anoxia	49.2	152.4	59	25.5	A+	T1D
6037	Male	Caucasian	cerebrovascular/stroke	76.3	182.9	90.4	25.5	O+	T2D
6038	Female	Caucasian	anoxia	37.2	165.1	83.9	30.9	A+	T1D
6039	Female	Caucasian	head trauma	28.7	177.8	74	23.4		T1D
6040	Female	Caucasian	cerebrovascular/stroke	50	165.1	85.6	31.6	AB+	T1D
6041	Male	Caucasian	cerebrovascular/stroke	26.3	175.3	87	28.4	O+	T1D
6042	Female	Caucasian		60	177.8	74	23.4		T1D Medalist
6043	Male	Caucasian	cerebral edema	26.7	180.4	148	45.7	B+	Other-Diabetes
6044	Male	Hispanic/Latino	head trauma	41.4	172.7	82	27.4		Autoab Pos
6045	Male	Caucasian	head trauma	26.4	193	86	23.1	A+	T1D
6046	Female	Caucasian	anoxia	18.8	157.5	63	25.2	A+	T1D
6047	Male	Caucasian	anoxia	7.8	111.8	30	23.9	O-	No diabetes
6048	Male	Caucasian	cerebrovascular/stroke	30	165.1	56	20.6	O-	No diabetes
6049	Female	African Am	anoxia	15	157.5	52	20.8	B+	T1D
6050	Male	Caucasian		82	NA	NA	NA		T1D Medalist
6051	Male	Caucasian	head trauma	20.3	177.8	68	21.5	B+	T1D
6052	Male	African Am	cerebral edema	12	165.1	56	20.3	O-	T1D
6053	Male	Caucasian	head trauma	18	167.6	59	21.2	O+	No diabetes
6054	Female	Caucasian	cerebrovascular/stroke	35.1	157.5	75	30.4	A+	T1D
6055	Male	Caucasian	anoxia	27	182.9	76	22.7	B-	No diabetes
6056	Male	Caucasian	multi system organ failure	93	180.3	60	19.5		T1D Medalist
6057	Male	Caucasian	head trauma	22	188	92	26	O+	No diabetes
6058	Male	Hispanic/Latino	head trauma	27	165.1	52	19.1	O+	No diabetes
6059	Female	Hispanic/Latino	anoxia	18.8	162.6	104	39.3	B+	T2D
6060	Male	Caucasian	head trauma	24	175.3	100	32.7	A+	No diabetes
6061	Male	Caucasian	cerebrovascular/stroke	28.1	172.7	66	22.1	A+	T1D
6062	Male	African Am	DKA, cerebral edema	10.7	148	48	21.9	B+	T1D
6063	Male	Caucasian	anoxia	4.4	82	16	23.8	A-	T1D
6064	Female	Caucasian	anoxia	19.6	162.6	59	22.6	A+	T1D
6065	Female	Caucasian		79	167.6	79	29		T1D Medalist
6066	Male	Caucasian		78	172.7	92	30.9		T1D Medalist
6067	Female	Hispanic/Latino	anoxia	32.6	147.3	58	26.8	O+	T1D
6068	Female	Caucasian	pre-existing condition	72	157.5	54	21.9		T1D Medalist
6069	Male	African Am	head trauma	22.9	190.5	104	28.8	B+	T1D
6070	Female	Caucasian	anoxia	22.6	167.6	61	21.6	A+	T1D
6071	Female	Caucasian	pre-existing condition	28	165.1	58	19.5		T1D
6072	Female	Caucasian	anoxia	1.2	88	11	14.2		No diabetes
6073	Male	Caucasian	anoxia	19.2	165.1	98	36	O+	No diabetes
6074	Female	Caucasian	anoxia	73	160	91	19.5		T1D Medalist
6075	Male	African Am	anoxia	16	142	30	14.9	B+	No diabetes
6076	Male	Caucasian	anoxia	25.8	190.5	68	18.8	O+	T1D
6077	Female	Caucasian	anoxia	32.9	165.1	60	22	A+	T1D
6078	Male	Caucasian	pre-existing condition	59	180.3	70	21.6		T1D Medalist
6079	Female	Caucasian	anoxia	11.1	152.4	43	18.6	O+	T1D
6080	Female	Caucasian	cerebrovascular/stroke	69.2	149.9	48	21.3	A+	Autoab Pos
6081	Male	Hispanic/Latino	cerebrovascular/stroke	31.4	167.6	78	28	A+	T1D
6082	Female	Caucasian	cerebrovascular/stroke	33.2	160	88	34.4	O+	Gestational diabetes
6083	Female	Caucasian	DKA, cerebral edema	15.2	165.1	50	18.4	A+	T1D
6084	Male	Caucasian	anoxia	14.2	151	60	26.3	A+	T1D
6085	Male	Caucasian	pre-existing condition	89	182.9	68	20.3		T1D Medalist
6086	Female	American Indian/Alaska Native	fallopian tube cancer	71	157.5	57	23.6		T1D Medalist
6087	Male	Caucasian	head trauma	17.5	180	71	21.9	O	T1D
6088	Male	Caucasian	head trauma	31.2	170.2	78	27	O+	T1D
6089	Male	Caucasian	anoxia	14.3	162.6	69	26	B+	T1D
6090	Male	Hispanic/Latino	head trauma	2.2	95	17	18.8	O+	Autoab Pos
6091	Male	Caucasian	head trauma	27.1	175.3	108	35.6	O+	No diabetes
6092	Female	African Am	anoxia	0.5	66	6	13.8	B+	No diabetes
6093	Male	Caucasian	respiratory distress/failure	81	177.8	77.6	24.5		T1D Medalist
6094	Male	African Am	anoxia	2.9	94.5	14	15.8	O+	No diabetes
6095	Male	Hispanic/Latino	spinal cord injury	40	165.1	97	35.5	O+	No diabetes
6096	Female	African Am	head trauma	16	162.6	50	18.8	B+	No diabetes
6097	Female	Caucasian	cerebrovascular/stroke	43.1	165	99	36.4	A-	No diabetes
6098	Male	Caucasian	head trauma	17.8	180.3	74	22.8	A2-	No diabetes
6099	Male	Caucasian	head trauma	14.2	175.3	92	30	AB+	No diabetes
6100	Male	Caucasian		79	167.6	62	22.3		T1D Medalist
6101	Male	Caucasian	cerebrovascular/stroke	64.8	190.5	124	34.3	A+	Autoab Pos
6102	Female	Caucasian	cerebrovascular/stroke	45.1	167.6	99	35.1	A+	No diabetes
6103	Male	Caucasian	anoxia	1.5	68.6	8	16.8	O+	No diabetes
6104	Male	Caucasian	anoxia	41	190.5	74	20.5	O+	No diabetes
6105	Female	Caucasian	cystic fibrosis	31.1	154.9	49	20.4	A+	Cystic fibrosis
6106	Male	Caucasian	anoxia	2.9	94	15.4	17.4	A+	No diabetes
6107	Male	African Am	anoxia	2.2	96.5	15	15.9	O+	No diabetes
6108	Male	Asian	cerebrovascular/stroke	57.9	170.2	88	30.4	O+	T2D
6109	Female	Hispanic/Latino	cerebrovascular/stroke	48.8	152.4	75	32.5	O+	T2D
6110	Female	African Am	cerebrovascular/stroke	20.7	165.1	108	40	O+	T2D
6111	Female	Hispanic/Latino	head trauma	32	151.9	55	23.8	O+	Other-No Diabetes
6112	Female	Hispanic/Latino	head trauma	6.3	119.4	26	18.4	O+	No diabetes
6113	Female	Caucasian	head trauma	13.1	139.7	48.5	24.8	B+	T1D
6114	Male	Caucasian	anoxia	42.8	175.3	95	31	A1+	T2D
6115	Male	Caucasian	anoxia	0.42	64	7	17.1	A1-	No diabetes
6116	Female	Hispanic/Latino	alobar holoprosencephaly, obstructive hydrocephalus	0.17	45.7	5	23.6	A+	Autoab Pos
6117	Male	Caucasian	head trauma	0.33	66	8.5	18.4	B-	No diabetes
6118	Female	Hispanic/Latino	cerebrovascular/stroke	15.5	175.3	89	30.4	O+	Other-No Diabetes
6119	Male	Caucasian	anoxia	27.8	163	51	19.4	A2+	T1D
6120	Female	Caucasian	renal disease	0	48.3	3	NA	A+	No diabetes
6121	Female	Caucasian	anoxia	33.9	170.2	52	18	O+	T1D
6122	Female	Multiracial	head trauma	0.42	68	6.4	13.8	O+	No diabetes
6123	Female	Caucasian	head trauma	23.2	160	45	17.6	O+	Autoab Pos
6124	Male	Caucasian	cerebrovascular/stroke	62.3	167.6	95	33.7	O+	T2D
6125	Male	Caucasian	meningitis	0.42	66	8	18.9	A1+	No diabetes
6126	Male	Hispanic/Latino	head trauma	25.2	175.3	77	25.1	O+	No diabetes
6127	Female	Caucasian	cerebrovascular/stroke	44.8	172.7	91	30.4	O+	T2D
6128	Female	Caucasian	cerebrovascular/stroke	33.8	147.3	48	22.2	O-	T1D
6129	Female	Caucasian	anoxia	42.9	152.4	54	23.4	O-	No diabetes
6130	Male	Caucasian	head trauma	5.2	114.3	24	18.5	A+	No diabetes
6131	Male	Caucasian	anoxia	24.2	182.9	83	24.8	B+	No diabetes
6132	Female	Hispanic/Latino	anoxia	55.8	157.5	110	44.6	O+	T2D
6133	Female	Caucasian	anoxia	45.8	157	99.6	40.2	O-	T2D
6134	Male	Caucasian	anoxia	26.7	180.3	65	20.1	O+	No diabetes
6135	Male	Caucasian	anoxia	43.5	167.6	81	28.7	A-	T1D
6136	Female	Caucasian	anoxia	29.3	162.6	60	22.6	A+	Cystic fibrosis
6137	Female	Hispanic/Latino	cerebrovascular/stroke	8.9	152.4	56	24.2	O+	No diabetes
6138	Female	Caucasian	anoxia	49.2	167.6	95	33.7	O+	T1D
6139	Female	Hispanic/Latino	anoxia	37.2	154.9	109	45.4	AB+	T2D
6140	Male	Caucasian	cerebrovascular/stroke	38	170.2	59	21.7	A+	No diabetes
6141	Male	Caucasian	cerebrovascular/stroke	36.7	182.9	87	26	A+	T1D
6142	Female	Hispanic/Latino	infectious disease - bacterial meningitis	29.8	160	88	34.4	A+	T2D
6143	Female	Caucasian	anoxia	32.6	175.3	80	26.1	A-	T1D
6144	Female	Hispanic/Latino	respiratory distress/failure	7.5	124.5	25	16.3	B+	No diabetes
6145	Male	Caucasian	head trauma	18	170.2	67	23.1	A+	T1D
6147	Female	Caucasian	head trauma	23.8	152.4	76	32.9	A+	Autoab Pos
6148	Male	Caucasian	anoxia	17.1	165.1	65	23.9	O+	T1D
6149	Female	African Am	cerebrovascular/stroke	39.3	170.2	84	29.1	A+	T2D
6150	Male	Caucasian	anoxia	41.2	167.6	72	25.5	A+	T1D
6151	Male	Caucasian	anoxia	30	182.9	81	24.2	A+	Autoab Pos
6152	Female	Caucasian	anoxia	29.6	167.6	85	30.1	O+	T1D
6153	Male	Hispanic/Latino	head trauma	15.2	167.6	58	20.5	O+	No diabetes
6154	Female	Caucasian	head trauma	48.5	162.6	65	24.5	O+	Autoab Pos
6155	Female	Caucasian	anoxia	50	162.6	68	26		T1D
6156	Male	Caucasian	head trauma	40	185.4	68	19.8	A+	Autoab Pos
6157	Female	African Am	cerebrovascular/stroke	74.2	162.6	105	39.5	A+	T2D
6158	Male	Caucasian	head trauma	40.3	172.7	89	29.7	B+	Autoab Pos
6159	Female	Caucasian	cerebrovascular/stroke	50.8	152.4	82	35.5	O+	T1D
6160	Male	Caucasian	head trauma	22.1	182.9	80	23.9	A+	No diabetes
6161	Female	Caucasian	cerebrovascular/stroke	19.2	167.6	102	36.1	O+	T1D
6162	Male	African Am	head trauma	22.7	188	102	28.9	B+	No diabetes
6163	Male	Caucasian	cerebrovascular/stroke	32.5	175.3	78	25.5	A+	T1D
6164	Male	Caucasian	anoxia	0	53.3	4.7	16.5	A+	No diabetes
6165	Female	Caucasian	cerebrovascular/stroke	45.8	165.1	68	25	O+	No diabetes
6166	Female	African Am	anoxia	26.5	167.6	58	20.5	O+	Monogenic Diabetes
6167	Male	Caucasian	head trauma	37	170.2	76	26.3	O+	Autoab Pos
6168	Male	Hispanic/Latino	cerebrovascular/stroke	51	170.2	73	25.2	O+	No diabetes
6169	Female	Hispanic/Latino	anoxia	27.6	165.1	68	25	O+	T1D
6170	Female	African Am	anoxia	34.5	175.3	113	36.9	O+	Autoab Pos
6171	Female	Caucasian	anoxia	4.4	106.7	17	14.8	A+	Autoab Pos
6172	Female	Caucasian	cerebrovascular/stroke	19.2	172.7	97	32.4	A+	No diabetes
6173	Male	Caucasian	anoxia	44.1	193	89	23.9	O-	T1D
6174	Male	Caucasian	cerebrovascular/stroke	20.9	196	75	19.5	O+	No diabetes
6175	Male	Caucasian	cerebrovascular/stroke	42	160	50.8	19.8	O-	T1D
6176	Male	Hispanic/Latino	anoxia	45.1	170.2	73	25.3	A+	Monogenic Diabetes
6177	Female	Hispanic/Latino	anoxia	33.5	172.72	79.4	26.6	A+	Gestational diabetes
6178	Female	Caucasian	anoxia	24.5	182	92	27.5	A+	No diabetes
6179	Female	Caucasian	head trauma	20	157.5	51	20.7	O-	No diabetes
6180	Male	Caucasian	head trauma	27.1	177.8	82	25.9	A+	T1D
6181	Male	Caucasian	head trauma	31.9	185.4	75	21.9	AB+	Autoab Pos
6182	Male	Caucasian	anoxia	2.7	83	18	26	O+	No diabetes
6183	Male	African Am	perinatal condition/birth defect	0.3	50.8	3.7	15.4	O-	No diabetes
6184	Female	Hispanic/Latino	head trauma	47.6	160	69	27	O+	Autoab Pos
6185	Male	African Am	anoxia	46	172.7	124	41.5	B+	T2D
6186	Male	Caucasian	cerebrovascular/stroke	68.4	182.9	70	20.9	A+	T2D
6187	Male	Caucasian	head trauma	0.4	63.5	6.7	17.1	O+	No diabetes
6188	Male	Hispanic/Latino	anoxia	36.1	180.3	99	30.6	A+	T2D
6189	Female	Caucasian	cerebrovascular/stroke	48.5	180.3	117	36.1	O+	T2D
6190	Male	Hispanic/Latino	perinatal condition/birth defect	0.83	84	9.7	14.2	A+	No diabetes
6191	Female	Caucasian	cerebrovascular/stroke	62.7	152.4	46	19.9	O+	T2D
6192	Female	Hispanic/Latino	perinatal condition/birth defect	0	NA	NA	NA		No diabetes
6193	Male	Caucasian	anoxia	26.9	177.8	72.6	24	A+	T1D
6194	Male	Caucasian	cerebrovascular/stroke	47.4	177.8	75.3	23.7	O-	T2D
6195	Male	Caucasian	head trauma	19.3	177.8	75	23.7	A+	T1D
6196	Female	African Am	anoxia	26.5	157	65.7	26.6	A+	T1D
6197	Male	African Am	head trauma	22	177.8	89	28.2	O+	Autoab Pos
6198	Female	Hispanic/Latino	cerebrovascular/stroke	22	165.1	63	23.1	A+	T1D
6199	Male	African Am	cerebrovascular/stroke	53	195.6	113.3	29.6	A+	T2D
6200	Female	Hispanic/Latino	pulmonary hypoplasia	0	41	2.2	14.5	O+	No diabetes
6201	Male	Caucasian	anoxia	0	40.6	2	11		No diabetes
6202	Male	Caucasian	renal disease	33	168	55.8	19.9		Cystic fibrosis
6203	Male	Caucasian	cerebrovascular/stroke	68.6	175.3	100	32.5	A+	T2D
6204	Male	Caucasian	anoxia	28	185.4	79	23	O+	T1D
6205	Female	Caucasian	anoxia	40.9	164	60.7	22.6	O+	T1D
6206	Male	Caucasian	cerebrovascular/stroke	59.8	173	126.4	42.2	A+	T2D
6207	Female	African Am	cerebrovascular/stroke	16.7	165.1	66.2	24.4	B+	T1D
6208	Female	Caucasian	anoxia	32.6	165.1	63.8	23.4	O+	T1D
6209	Female	Caucasian	DKA, cerebral edema	5	112	15	15.9		T1D
6210	Male	Caucasian	anoxia	0	45.7	2.8	14	A+	No diabetes
6211	Female	African Am	anoxia	24	175.3	74.8	24.4	O+	T1D
6212	Male	Caucasian	anoxia	20	175	89.2	29.1	A-	T1D
6213	Female	Caucasian	anoxia	24	160	101	39.4	A+	Other-No Diabetes
6214	Male	Caucasian	anoxia	0	50.8	2.3	8		No diabetes
6215	Male	Caucasian	anoxia	34	177.8	84	26.6	O+	T1D
6216	Male	Caucasian	anoxia	28	180.3	78	24	A+	Other-No Diabetes
6217	Male	Caucasian	anoxia	0.58	63.5	7.1	17.6	O+	No diabetes
6218	Female	African Am	anoxia	0.08	55	5.2	17.2	A+	No diabetes
6219	Male	Hispanic/Latino	head trauma	0.5	66	7.4	17	AB+	No diabetes
6220	Female	Caucasian	anoxia	35	165.1	74.7	27.4	AB-	T1D
6221	Female	Caucasian	cerebrovascular/stroke	61	165.1	92	33.7	O+	T2D
6222	Male	Caucasian	anoxia	0.17	62	6.3	16.4	O+	No diabetes
6223	Male	Caucasian	cerebrovascular/stroke	61	172.7	70	23.4	O+	T1D
6224	Female	Caucasian	anoxia	21	162.5	60.2	22.8	O-	T1D
6225	Male	Caucasian	cerebrovascular/stroke	21	180.3	76.8	23.7	AB+	Other-No Diabetes
6226	Female	Asian	cerebrovascular/stroke	38	154.9	65.3	27.2	O+	Pregnancy
6227	Female	Caucasian	cerebrovascular/stroke	17	167.6	74.6	26.4	AB+	No diabetes
6228	Male	Caucasian	anoxia	13	161	45	17.4	A-	T1D
6229	Female	Caucasian	head trauma	31	156	65.5	26.9	O+	No diabetes
6230	Male	Caucasian	head trauma	16	173	58.1	19.4	B+	No diabetes
6231	Female	Caucasian	cerebrovascular/stroke	49	154.9	61	25.4	O-	T1D
6232	Female	Caucasian	head trauma	14	155	50	20.8	A+	No diabetes
6233	Male	Caucasian	anoxia	14	175	67	21.9	A-	No diabetes
6234	Female	Caucasian	head trauma	20	162.6	67.6	25.6	A-	No diabetes
6235	Male	Caucasian	head trauma	30	172.7	76	25.4	O+	No diabetes
6236	Male	Caucasian	anoxia	25	185.4	69	20.1	A+	T1D
6237	Female	Caucasian	head trauma	18	170	75	26	O+	T1D
6238	Male	African Am	head trauma	20	185.4	74.3	21.7	A+	No diabetes
6239	Female	African Am	anoxia	35	170.2	147	50.9	A+	Gestational diabetes
6240	Female	Caucasian	other: cardiovascular	58	177.8	90.7	28.7	A-	T1D
6241	Male	Caucasian	cerebrovascular/stroke	33	185	63	18.4	O+	T1D
6242	Male	Caucasian	head trauma	39	182.9	65.3	19.5	O+	T1D
6243	Male	Caucasian	cerebrovascular/stroke	13	165.1	58.1	21.3	O+	T1D
6244	Male	Caucasian	head trauma	34	182.2	79.1	23.8	O-	T1D
6245	Male	Caucasian	head trauma	22	182.8	77.7	23.2	A+	T1D
6246	Female	African Am	cerebrovascular/stroke	41	167.6	59.6	21.1	A+	T1D
6247	Male	Caucasian	head trauma	24	182.8	81.2	24.3	A+	T1D
6248	Female	Caucasian	anoxia	29	167.6	114.8	40.6	A+	Gestational diabetes
6249	Female	Asian	cerebrovascular/stroke	45	152.4	75	32.3	O+	T2D
6250	Male	Caucasian	head trauma	40	180.3	90.7	27.9	O+	No diabetes
6251	Female	Caucasian	head trauma	33	154.9	70	29.5	A-	No diabetes
6252	Male	Caucasian	head trauma	20	175.3	116	37.8	A+	T2D
6253	Female	African Am	head trauma	19	157.5	85	34.3	O+	No diabetes
6254	Male	Caucasian	anoxia	38	167.6	86	30.5	AB+	No diabetes
6255	Male	Caucasian	cerebrovascular/stroke	55	177.8	93	29.4	O+	T2D
6257	Female	American Indian/Alaska Native	head trauma	19	165.1	125	45.9	A+	Pregnancy
6258	Female	Caucasian	head trauma	39	157.5	71.2	28.7	A+	T1D
6259	Male	Caucasian	cerebrovascular/stroke	57	190.5	117.9	32.3	B+	T2D
6261	Male	Caucasian	anoxia	16	175.3	63.5	20.7	B-	T1D
6262	Male	African Am	anoxia	44	157.5	53.1	21.5	A+	T1D
6263	Male	Hispanic/Latino	cerebrovascular/stroke	34	172	69.5	23.5	A+	T1D
6264	Female	Caucasian	DKA	12	124.5	34	22	A-	T1D
6265	Male	Caucasian	cerebrovascular/stroke	11	142.2	26	12.9	O+	T1D
6266	Male	Caucasian	anoxia	30	180.3	87.9	27.1	B+	T1D
6267	Female	Caucasian	anoxia	23	165.1	64	23.5	B+	Autoab Pos
6268	Female	Caucasian	anoxia	12	160	68	26.6	O	T1D
6269	Male	African Am	cerebrovascular/stroke	71	180.3	107	33	B+	T2D
6270	Female	Caucasian	anoxia	48	175	81.5	26.6	O+	Gastric Bypass
6271	Male	Caucasian	head trauma	17	177.8	77.1	24.4	A+	No diabetes
6272	Female	African Am	anoxia	57	172	87.5	29.6	B+	T2D
6273	Female	African Am	anoxia	45	162.6	104	39.1	B+	T2D
6274	Female	Caucasian		36	172.7	85.7	28.6	O-	Gastric Bypass
6275	Male	Hispanic/Latino	cerebrovascular/stroke	48	170.2	119.1	41	A+	T2D
6276	Female	Hispanic/Latino	anoxia	20	157.5	53	21.5	A+	Other-Diabetes
6277	Male	African Am	cerebrovascular/stroke	48	167.6	83	29.5	O	T2D
6278	Female	African Am	anoxia	12	157.5	52.4	21.3	A	No diabetes
6279	Male	Caucasian	head trauma	19	180.3	110.2	34	O+	No diabetes
6280	Male	African Am	cerebrovascular/stroke	47	180	91	28.1	B+	T2D
6281	Male	Caucasian	anoxia	37	188	131	37.1	A	T1D
6282	Male	Caucasian	head trauma	14	182.8	140	41.9	A+	No diabetes
6283	Female	Caucasian	cerebrovascular/stroke	56	168	79.4	28.1	O+	T2D
6284	Female	African Am	head trauma	24	172.7	81.6	27.3	B+	Other-Diabetes
6285	Female	Hispanic/Latino	head trauma	22	158	54.4	21.8	O+	T1D
6286	Female	Caucasian	anoxia	52	160	54	21.1	O+	Transplant
6287	Female	Caucasian	cerebrovascular/stroke	57	162.6	57.6	21.8	O+	Other-No Diabetes
6288	Male	Caucasian	head trauma	55	177.8	119.5	37.7	O+	No diabetes
6289	Male	African Am	head trauma	19	165	104.3	38.3	O+	No diabetes
6290	Male	Caucasian	cerebrovascular/stroke	58	194	84.9	22.5	O+	No diabetes
6291	Female	Caucasian	cerebrovascular/stroke	48	163	58	21.8	A+	Transplant
6292	Male	Caucasian	cerebrovascular/stroke	3	96.5	18	19.3	O+	No diabetes
6293	Female	Caucasian	anoxia	9	137.16	35	18.6	O-	No diabetes
6294	Male	American Indian/Alaska Native	anoxia	1.5	82	14	20.8	O+	No diabetes
6295	Female	African Am	cerebrovascular/stroke	47	165.1	83	30.4	O+	No diabetes
6296	Male	Hispanic/Latino	head trauma	20	167.6	90	32	O+	T1D
6297	Male	Caucasian	anoxia	60	182.9	98.5	29.5	A-	T2D
6298	Male	African Am	anoxia	29	177	76	24.3	O+	T1D
6299	Male	Caucasian	anoxia	32	180.3	103	31.8	O+	T1D
6300	Male	Hispanic/Latino	anoxia	67	167.6	66	23.5	O+	T2D
6301	Male	African Am	head trauma	26	188	113.4	32.1	A+	Autoab Pos
6302	Male	African Am	anoxia	38.5	168	58	20.5	O	T1D
6303	Male	Caucasian	head trauma	22	177.8	101	31.9	O+	Autoab Pos
6304	Female	Hispanic/Latino	cerebrovascular/stroke	52	173	113.4	37.9	O+	T2D
6305	Male	Caucasian	anoxia	0.25	55	6.3	20.8	O+	No diabetes
6306	Male	Caucasian	head trauma	19	177.8	77.6	24.5	O-	T1D
6307	Female	Caucasian	anoxia	45	175	59.8	19.5	O	T1D
6308	Female	Caucasian	cerebral infection	13	165.1	93	34.1	O+	T2D
6309	Male	African Am	head trauma	0.3	60	4	11.1	O+	No diabetes
6310	Female	Hispanic/Latino	anoxia	28	167.6	63	22.4	A+	Autoab Pos
6311	Male	African Am	head trauma	0.83	74.9	9	16	B+	No diabetes
6312	Male	Caucasian	anoxia	37	182.8	92	27.5	A-	Transplant
6313	Male	Caucasian	head trauma	0.25	55	4.7	15.5	A+	No diabetes
6314	Male	Caucasian	head trauma	21	175.2	73	23.8	O+	Autoab Pos
6315	Male	African Am	head trauma	1.6	86.4	11	14.7	O+	No diabetes
6316	Male	Caucasian	anoxia	6	119	26.1	18.4	A-	No diabetes
6317	Male	Caucasian	head trauma	15	170.1	86	29.8	O+	No diabetes
6318	Female	Caucasian	head trauma	10	137.1	33	17.6	B-	No diabetes
6319	Male	Caucasian	anoxia	52	172.7	76	25.5	O+	T1D
6320	Female	Caucasian	cerebrovascular/stroke	19	167	70	25.1	O+	Monogenic Diabetes
6321	Female	Caucasian	anoxia	27	165.1	55.3	20.3	B+	T1D
6322	Male	Caucasian	anoxia	22	178	75	23.6	O	T1D
6323	Female	Caucasian	anoxia	22	167.6	69.9	24.7	A+	T1D
6324	Male	Hispanic/Latino	anoxia	29	180.3	85	26.2	O+	T1D
6325	Female	African Am	anoxia	20	152.4	72.6	31.2	A+	T1D
6326	Female	Caucasian	cerebrovascular/stroke	63	165.1	65.4	24	O+	Other-Diabetes
6327	Male	Hispanic/Latino	cerebrovascular/stroke	71.2	165.1	63.5	23.2	B+	T1D
6328	Male	Hispanic/Latino	anoxia	39	177.8	76	24	O+	T1D
6329	Female	Hispanic/Latino	anoxia	49	165	99	36.4	O+	T2D
6330	Male	Caucasian	anoxia	22	182.88	75.75	22.6	O-	T1D
6331	Female	African Am	anoxia	27.1	162.5	63.5	24	O+	No diabetes
6332	Male	Caucasian	anoxia	47	162.5	48.8	18.4	A+	Transplant
6333	Female	Caucasian	anoxia	27.1	167.64	70	24.9	A+	No diabetes
6334	Male	African Am	anoxia	7.9	134	30	16.7	O+	No diabetes
6335	Male	Multiracial	head trauma	18.8	177.8	76.1	23.6	O+	No diabetes
6336	Female	Caucasian	head trauma	14.3	160	74	28.9	O+	No diabetes
6337	Female	Caucasian	cerebrovascular/stroke	20.6	157.5	44.4	17.9	O+	T1D
6338	Male	African Am	head trauma	16.9	175.3	70	22.8	A+	No diabetes
6339	Male	Caucasian	head trauma	23.3	188	88.2	25	A+	No diabetes
6340	Male	Caucasian	anoxia	9.7	152.4	47.1	20.3	O+	No diabetes
6341	Male	Caucasian	cerebrovascular/stroke	26	185.42	75	21.8	A	T1D
6342	Female	Caucasian	anoxia	14	160	62.3	24.3	O-	T1D
6343	Male	Caucasian	head trauma	2	92	15	17.7	B+	No diabetes
6344	Male	African Am	anoxia	3	99	18	18.4	O+	No diabetes
6345	Female	Caucasian	head trauma	36	165.1	71.8	26.4	O+	Other-Diabetes
6346	Female	Caucasian	perinatal condition/birth defect	0	46	2.1	9.9	O+	No diabetes
6347	Male	Caucasian	head trauma	8.5	132.1	34	19.5	A+	Autoab Pos
6348	Female	African Am	perinatal condition/birth defect	0.03	43	2.2	11.9		No diabetes
6349	Female	Hispanic/Latino	perinatal condition/birth defect	0	NA	NA	NA	A+	No diabetes
6350	Female	Hispanic/Latino	anoxia	3.3	93	11	12.7	O+	No diabetes
6351	Male	Hispanic/Latino	anoxia	0	49	3.24	13.5	O+	No diabetes
6353	Male	African Am	anoxia	13	155	68	28.3	A+	No diabetes
6354	Male	Hispanic/Latino	anoxia	8	132	27	15.5	A+	No diabetes
6355	Male	Caucasian	perinatal condition/birth defect	3.3	85	16	22.1		Other-Diabetes
6356	Female	Caucasian	head trauma	1.58	82	11.5	17.1	A+	No diabetes
6357	Male	Caucasian	head trauma	5	120	22	15.3	A+	No diabetes
6358	Male	African Am	cerebrovascular/stroke	13	174	58.2	19.2	O+	No diabetes
6359	Male	African Am	anoxia	3	101.6	18.5	17.9	A+	No diabetes
6360	Female	Caucasian	anoxia	4.8	91.4	21.9	26.1	A+	T1D
6361	Male	Caucasian	perinatal condition/birth defect	0	NA	2.48	NA		Other-No Diabetes
6362	Male	Caucasian	head trauma	24.9	178	90	28.5	A+	T1D
6363	Female	African Am	cerebrovascular/stroke	36.7	167.6	126.4	45	O+	Pregnancy
6364	Male	Hispanic/Latino	head trauma	4.6	93.98	15.9	18	O+	No diabetes
6365	Male	African Am	anoxia	13	172.72	107	35.8	O+	No diabetes
6366	Female	Hispanic/Latino	anoxia	21	157.48	50.8	20.5	O-	No diabetes
6367	Male	Caucasian	anoxia	24	183	86	25.7	O+	T1D
6368	Male	Caucasian	head trauma	38.3	170.2	60	20.7	O+	No diabetes
6369	Male	Caucasian	cerebrovascular/stroke	44	162.6	49.6	18.8	O+	No diabetes
6370	Male	Caucasian	perinatal condition/birth defect	0	49	2.66	11.4		No diabetes
6371	Female	Caucasian	cerebral edema	12.5	155	40	16.6	A+	T1D
6372	Male	African Am	head trauma	14.4	178	60	18.9	B+	No diabetes
6373	Male	Caucasian	head trauma	15.7	177.8	79	25	A	Other-No Diabetes
6374	Female	Caucasian	head trauma	14	162.5	50	18.9	O+	No diabetes
6375	Male	Caucasian	head trauma	28.7	178	100.9	31.8	O-	No diabetes
6376	Female	Caucasian	anoxia	0.6	60.96	7.2	19.4	O-	No diabetes
6377	Male	African Am	anoxia	9.2	138	31.6	16.6	A+	No diabetes
6378	Male	African Am	cerebrovascular/stroke	52.1	182	75	22.6	O+	Other-Diabetes
6379	Female	Asian	anoxia	18.7	152	57.5	24.9	B+	Other-No Diabetes
6380	Female	African Am	DKA, cerebral edema	11.6	145	30.8	14.6	O+	T1D
6381	Male	African Am	head trauma	6.6	117	31	22.6	O+	No diabetes
6382	Female	Caucasian	head trauma	4.7	107	19.7	17.2	A+	No diabetes
6383	Female	African Am	cerebrovascular/stroke	22.2	160	88	34.4	O+	Pregnancy
6384	Male	Caucasian	head trauma	17	177.8	57.6	18.2	A	No diabetes
6385	Male	Caucasian	head trauma	10.9	142.2	32.6	16.2	A+	No diabetes
6386	Male	Caucasian	head trauma	14	173	71.5	23.9	A+	No diabetes
6387	Male	Caucasian	anoxia	15.6	188	64.1	18.1	A-	No diabetes
6388	Female	Hispanic/Latino	anoxia	25.2	157.5	64.5	26	B+	Autoab Pos
6389	Male	Caucasian	head trauma	18.6	182.88	70	20.9	A	No diabetes
6390	Male	African Am	head trauma	23.2	183	64.9	19.4	A+	No diabetes
6391	Male	Caucasian	anoxia	10.98	144.8	40	19	O+	No diabetes
6392	Male	African Am	head trauma	14.1	163	62.8	23.6	A+	No diabetes
6393	Male	Hispanic/Latino	head trauma	18	160	69.4	27.1	O+	No diabetes
6394	Male	Caucasian	head trauma	15.5	160	47.2	18.4	AB+	No diabetes
6395	Male	Caucasian	head trauma	22.6	190	98.5	27.3	A+	Other-No Diabetes
6396	Female	Caucasian	DKA, cerebral edema	17.1	178	71.6	22.6	O-	T1D
6397	Female	Caucasian	head trauma	21.16	170.2	85.7	29.6	A	Autoab Pos
6398	Male	Caucasian	pulmonary hemorrhage	33.3	195.6	78	20.4	A	Cystic fibrosis
6399	Male	Caucasian	anoxia	17.42	188	112.9	32		T1D
6400	Male	Hispanic/Latino	head trauma	25.15	177.8	70.3	22.2	A+	Autoab Pos
6401	Female	Hispanic/Latino	head trauma	25.07	165	85.27	31.3	O+	No diabetes
6402	Female	Caucasian	perinatal condition/birth defect	0	NA	2.77	NA		No diabetes
6403	Male	Caucasian	anoxia	55.3	178	72	22.7	O	Transplant
6404	Female	Hispanic/Latino	anoxia	21.1	152	42	18.2	O+	Cystic fibrosis
6405	Female	Hispanic/Latino	cerebrovascular/stroke	29.1	160	108.8	42.5	O-	T1D
6406	Male	Caucasian	head trauma	6.9	121.9	25	16.8	O-	No diabetes
6407	Female	Caucasian	anoxia	4.6	109	19	16	O+	No diabetes
6408	Female	Caucasian	anoxia	0.94	NA	8	14.4	O+	Other-No Diabetes
6409	Male	Asian	anoxia	6.6	113	18.3	14.1	AB+	No diabetes
6410	Male	Caucasian	cerebrovascular/stroke	12.88	147	47	21.8	A1+	Other-No Diabetes
6411	Male	Caucasian	cerebral edema	6.54	101.6	20	19.4	A+	Other-No Diabetes
6412	Female	Caucasian	anoxia	17.58	175	73.4	24	O-	No diabetes
6413	Female	Caucasian	head trauma	10.1	145	40	19	O-	No diabetes
6414	Male	African Am	anoxia	23.1	185.42	97.5	28.4	O+	T1D
6415	Male	African Am	anoxia	10.9	137	27.7	14.8	B+	No diabetes
6416	Male	Caucasian	infectious disease - bacterial meningitis	12.08	152	75	32.5	A2+	No diabetes
6417	Female	Caucasian	head trauma	18.2	169	70	24.5	O	No diabetes
6418	Male	Caucasian	anoxia	24.86	157.48	65.1	26.4	B+	T1D
6419	Male	Caucasian	head trauma	57.95	178	87	27.5	A1+	Transplant
6420	Male	Caucasian	anoxia	11.5	135	28	15.4	B+	No diabetes
6421	Male	Hispanic/Latino	head trauma	6.73	117	24.5	17.9	A+	Autoab Pos
6422	Male	Caucasian	anoxia	22.8	174	76.1	25.1	A-	T1D
6423	Male	Hispanic/Latino	anoxia	16.34	178	108.8	34.3	O+	Other-No Diabetes
6424	Male	Caucasian	head trauma	17.65	185	176	51.4	O+	Autoab Pos
6425	Female	Caucasian	anoxia	38.66	160	72.57	28.3	A	No diabetes
6426	Male	Caucasian	anoxia	2.06	78.74	12.5	20.1	O+	No diabetes
6427	Male	Caucasian	head trauma	10.3	134.62	42.6	23.5	A+	No diabetes
6428	Male	African Am	anoxia	6.16	119.4	32	22.6	AB	No diabetes
6429	Male	African Am	head trauma	22.1	178	62.1	19.6	B+	Autoab Pos
6430	Male	Caucasian	anoxia	27.1	165.1	59	21.6	O+	No diabetes
6431	Male	Caucasian	anoxia	13.79	167.64	65	23.1	O+	No diabetes
6432	Female	African Am	hypoglycemia	16.56	157.48	60	24.2	A+	T1D
6433	Male	Hispanic/Latino	head trauma	23.96	172.72	92	30.8	A+	Autoab Pos
6434	Male	Caucasian	respiratory distress/failure	10.45	142	50	24.8	O+	No diabetes
6435	Female	African Am	anoxia	24.75	170.18	77.8	26.9	A1+	T1D
6436	Male	Caucasian	anoxia	26.33	190.5	110	30.3	B-	T1D
6437	Male	Caucasian	head trauma	24.73	170.18	70	24.2	A+	Autoab Pos
6438	Female	Caucasian	anoxia	39.01	170.18	101.36	35	O+	T1D
6439	Male	African Am	head trauma	26.96	175	89	29.1	B+	No diabetes
6440	Female	Caucasian	anoxia	15.73	168	58	20.5	A+	No diabetes
6441	Male	Caucasian	anoxia	29.17	185	56.5	16.5	O+	T1D
6442	Male	Caucasian	anoxia	28	193.04	86.3	23.2	A-	No diabetes
6443	Female	Caucasian	head trauma	16.1	157	85	34.5	A+	T1D
6444	Male	Hispanic/Latino	anoxia	43.4	173	85	28.4	O+	No diabetes
6445	Male	Caucasian	anoxia	17.25	180	66.7	20.6	B+	No diabetes
6446	Female	Caucasian	perinatal condition/birth defect	0	40.64	1.64	NA	A	No diabetes
6447	Male	Caucasian	head trauma	8	132.08	28.4	16.3	A+	No diabetes
6448	Female	Caucasian	anoxia	34.63	162.56	71.1	26.9	O-	No diabetes
6449	Male	Caucasian	head trauma	24	173	68.9	23	A	T1D
6450	Female	Caucasian	anoxia	22	162.56	66	24.4	O+	Autoab Pos
6451	Female	Caucasian	cerebrovascular/stroke	35	154.94	51.3	21.4	A+	Transplant
6452	Female	Caucasian	anoxia	20.58	147.3	37.2	17.1	O-	Cystic fibrosis
6453	Male	Hispanic/Latino	head trauma	23.44	170.18	66.9	23.1	O+	No diabetes
6454	Male	Caucasian	anoxia	25.16	182.88	88.9	26.6	A+	No diabetes
6455	Male	Caucasian	other: cardiovascular	6.76	116.84	17.69	13	A	No diabetes
6456	Female	African Am	head trauma	30.49	177.8	95.3	30.1	O+	T1D
6457	Female	Caucasian	anoxia	9.6	140	33	16.8	B+	T1D
6458	Female	African Am	anoxia	13	152.4	50	21.5	O+	T1D
6459	Female	Caucasian	anoxia	20.95	165	100	36.7	B-	T1D
6460	Female	Caucasian	anoxia	0	50	3.5	14	O+	No diabetes
6461	Male	Caucasian	head trauma	14.29	167.64	52	18.5	O+	No diabetes
6462	Female	Caucasian	anoxia	13.52	140	29.8	15.2	A+	No diabetes
6463	Male	Caucasian	other: infection	15.05	180.34	59	18.1	A+	T1D
6464	Male	Hispanic/Latino	cerebrovascular/stroke	37.69	170	77.73	26.9	O+	Transplant
6465	Male	African Am	anoxia	3.91	102	17.5	16.8	A+	No diabetes
6466	Male	Caucasian	DKA	18.26	NA	NA	20.2		T1D
6467	Male	Caucasian	anoxia	13.83	165	53.4	19.6	O+	No diabetes
6468	Male	Caucasian	anoxia	16.22	157.48	39.5	15.9	O+	No diabetes
6469	Female	Caucasian	anoxia	27.06	163	71.4	26.9	O+	T1D
6470	Male	Caucasian	anoxia	30	185.42	77.27	22.5	A-	No diabetes
6471	Male	African Am	head trauma	16.94	180.34	59.87	18.4	B+	No diabetes
6472	Female	Caucasian	DKA	10.25	147.32	36.1	16.6	O+	T1D
6473	Male	African Am	anoxia	13.21	152.4	41.5	17.9	O+	T1D
6474	Male	African Am	head trauma	21.12	182.88	97	29	O+	No diabetes
6475	Male	Hispanic/Latino	head trauma	26.82	170.18	66	22.8	O+	Transplant
6476	Female	African Am	anoxia	10.23	144.78	77	36.7	O+	No diabetes
6477	Female	African Am	anoxia	19.87	175.26	77.56	25.3	O+	T1D
6478	Female	African Am	anoxia	11.62	163	60	22.6	O+	Other-No Diabetes
6479	Female	Hispanic/Latino	anoxia	21.67	152.4	48.5	20.9	O+	No diabetes
6480	Male	Caucasian	DKA	17.18	185.42	92.986	27.1	A+	T1D
6481	Male	Caucasian	anoxia	36.96	182.88	100	29.9	O+	No diabetes
6482	Female	Caucasian	head trauma	18.69	162.56	52.8	20	O+	No diabetes
6483	Female	Caucasian	head trauma	30.46	159	52.5	20.8	A+	Autoab Pos
6484	Male	African Am	anoxia	28	182.88	83.2	24.9	O+	T1D
6485	Male	Caucasian	cerebrovascular/stroke	10.83	134.62	29.94	16.5	A+	T1D
6486	Male	Caucasian	cerebrovascular/stroke	37.32	175.26	71.214	23.2	A+	No diabetes
6487	Male	African Am	cerebrovascular/stroke	27.14	180	90	27.8	A+	No diabetes
6488	Female	Caucasian	head trauma	4.6	112	21.1	16.8	A+	No diabetes
6489	Male	Hispanic/Latino	cerebrovascular/stroke	52.17	149	78.5	35.5	O+	Transplant
6490	Male	Caucasian	anoxia	14.73	145	30	14.3	B+	Other-Diabetes
6491	Male	Hispanic/Latino	cerebrovascular/stroke	19.15	165.1	79.5	29.2	B+	Other-Diabetes
6492	Male	Hispanic/Latino	head trauma	28.56	170	77	26.6	O+	No diabetes
6493	Male	Caucasian	head trauma	18.84	180.34	57.7	17.7	AB+	No diabetes
6494	Male	African Am	head trauma	8.83	127	24.04	14.9	O+	Pending
6495	Male	Caucasian	head trauma	9.6	132.08	18.6	10.7	A+	No diabetes
6496	Male	African Am	respiratory distress/failure	26.11	185	157.71	46.1	B+	Autoab Pos
6497	Male	Hispanic/Latino	head trauma	6.75	131	38	22.1	A+	No diabetes
6498	Male	Caucasian	head trauma	4.95	108	24.9	21.3	O+	No diabetes
6499	Male	Caucasian	head trauma	18.6	175.26	112.3	36.5	B+	T2D
6500	Female	African Am	anoxia	14.14	152	45.6	19.7	B+	No diabetes
6501	Male	Caucasian	cerebrovascular/stroke	12.85	160.02	40.5	15.8	A+	No diabetes
6502	Male	American Indian/Alaska Native	anoxia	6.06	116	20.5	15.2	B+	No diabetes
6503	Male	African Am	head trauma	18.78	182.88	90.7	27.1	O+	No diabetes
6504	Female	Hispanic/Latino	head trauma	7.61	119	23.5	16.6	O+	No diabetes
6505	Female	Hispanic/Latino	anoxia	20.59	159	56.7	22.4	A+	Pending
6506	Male	Caucasian	anoxia	28.93	177	77.1	24.6	O-	T1D
6507	Male	Caucasian	head trauma	23.98	177.8	68	21.5	B+	Pending
6508	Male	Caucasian	anoxia	4.65	114.3	28.4	21.7	O+	No diabetes
6509	Male	Caucasian	head trauma	18.72	180.34	84	25.8	A-	No diabetes
6510	Male	African Am	anoxia	30.68	175.26	84.4	27.5	O+	Pending
6511	Female	Hispanic/Latino	anoxia	13.27	160	57.4	22.4	O+	Pending
6512	Female	Caucasian	cerebrovascular/stroke	30.59	167.64	108.99	38.8	O+	Pending
6513	Male	Caucasian	head trauma	21.69	175.26	63	20.5	O+	Pending
69	Female	Caucasian	anoxia	6	114.3	26	19.9	A+	T1D
8003	Male		cerebrovascular/stroke	50	170	77	26.6	O+	No diabetes
9977				NA	NA	NA	NA		
