ID	islet.freq	atrophy	infiltrates	fibrosis
1338	NA	0	1	0
3000	NA	0	1	0
3005	3	1	1	1
5000	3	1	2	1
503	3	0	NA	1
6001	NA	0	NA	0
6002	NA	0	NA	0
6003	NA	0	NA	0
6004	NA	0	NA	0
6005	NA	0	NA	0
6006	NA	1	NA	0
6007	NA	0	NA	0
6008	NA	0	NA	0
6009	NA	0	NA	0
6010	NA	0	NA	0
6011	NA	0	NA	0
6012	NA	0	1	0
6013	NA	0	NA	0
6014	NA	0	NA	0
6015	3	0	NA	0
6016	NA	0	NA	0
6017	NA	0	NA	0
6018	NA	0	NA	0
6019	NA	0	NA	0
6020	3	1	1	1
6021	NA	1	NA	0
6022	NA	1	NA	1
6023	3	0	1	1
6024	NA	0	NA	0
6025	NA	0	1	0
6026	NA	0	NA	0
6027	NA	0	NA	0
6028	NA	0	1	1
6029	NA	0	1	0
6030	NA	0	NA	0
6031	NA	0	NA	1
6032	NA	0	0	0
6033	1	1	NA	1
6034	NA	0	1	0
6035	NA	0	NA	0
6036	3	1	NA	0
6037	2	0	1	0
6038	NA	1	NA	1
6039	NA	0	2	0
6040	NA	1	1	0
6041	NA	0	0	0
6042	NA	1	NA	0
6043	NA	0	NA	0
6044	3	0	NA	0
6045	3	1	1	0
6046	NA	1	2	0
6047	NA	0	NA	0
6048	NA	0	0	0
6049	NA	1	NA	0
6050	NA	1	1	0
6051	NA	0	NA	0
6052	NA	0	2	0
6053	NA	0	NA	0
6054	NA	1	NA	1
6055	NA	0	NA	0
6057	NA	0	NA	0
6058	NA	0	1	1
6059	NA	1	NA	0
6060	NA	0	1	1
6061	NA	0	0	1
6062	1	1	2	1
6063	NA	0	1	0
6064	2	0	NA	0
6065	NA	1	NA	0
6066	2	1	NA	0
6067	NA	0	NA	1
6068	2	0	NA	1
6069	NA	1	NA	1
6070	NA	0	2	0
6071	NA	0	NA	1
6072	NA	0	NA	0
6073	NA	0	1	0
6074	3	0	NA	0
6075	NA	0	1	0
6076	NA	0	NA	1
6077	2	1	1	0
6078	NA	0	1	0
6079	NA	0	NA	1
6080	NA	0	NA	0
6081	3	0	NA	0
6082	NA	0	1	0
6083	NA	0	1	0
6084	NA	0	2	0
6085	3	1	1	1
6086	3	0	0	0
6087	2	0	1	0
6088	NA	1	2	1
6089	NA	0	1	0
6090	3	0	NA	0
6091	NA	0	0	0
6092	NA	0	NA	0
6093	NA	0	NA	0
6094	NA	0	1	0
6095	2	0	NA	0
6096	NA	0	NA	1
6097	3	1	1	0
6098	NA	0	NA	0
6099	NA	0	1	0
6101	NA	0	NA	0
6102	3	0	NA	1
6103	NA	0	0	0
6104	NA	0	NA	0
6105	NA	1	NA	0
6106	NA	0	NA	0
6107	NA	0	NA	0
6108	3	0	1	1
6109	NA	0	0	0
6110	NA	0	NA	0
6111	NA	1	NA	0
6112	NA	0	1	0
6113	NA	1	2	0
6114	NA	1	0	0
6115	NA	0	0	0
6116	NA	0	0	0
6117	3	0	1	0
6118	3	0	NA	1
6119	NA	0	1	0
6121	NA	0	NA	2
6122	NA	0	NA	0
6123	3	0	NA	0
6124	NA	1	NA	1
6125	NA	0	NA	0
6126	3	0	NA	0
6127	NA	0	NA	0
6128	NA	0	1	1
6129	2	1	NA	0
6130	NA	0	0	0
6131	NA	0	NA	0
6132	3	1	1	0
6133	NA	1	1	0
6134	3	0	NA	0
6135	NA	1	NA	1
6136	NA	1	NA	0
6137	NA	0	1	0
6138	NA	0	1	0
6139	3	0	NA	1
6140	NA	0	1	0
6141	NA	0	0	0
6142	NA	0	1	1
6143	3	0	NA	1
6144	3	0	NA	0
6145	NA	0	0	0
6147	NA	0	0	0
6148	3	0	NA	0
6149	3	1	1	2
6150	NA	0	1	1
6151	NA	0	0	0
6152	NA	1	1	1
6153	3	0	0	0
6154	3	0	1	1
6155	NA	1	NA	1
6156	NA	0	NA	0
6157	3	0	NA	1
6158	NA	0	NA	1
6159	NA	1	NA	0
6160	NA	0	0	0
6161	NA	0	NA	0
6162	3	0	NA	0
6163	NA	1	1	0
6164	3	0	NA	0
6165	3	0	0	0
6166	3	0	1	0
6167	3	0	0	0
6168	NA	0	1	0
6169	NA	0	1	0
6170	NA	0	1	1
6171	NA	0	0	0
6172	NA	0	NA	0
6173	NA	0	1	1
6174	3	0	0	0
6175	3	0	NA	0
6176	3	0	NA	1
6177	NA	0	NA	1
6178	NA	0	0	0
6179	3	0	NA	0
6180	NA	1	1	0
6181	3	0	0	0
6182	3	0	NA	0
6183	3	0	NA	0
6184	3	0	1	0
6185	NA	0	NA	0
6186	3	0	NA	1
6187	3	0	NA	0
6188	NA	0	NA	1
6189	NA	0	NA	0
6190	NA	0	1	0
6191	NA	1	NA	0
6192	NA	0	NA	0
6193	NA	0	NA	0
6194	3	1	NA	1
6195	NA	0	2	1
6196	3	1	NA	0
6197	3	0	2	0
6198	NA	0	2	1
6199	NA	1	NA	1
6200	NA	0	NA	0
6201	NA	0	NA	0
6202	NA	0	NA	0
6203	3	1	1	1
6204	3	0	NA	0
6205	2	1	NA	0
6206	3	0	NA	1
6207	NA	0	1	1
6208	NA	1	NA	0
6209	NA	0	2	0
6210	3	0	NA	0
6211	NA	0	NA	1
6212	NA	0	2	0
6213	3	1	1	1
6214	NA	0	NA	0
6215	2	1	NA	1
6216	NA	0	1	1
6217	3	0	0	0
6218	3	0	NA	0
6219	NA	0	NA	0
6220	NA	1	NA	0
6221	3	1	1	1
6222	3	0	NA	0
6223	2	0	NA	2
6224	NA	0	2	0
6225	NA	1	1	1
6226	2	0	NA	0
6227	NA	0	NA	0
6228	NA	1	2	1
6229	NA	0	NA	0
6230	NA	0	NA	0
6231	NA	0	1	1
6232	3	0	NA	0
6233	3	0	NA	0
6234	NA	0	NA	0
6235	3	0	NA	0
6236	2	1	NA	0
6237	NA	1	NA	0
6238	3	0	1	0
6239	NA	0	NA	0
6240	NA	1	1	2
6241	NA	1	1	0
6242	NA	1	NA	0
6243	NA	0	2	0
6244	NA	1	NA	0
6245	NA	0	2	1
6246	NA	0	NA	1
6247	NA	1	2	0
6248	3	0	NA	1
6249	NA	1	NA	0
6250	NA	0	NA	0
6251	3	0	NA	0
6252	3	0	NA	0
6253	3	0	NA	0
6254	3	0	NA	1
6255	3	0	NA	1
6257	3	0	1	1
6258	NA	1	NA	1
6259	NA	0	NA	2
6261	NA	1	0	1
6262	NA	0	1	1
6263	2	0	NA	1
6264	NA	1	2	1
6265	NA	0	2	0
6266	NA	0	NA	1
6267	NA	1	2	1
6268	NA	1	2	0
6269	NA	1	NA	1
6270	3	0	NA	1
6271	3	0	NA	0
6272	3	0	1	1
6273	3	0	NA	0
6274	3	0	NA	1
6275	NA	0	NA	1
6276	2	0	NA	0
6277	3	1	NA	0
6278	3	0	NA	0
6279	NA	0	NA	0
6280	3	0	NA	0
6281	3	1	NA	1
6282	3	0	NA	0
6283	NA	1	NA	1
6284	3	0	NA	0
6285	2	1	NA	1
6286	3	1	0	1
6287	3	0	NA	0
6288	3	1	NA	1
6289	3	0	NA	0
6290	3	0	NA	0
6291	NA	0	1	0
6292	NA	0	1	0
6293	NA	0	NA	0
6294	NA	0	1	0
6295	NA	1	NA	0
6296	NA	0	NA	0
6297	2	0	NA	1
6298	2	0	1	0
6299	NA	0	1	0
6300	3	0	NA	1
6301	NA	1	NA	0
6302	2	1	NA	0
6303	3	0	NA	1
6304	NA	0	1	0
6305	NA	0	NA	0
6306	2	1	2	0
6307	NA	1	NA	1
6308	NA	0	NA	0
6309	NA	0	1	0
6310	3	0	2	1
6311	3	0	1	0
6312	NA	1	1	2
6313	3	0	1	0
6314	3	0	1	0
6315	3	0	0	0
6316	3	0	NA	0
6317	1	0	1	0
6318	3	0	NA	0
6319	3	0	NA	1
6320	NA	0	NA	0
6321	2	1	NA	1
6322	2	1	NA	0
6323	NA	1	2	1
6324	NA	0	2	0
6325	NA	0	2	0
6326	NA	1	1	1
6327	2	1	1	1
6328	NA	1	2	0
6329	NA	0	1	0
6330	2	0	1	1
6331	3	0	NA	0
6332	NA	1	1	0
6333	3	0	1	1
6334	NA	0	1	0
6335	3	0	1	0
6336	3	0	NA	0
6337	2	1	1	0
6338	NA	0	1	0
6339	3	0	1	0
6340	3	0	NA	0
6341	NA	1	2	1
6342	NA	0	2	0
6343	NA	0	1	0
6344	3	0	NA	0
6345	3	1	NA	1
6346	NA	0	1	0
6347	3	0	1	0
6348	NA	0	NA	0
6349	NA	0	NA	0
6350	3	0	NA	0
6351	NA	0	NA	0
6353	NA	0	NA	0
6354	3	0	NA	0
6355	NA	0	2	1
6356	3	0	NA	0
6357	NA	0	1	0
6358	3	0	NA	0
6359	3	0	1	0
6360	2	1	1	1
6361	3	0	0	0
6362	1	1	2	1
6363	NA	0	1	1
6364	3	0	NA	0
6365	3	0	NA	0
6366	NA	1	1	1
6367	3	0	1	0
6368	NA	0	NA	0
6369	NA	1	1	0
6370	NA	0	NA	0
6371	NA	0	2	0
6372	3	0	1	0
6373	3	0	1	1
6374	3	0	1	0
6375	3	0	1	0
6376	NA	0	1	0
6377	NA	0	NA	0
6378	NA	1	NA	0
6379	NA	0	NA	0
6380	NA	1	2	1
6381	3	0	1	0
6382	3	0	1	0
6383	3	0	NA	0
6384	3	0	NA	0
6385	3	0	1	1
6386	NA	0	NA	0
6387	1	0	1	0
6388	NA	0	1	0
6389	NA	0	NA	0
6390	3	0	NA	0
6391	3	0	NA	0
6392	3	0	NA	0
6393	3	0	1	0
6394	3	0	NA	0
6395	3	0	NA	0
6396	2	0	2	0
6397	NA	0	2	1
6398	1	0	1	2
6399	NA	0	2	1
6400	NA	0	1	0
6401	NA	0	NA	0
6402	NA	0	NA	0
6403	3	0	NA	1
6404	2	0	1	2
6405	NA	0	2	1
6406	NA	0	NA	0
6407	NA	0	1	0
6408	NA	0	NA	0
6409	3	0	1	0
6410	NA	0	NA	0
6411	NA	0	NA	0
6412	NA	0	NA	0
6413	3	0	1	0
6414	NA	1	2	1
6415	NA	0	NA	0
6416	NA	0	1	1
6417	NA	0	NA	0
6418	NA	1	1	0
6419	1	1	1	1
6420	NA	0	NA	0
6421	NA	0	NA	0
6422	NA	0	NA	0
6423	NA	0	1	0
6424	3	0	1	0
6425	NA	0	NA	1
6426	NA	0	NA	0
6427	3	0	NA	0
6428	NA	0	NA	0
6429	3	0	1	0
6430	NA	0	1	0
6431	3	0	NA	0
6432	2	1	NA	0
6433	NA	1	NA	1
6434	NA	0	NA	0
6435	NA	1	1	1
6436	NA	0	2	1
6437	NA	1	2	1
6438	2	0	2	1
6439	NA	0	NA	1
6440	3	0	NA	1
6441	NA	0	2	0
6442	NA	0	1	0
6443	NA	1	1	1
6444	3	0	NA	1
6445	3	0	NA	0
6446	3	0	NA	0
6447	NA	0	NA	0
6448	3	0	1	1
6449	1	1	2	0
6450	3	1	2	0
6451	3	1	NA	1
6452	2	0	NA	0
6453	NA	0	NA	1
6454	NA	0	1	1
6455	NA	0	NA	0
6456	3	0	2	0
6457	NA	0	2	0
6458	2	0	NA	1
6459	2	1	1	0
6460	NA	0	NA	0
6461	NA	0	NA	0
6462	3	0	1	0
6463	2	1	1	1
6464	NA	0	NA	1
6465	NA	0	1	0
6466	1	0	2	0
6467	NA	0	NA	0
6468	3	0	NA	0
6469	NA	1	2	1
6470	3	0	NA	1
6471	3	0	NA	0
6472	1	0	2	0
6473	NA	1	NA	0
6474	3	0	NA	0
6475	NA	1	1	1
6476	3	0	NA	0
6477	2	0	1	0
6478	NA	0	1	0
6479	3	0	NA	0
6480	3	0	2	0
6481	3	0	NA	0
6482	NA	0	NA	0
6483	NA	0	1	0
6484	NA	0	1	1
6485	NA	1	2	0
6486	3	0	NA	1
6487	NA	0	1	1
6488	3	0	1	0
6489	3	1	1	1
6490	NA	0	NA	0
6491	1	0	NA	2
6492	1	0	NA	0
6493	3	0	NA	0
6494	NA	0	1	0
6495	3	0	NA	0
6496	NA	0	NA	1
6497	3	0	NA	0
6498	3	0	NA	0
6499	NA	0	NA	1
6500	NA	0	NA	0
6501	3	0	NA	0
6502	3	0	NA	0
6503	3	0	NA	0
6504	NA	0	NA	0
6505	NA	0	NA	0
6506	1	0	1	1
6507	NA	0	NA	0
6508	3	0	NA	0
6509	NA	0	NA	0
6510	NA	1	1	1
6511	NA	0	NA	0
6512	NA	0	1	0
6513	NA	0	NA	0
6514	NA	1	1	0
69	2	1	1	1
8003	NA	0	NA	0
