ID	IGFR.intensity	p53BP1.prct
6179	1.4	41
6001	10.2	1
6060	4.6	66
6091	3.4	45
6254	-0.4	54
6015	15.1	22
6104		
6019	10.2	35
6097	11.8	58
6009		23
6288	13.2	28
6017	18.7	63
6020	14.6	39
6012	5.3	2
6021		
6308	13.5	25
6059	11.9	53
6252	5.4	32
6028	9.8	31
6149	16.7	35
6127	6.8	29
6194	14.1	48
6277		
6189	11.3	51
6283	14.5	50
6272	28	42
6108		
6206	3.8	73
6297	6	48
6221		62
6110	13	42
