ID	intact.pancreas.grp	pancreas.weight	pan.uncinate.weight	pan.head.weight	pan.body.weight	pan.tail.weight
6001	1	NA	NA	NA	NA	NA
6002	1	NA	NA	NA	NA	NA
6003	1	NA	NA	NA	NA	NA
6004	1	NA	NA	NA	NA	NA
6005	1	NA	NA	NA	NA	NA
6006	1	NA	NA	NA	NA	NA
6007	1	NA	NA	NA	NA	NA
6008	1	NA	NA	NA	NA	NA
6009	1	NA	NA	NA	NA	NA
6010	1	NA	NA	NA	NA	NA
6011	1	NA	NA	NA	NA	NA
6012	1	NA	NA	NA	NA	NA
6013	1	NA	NA	NA	NA	NA
6014	1	NA	NA	NA	NA	NA
6015	1	NA	NA	NA	NA	NA
6016	1	NA	NA	NA	NA	NA
6017	1	NA	NA	NA	NA	NA
6018	1	NA	NA	NA	NA	NA
6019	1	NA	NA	NA	NA	NA
6020	1	NA	NA	NA	NA	NA
6021	1	NA	NA	NA	NA	NA
6022	1	NA	NA	NA	NA	NA
6023	1	NA	NA	NA	NA	NA
6024	1	NA	NA	NA	NA	NA
6025	1	NA	NA	NA	NA	NA
6026	1	67.3	NA	NA	NA	NA
6027	1	52.9	NA	NA	NA	NA
6028	1	48.5	NA	NA	NA	NA
6029	1	79.3	NA	NA	NA	NA
6030	1	96.3	NA	NA	NA	NA
6031	1	40.2	NA	NA	NA	NA
6032	1	117.4	NA	NA	NA	NA
6033	1	35	NA	NA	NA	NA
6034	1	75.4	NA	NA	NA	NA
6035	1	42.1	NA	NA	NA	NA
6036	1	31.13	NA	NA	NA	NA
6037	1	65.8	NA	NA	NA	NA
6038	1	39.5	NA	NA	NA	NA
6039	1	42.2	NA	NA	NA	NA
6040	1	64.9	NA	NA	NA	NA
6041	1	32.5	NA	NA	NA	NA
6042	1	34.02	NA	NA	NA	NA
6043	1	129.5	NA	NA	NA	NA
6044	1	83.78	NA	NA	NA	NA
6045	1	50.81	NA	NA	NA	NA
6046	1	34.02	NA	NA	NA	NA
6047	1	53.02	NA	NA	NA	NA
6048	1	139	NA	NA	NA	NA
6049	0	15.8	NA	NA	NA	NA
6050	0	36	NA	NA	NA	NA
6051	1	33.79	NA	NA	NA	NA
6052	1	22.1	NA	NA	NA	NA
6053	0	19.41	NA	NA	NA	NA
6054	1	29.45	NA	NA	NA	NA
6055	1	63.1	NA	NA	NA	NA
6056	0	NA	NA	NA	NA	NA
6057	1	104.36	NA	NA	NA	NA
6058	1	52.68	NA	NA	NA	NA
6059	1	74.38	NA	NA	NA	NA
6060	1	104	NA	NA	NA	NA
6061	1	28.6	NA	NA	NA	NA
6062	1	18.2	NA	NA	NA	NA
6063	1	11.2	1.9	3.9	2.6	2.7
6064	1	46.15	2.6	11.2	16.5	17.1
6065	1	47.6	0	19	15.6	13
6066	0	69	2	NA	NA	NA
6067	1	32	2	12	11	7
6068	0	11.5	0	3.1	4.9	2.8
6069	1	55.7	3.2	19.7	18.2	13.9
6070	1	39.1	3.4	12.4	12.1	13.7
6071	0	11.2	1	3.5	4.3	2.6
6072	1	17.3	NA	NA	NA	NA
6073	1	66.5	0	NA	NA	NA
6074	0	NA	NA	NA	NA	NA
6075	1	47.29	0	12.5	17.4	17.68
6076	1	37.32	3.08	10.04	12.6	11.6
6077	1	39.7	0	14.1	15.2	9
6078	1	28.57	1.2	11.5	10.57	5.3
6079	1	29.9	0.7	10.6	11.96	6.39
6080	1	53.6	12.31	14.06	15.11	8.26
6081	1	62.43	2	26.12	17.6	18.4
6082	1	70.14	0	23.44	22.76	18.83
6083	1	41.75	5.2	10.4	12.53	10.7
6084	0	8.4	0	NA	4	4.4
6085	1	31.41	0	11.37	12.56	8.14
6086	0	NA	0	9.3	13.7	NA
6087	1	58.4	2	21.8	18.5	17.7
6088	1	32	2.2	NA	NA	NA
6089	1	56.8	3.1	12.1	15.9	25.7
6090	1	19.3	0	7.3	6.3	5.5
6091	1	95.5	5.8	29.4	29.8	30.5
6092	1	5.3	0	1.4	1.8	2.1
6093	1	44.3	1.9	15.3	9.7	7.5
6094	1	21.17	0.7	4.5	6.5	7.3
6095	1	115.3	1.8	43.9	32.7	40.2
6096	1	51.5	1.1	14	19.13	15.1
6097	1	85.2	2.7	39.9	23.5	19.1
6098	1	91.1	1	25.5	28.4	37.2
6099	1	85.56	12.6	21.23	21.03	30.7
6100	0	NA	NA	NA	NA	NA
6101	1	102.43	4	42.83	29.45	26.15
6102	1	87.32	5.72	36.5	23.4	21.7
6103	1	10.35	0.5	4.23	3.33	2.79
6104	1	55.2	4.2	14.5	14.3	22.2
6105	1	149.88	8.67	29.1	70.45	41.66
6106	1	16.32	0.93	4.9	4.73	5.76
6107	1	15.88	0.52	5.68	6.48	3.2
6108	1	90.95	6.78	23.68	27.23	33.26
6109	1	120.93	8.73	39.9	39.4	32.9
6110	1	69.49	3.4	23.17	20.07	22.85
6111	1	64.76	3.52	17.16	19.48	24.6
6112	1	29.98	1.66	12.28	7.5	8.54
6113	1	33.5	1.5	11.13	10.71	10.16
6114	1	100	4.4	42.3	26.1	27.2
6115	1	3.9	NA	NA	NA	NA
6116	1	3.12	NA	NA	NA	NA
6117	1	5.4	0.5	1.72	1.74	1.44
6118	1	69.25	4.1	23.7	20.8	20.7
6119	1	23.43	1.2	9.5	5.9	6.8
6120	0	NA	NA	NA	NA	NA
6121	0	NA	NA	NA	NA	NA
6122	1	3.2	0	1	1	1.2
6123	1	48.34	2.35	18	11.2	16.78
6124	1	103.87	7.43	36.33	21.99	38.12
6125	1	8.81	0.3	2.94	2.54	3.03
6126	1	80.2	1.6	18.4	24.9	35.3
6127	1	58.93	5.6	21.15	16.73	15.45
6128	1	26.8	1	8.8	9.1	7.9
6129	1	58.84	2.88	17.96	22.73	15.27
6130	1	22.15	0	5.98	7.97	8.2
6131	1	108.92	4.2	38.4	38.12	28.2
6132	1	69.51	5.25	23.9	24.5	15.86
6133	1	70.42	3.2	31.06	17.15	19.01
6134	1	82.42	3.72	26.32	25.44	26.94
6135	1	31.39	0	11.89	9.6	9.9
6136	1	134.1	0	29	52.9	52.2
6137	1	39.21	2.2	11.01	12.8	13.2
6138	1	99.66	0	40.7	27.16	31.8
6139	1	79.3	9.4	23.2	24.2	22.5
6140	1	65.1	0	20.3	22.8	22
6141	1	49.87	0.7	24.1	12.7	12.37
6142	1	70.16	3.76	23.1	21.2	22.1
6143	1	35.7	2.5	10.9	9.4	12.9
6144	1	45	2.3	20.4	11.2	11.1
6145	1	42.19	0	14	13.35	14.84
6147	1	65.27	6.6	13.18	25.3	20.19
6148	1	26.36	1.56	5.7	8.8	10.3
6149	1	66.2	0	25.4	23.2	17.6
6150	1	27.14	1.17	9.54	6.5	9.93
6151	1	25	2.7	8.7	6.5	7.1
6152	1	25.25	0	8.25	10.03	6.97
6153	1	67.75	1.97	22.65	23.28	19.85
6154	1	65.97	5.03	22.52	17.44	20.98
6155	1	34.8	0	9.5	14.9	10.4
6156	1	72.5	3.4	18.6	23.3	27.2
6157	1	84.52	9.1	34.4	22.12	18.9
6158	1	101.9	13.7	30.9	26.8	30.5
6159	1	45.4	4	14.8	16.6	10
6160	1	79.4	2.7	20.5	23.1	33.1
6161	1	39.8	3	11.6	9.6	15.6
6162	1	81.5	4.4	19.2	26.4	31.5
6163	1	41.5	0	17.1	13	11.4
6164	1	2.98	NA	NA	NA	NA
6165	1	97.41	6.37	28.64	28.6	33.8
6166	1	50.3	2	20.3	13.9	14.1
6167	1	88.3	4.4	33.7	21.9	28.3
6168	1	88.76	3.86	18.9	28.8	37.2
6169	1	38.05	0	19.96	10.25	7.84
6170	1	110.3	0	31.6	33.8	44.9
6171	0	17.7	0	3.8	8.2	5.7
6172	1	59.7	0	23.7	16.9	19.1
6173	1	38.9	0	18.2	11.9	8.8
6174	1	79.3	0	21.4	37.3	20.6
6175	1	50.4	0	18.8	14.9	16.7
6176	1	33.9	0	17.2	10	6.7
6177	1	100.3	0	29	36	35.3
6178	1	72.7	0	22.7	18.5	31.5
6179	1	72.4	0	28.5	24.9	19
6180	1	36.7	0	12.5	11.9	12.3
6181	1	100.2	0	37.9	33.9	28.4
6182	1	17.8	0	7	4.1	6.7
6183	1	4.05	0	1.35	1.71	0.99
6184	1	71.8	0	33.7	20.7	17.4
6185	1	204.3	0	75	81	48.3
6186	1	73.3	0	32.3	18.8	22.2
6187	1	5.8	0	3.1	1.2	1.5
6188	1	120.4	0	41.4	45.4	33.6
6189	1	133.7	0	61.5	45.2	27
6190	1	9.2	0	3.6	3.1	2.5
6191	1	36.5	0	16	12.2	8.3
6192	1	NA	0	NA	NA	NA
6193	0	NA	NA	NA	NA	NA
6194	1	57.1	0	27.7	18.1	11.3
6195	1	29.8	0	9.2	8.4	12.2
6196	1	28.19	0	12.88	9.3	6.01
6197	1	73.3	0	14.2	38.8	20.3
6198	0	NA	NA	NA	NA	NA
6199	1	114.1	0	51.5	30.9	31.7
6200	1	4.29	0	NA	NA	NA
6201	1	3.2	0	NA	NA	NA
6202	1	193.9	0	67.9	70.4	55.6
6203	1	89.3	0	43.29	23.98	22.03
6204	1	55.03	0	25.82	19.02	10.19
6205	1	33.61	0	18.53	9.99	5.09
6206	1	143.7	0	59.9	46.1	37.7
6207	1	33.2	0	14.72	10.63	7.87
6208	1	27.94	0	12.94	9.52	5.48
6209	1	12.5	0	4.7	4.5	3.3
6210	1	3.5	0	NA	NA	NA
6211	0	33	0	11	12	10
6212	1	43.5	0	14.8	15.6	13.1
6213	1	94.47	0	34.25	32.45	27.77
6214	1	1	0	NA	NA	NA
6215	1	56.46	0	24.07	21.14	11.25
6216	1	87.65	0	35.9	33.34	18.41
6217	1	9.94	0	5.47	2.62	1.85
6218	1	0.73	0	NA	NA	NA
6219	1	4.99	0	1.67	2.18	1.14
6220	1	36.86	0	16.75	10.83	9.28
6221	1	73.9	0	31.2	23.4	19.3
6222	1	5.77	0	2.45	1.85	1.47
6223	1	38.7	0	18.7	11.4	8.6
6224	1	56.09	0	24.23	13.83	18.03
6225	1	46.7	0	18.7	13.5	14.5
6226	1	86.7	0	27.5	30.3	28.9
6227	1	60.4	0	20.9	20.1	19.4
6228	0	30.35	0	11.15	10.75	8.45
6229	1	45.6	0	14.5	16.2	14.9
6230	1	66.27	0	30.91	20.03	15.33
6231	1	38.1	0	18.5	11.8	7.8
6232	1	49.4	0	14	17.4	18
6233	1	60.93	0	17.89	19.24	23.8
6234	1	49.86	0	15.7	19.37	14.79
6235	1	102.31	0	25.36	41.67	35.28
6236	0	51.96	0	23.18	16.13	12.65
6237	1	32.51	0	14.19	11.25	7.07
6238	1	91.5	0	32.18	32.89	26.43
6239	1	103.15	0	32.25	42.7	28.2
6240	1	81.77	0	48.4	20.82	12.55
6241	1	24.92	0	13.29	7.38	4.25
6242	1	33.59	0	16.9	7.7	8.99
6243	1	29.35	0	10.36	10.54	8.45
6244	1	38.55	0	14.33	11.9	12.32
6245	1	31.58	0	16.26	8.98	6.34
6246	1	14.26	0	6.52	4.72	3.02
6247	1	59.77	0	20.8	21.41	17.56
6248	1	74.14	0	24.98	26.46	22.7
6249	1	53.94	0	25.05	20.84	8.05
6250	1	NA	0	NA	NA	NA
6251	1	77.8	0	32.8	22.1	22.9
6252	1	79.33	0	33.75	24.22	21.36
6253	1	85.29	0	20.76	42.76	21.77
6254	1	69.9	0	26.5	23.3	20.1
6255	1	104.16	0	50.31	29	24.85
6256	0	NA	0	30.74	29.12	32.99
6257	1	55.85	0	16.6	20.12	19.13
6258	1	32.56	0	15.06	8.82	8.68
6259	1	189.6	0	75.31	61.62	52.67
6261	0	NA	NA	NA	NA	NA
6262	1	29.56	0	12.67	9.63	7.26
6263	1	51.59	0	22.85	14.18	14.56
6264	1	20.35	0	8.92	7.1	4.33
6265	1	18.48	0	6.83	6.04	5.61
6266	1	51.66	0	21.37	17.21	13.08
6267	1	47.99	0	15.3	15.45	17.24
6268	1	41.1	0	NA	NA	NA
6269	1	86.35	0	35.49	24.37	26.49
6270	1	102.29	0	40.87	36.55	24.87
6271	1	97.99	0	38.39	33.89	25.71
6272	1	72.29	0	31.92	25.22	15.15
6273	1	93.43	0	48.29	25.52	19.62
6274	1	70.78	0	34.01	22.13	14.64
6275	1	159.72	0	71.97	45.6	42.15
6276	1	151.12	0	59.45	47.57	44.1
6277	1	74.44	0	26.24	21.98	26.22
6278	1	33.6	0	11.9	13.5	8.2
6279	1	80.17	0	28.95	30.57	20.65
6280	1	58.86	0	28.11	12.75	18
6281	1	62.79	0	28.75	21.34	12.7
6282	1	75.86	0	29.96	26.29	19.61
6283	1	111.48	0	55.47	35.26	20.75
6284	1	72.62	0	25.13	21.68	25.81
6285	1	22.5	0	8.9	6.7	6.9
6286	0	NA	NA	NA	NA	NA
6287	0	52.06	0	24.39	15.65	12.02
6288	1	110.54	0	52.02	32.96	25.56
6289	1	88	0	29.73	30.37	27.9
6290	1	85.84	0	35.68	27.31	22.85
6291	1	NA	NA	NA	NA	NA
6292	1	13.98	0	5.83	4.51	3.64
6293	1	26.12	0	12.13	8.37	5.62
6294	1	15.59	0	5.67	5.65	4.27
6295	1	66.42	0	24.28	20.32	21.82
6296	1	33.24	0	17.71	10.72	4.81
6297	1	118.11	0	55.94	26.09	36.08
6298	1	48.6	0	15.5	16.43	16.67
6299	0	43.8	0	21.77	11.74	10.29
6300	1	54.95	0	27.76	16.57	10.62
6301	1	46.37	0	17.82	13.01	15.54
6302	0	36.99	0	14.35	11.93	10.71
6303	1	96.16	0	31.51	27.87	36.78
6304	1	85.48	NA	36.06	27.9	21.55
6305	1	4.59	NA	1.94	1.18	1.47
6306	1	62.1	NA	NA	NA	NA
6307	1	46.7	NA	23.43	10.57	12.7
6308	1	71.19	NA	19.54	30.47	21.18
6309	1	5.78	NA	2.1	1.66	2.02
6310	1	82.93	NA	26.39	27.64	28.9
6311	1	10.43	NA	3	2.99	4.44
6312	1	24.4	NA	10.22	7.03	7.15
6313	1	3.99	NA	1.73	1.05	1.21
6314	1	76.61	NA	21.75	25.27	29.59
6315	0	NA	NA	NA	NA	NA
6316	1	39.56	NA	10.77	13.16	15.63
6317	1	44.35	NA	17.76	14.55	12.04
6318	1	30.24	NA	10.38	10.42	9.44
6319	1	31.92	NA	14.55	9.71	7.66
6320	0	NA	NA	21.32	NA	NA
6321	1	24.83	NA	11.36	5.52	6.95
6322	1	31.41	NA	9.93	12.3	9.18
6323	0	NA	NA	NA	NA	NA
6324	1	19.2	NA	8.63	5.92	4.65
6325	1	41.03	NA	14.58	15.19	11.26
6326	1	55.1	NA	26.9	13.7	14.5
6327	1	32.72	NA	17.62	8.75	6.35
6328	1	28.36	NA	10.25	8.46	9.65
6329	1	87.87	NA	38.13	30.06	19.68
6330	0	NA	NA	13.12	10.35	10.56
6331	1	102.66	NA	40.73	31.16	30.77
6332	1	22.35	NA	11.52	6.41	4.42
6333	1	68.87	NA	22.48	19.53	26.86
6334	1	48.22	NA	14.64	17.25	16.33
6335	1	62.05	NA	26.3	15.85	19.9
6336	1	43.42	NA	16.92	11.2	15.3
6337	1	26.78	NA	7.78	10.2	8.8
6338	1	57.52	NA	24.04	16.73	16.75
6339	0	NA	NA	NA	20.54	28.61
6340	1	47.62	NA	17.51	17.06	13.05
6341	1	26.41	NA	10.2	8.26	7.95
6342	1	34	NA	NA	NA	NA
6343	1	21.39	NA	4.72	7.66	9.01
6344	1	21.99	NA	7.88	7.09	7.02
6345	0	NA	NA	NA	NA	NA
6346	1	3.12	NA	1.85	0.9	0.37
6347	1	43.32	NA	14.77	14.69	13.86
6348	1	1.85	NA	0.78	0.62	0.45
6349	0	NA	NA	NA	0.43	0.4
6350	0	NA	NA	NA	4.28	5.75
6351	1	1.95	NA	0.98	0.5	0.47
6353	1	39.4	NA	9.05	13.68	16.67
6354	1	30	NA	9.93	11.34	8.73
6355	0	NA	NA	NA	NA	NA
6356	1	10.47	NA	4.8	2.95	2.72
6357	1	25.77	NA	9.36	7.2	9.21
6358	1	52.51	NA	24.7	14.22	13.59
6359	1	21.01	NA	6.9	5.84	8.27
6360	1	10.3	NA	3.24	3.5	3.56
6361	1	1.67	NA	0.78	0.52	0.37
6362	1	53.26	NA	13.13	17.17	22.96
6363	1	96.47	NA	44.12	28.88	23.47
6364	1	21.61	NA	7.66	8.03	5.92
6365	1	77.93	NA	32.48	21.31	24.14
6366	1	72.74	NA	21.33	25.35	26.06
6367	1	64.3	NA	NA	NA	NA
6368	1	74.78	NA	23.37	20.8	30.61
6369	1	47.67	NA	14.9	18.27	14.5
6370	1	2.27	NA	1.08	0.73	0.46
6371	1	22.76	NA	6.28	7.07	9.41
6372	1	48.7	NA	17.19	14.93	16.58
6373	0	NA	NA	NA	NA	NA
6374	1	50.47	NA	18.74	16	15.73
6375	1	86.74	NA	29.37	23.37	34
6376	1	4.49	NA	1.54	1.46	1.49
6377	1	40.74	NA	13.18	11.24	16.32
6378	1	72.56	NA	30.47	20.56	21.53
6379	1	80.22	NA	27.96	27.05	25.21
6380	1	34.26	NA	10.54	14.29	9.43
6381	1	38.48	NA	14.24	13.95	10.29
6382	1	17.02	NA	6.28	5.3	5.44
6383	0	NA	NA	NA	NA	NA
6384	1	74.98	NA	25.85	26.87	22.26
6385	1	26.34	NA	8.62	9.49	8.23
6386	1	61.36	NA	18.3	18.19	24.87
6387	1	68.32	NA	27.92	21.36	19.04
6388	1	100.99	NA	31.72	30.31	38.96
6389	1	65.85	NA	20.65	22.44	22.76
6390	0	NA	NA	NA	NA	NA
6391	1	39.8	NA	13.2	12.8	13.8
6392	1	59.4	NA	23.2	16.2	20
6393	1	62	NA	24	15.8	22.2
6394	1	43.72	NA	16.16	14.18	13.38
6395	1	94.82	NA	29.18	29.71	35.93
6396	1	45	NA	14.6	13.2	17.2
6397	1	70.53	NA	17.29	22.53	30.71
6398	1	207.26	NA	105.35	43.35	58.56
6399	0	NA	NA	NA	NA	NA
6400	1	69.56	NA	23.49	21.15	24.92
6401	1	71.29	NA	23.72	21.2	26.37
6402	0	NA	NA	NA	NA	NA
6403	1	74.91	NA	41.06	15.94	17.91
6404	1	34.18	NA	12.89	11.64	9.65
6405	0	94.27	NA	34.29	29.75	30.23
6406	1	27.03	NA	10.14	8.2	8.69
6407	1	31.32	NA	10.42	9.29	11.61
6408	1	11.67	NA	4.36	3.72	3.59
6409	0	NA	NA	NA	NA	NA
6410	1	46.43	NA	15.57	14.43	16.43
6411	1	22.26	NA	6.84	7.34	8.08
6412	1	80.78	NA	26.06	25.05	29.67
6413	1	53.41	NA	20.27	14.77	18.37
6414	1	98.5	NA	NA	NA	NA
6415	1	31.46	NA	9.03	10.6	11.83
6416	1	39.89	NA	14.35	13.15	12.39
6417	0	NA	NA	NA	NA	NA
6418	1	28.59	NA	12.38	7.7	8.51
6419	1	23.84	NA	10.35	7.14	6.35
6420	1	38.83	NA	17.04	11.57	10.22
6421	1	28.68	NA	9.65	9.7	9.33
6422	0	NA	NA	NA	NA	NA
6423	1	73.12	NA	19.96	24.39	28.77
6424	1	111.07	NA	32.89	43.52	34.66
6425	0	NA	NA	NA	NA	NA
6426	1	15.27	NA	5.11	4.53	5.63
6427	1	NA	NA	NA	NA	NA
6428	1	26.77	NA	9.88	10.2	6.69
6429	1	70.66	NA	26.85	22.01	21.8
6430	1	80.35	NA	30.32	25.78	24.25
6431	1	68.97	NA	16.84	22.27	29.86
6432	1	29.58	NA	12.48	10.53	6.57
6433	1	82.3	NA	22.08	37.86	22.36
6434	1	46.64	NA	17.08	15.29	14.27
6435	1	46.49	NA	20.33	11.94	14.22
6436	1	57.11	NA	20.12	17.2	19.79
6437	0	NA	NA	NA	NA	NA
6438	1	39.93	NA	15.93	13.09	10.91
6439	1	72.68	NA	24.87	23.68	24.13
6440	1	80.09	NA	30.86	21.03	28.2
6441	1	56.29	NA	23.61	16.57	16.11
6442	1	90.75	NA	31.58	26.83	32.34
6443	1	42.93	NA	16.26	10.65	16.02
6444	1	84.01	NA	33.4	27.62	22.99
6445	1	64.09	NA	27.79	19.73	16.57
6446	1	1.61	NA	NA	NA	NA
6447	1	31.03	NA	12.51	9.38	9.14
6448	1	80.11	NA	33.24	23.76	23.11
6449	0	NA	NA	NA	NA	NA
6450	1	54.18	NA	21.84	16.18	16.16
6451	0	NA	NA	NA	NA	NA
6452	1	125.78	NA	41.97	36.99	46.82
6453	1	105.34	NA	36.39	31.57	37.38
6454	1	55.67	NA	24.84	17.06	13.77
6455	1	31.51	NA	12.83	8.79	9.89
6456	1	84.97	NA	NA	NA	NA
6457	0	28.17	NA	12.23	7.8	8.14
6458	0	NA	NA	NA	NA	NA
6459	1	45.87	NA	17.87	12.23	15.77
6460	1	2.42	NA	1.06	0.74	0.62
6461	1	63.26	NA	23.06	18.3	21.9
6462	1	59.29	NA	15.47	20.55	23.27
6463	1	NA	NA	NA	NA	NA
6464	1	41.53	NA	17.59	11.89	12.05
6465	1	25.01	NA	9.99	7.66	7.36
6466	1	55.11	NA	19.94	18.04	17.13
6467	NA	37.4	NA	13.06	11.08	13.26
6468	1	67.63	NA	23.29	19.16	25.18
6469	1	55.4	NA	20.27	20.55	14.58
6470	1	69.07	NA	25.04	19.68	24.35
6471	1	60.8	NA	19.46	19.21	22.13
6472	0	NA	NA	NA	NA	NA
6473	0	NA	NA	NA	NA	NA
6474	1	91.16	NA	37.2	29.62	24.34
6475	1	24.81	NA	9.39	7.48	7.94
6476	0	NA	NA	NA	NA	NA
6477	0	NA	NA	NA	NA	NA
6478	1	46.42	NA	16.01	16.7	13.71
6479	1	56.69	NA	20.72	17.13	18.84
6480	1	NA	NA	NA	NA	NA
6481	1	79.87	NA	29.89	22.76	27.22
6482	1	57.64	NA	21.39	19.13	17.12
6483	1	63.86	NA	26.27	17.13	20.46
6484	0	NA	NA	NA	NA	NA
6485	0	NA	NA	NA	NA	NA
6486	1	67.35	NA	22.44	21.32	23.59
6487	1	107.99	NA	36.81	35.93	35.25
6488	1	30.53	NA	12.32	9.32	8.89
6489	1	40.74	NA	19.46	11.99	9.29
6490	0	17.99	NA	NA	NA	NA
6491	1	77.19	NA	28.31	27.67	21.21
6492	1	74.75	NA	24.99	23.36	24.4
6493	1	53.77	NA	21.04	17.4	15.33
6494	1	28.29	NA	8.66	9.6	10.03
6495	1	37.11	NA	10.45	12.17	14.49
6496	1	189.25	NA	74.62	57.07	57.56
6497	1	41.14	NA	16.17	10.9	14.07
6498	1	24.4	NA	8.47	8.14	7.79
6499	0	NA	NA	NA	NA	NA
6500	0	NA	NA	NA	NA	NA
6501	1	52.26	NA	21.27	15.93	15.06
6502	1	26.06	NA	8.86	8.82	8.38
6503	0	NA	NA	NA	NA	NA
6504	1	40.5	NA	NA	NA	NA
6505	1	60.93	NA	22.3	19.42	19.21
6506	1	33.68	NA	17.46	9.17	7.05
6508	0	NA	NA	NA	NA	NA
6509	0	NA	NA	NA	NA	NA
6510	1	36.52	NA	16.75	9.67	10.1
6511	1	45.59	NA	15.77	15.84	17.98
6512	NA	NA	NA	NA	NA	NA
