ID	InsNeg.CD45.cells.periislet	InsPos.CD45.cells.periislet	InsNeg.CD45.cells.periislet.med	InsPos.CD45.cells.periislet.med	InsNeg.CD45.cells.intraislet	InsPos.CD45.cells.intraislet	InsNeg.CD45.cells.intraislet.med	InsPos.CD45.cells.intraislet.med	InsNeg.CD45.cells.islet	InsPos.CD45.cells.islet	InsNeg.CD45.cells.islet.med	InsPos.CD45.cells.islet.med	InsNeg.total.islets	InsPos.total.islets	InsNeg.insulitis.islets	InsPos.insulitis.islets	InsNeg.CD45.cells.periislet_SD	InsPos.CD45.cells.periislet_SD	InsNeg.CD45.cells.intraislet_SD	InsPos.CD45.cells.intraislet_SD	InsNeg.CD45.cells.islet_SD	InsPos.CD45.cells.islet_SD	InsPos.insulitis.prct	InsNeg.insulitis.prct	total.insulitis	total.islets	insulitis.prct
6034	NA	1.19	NA	1	NA	0.9	NA	0	NA	2.1	NA	1	NA	305	NA	0	NA	1.37	NA	1.49	NA	2.3	0	NA	0	305	0
6039	2.03	11.11	1	10	1.35	5.05	1	4	3.38	16.16	2	14	34	19	1	9	3.08	7.99	1.59	5.81	4.26	13.11	47.37	2.94	10	53	18.87
6045	2.42	NA	1	NA	1.73	NA	0	NA	4.9	NA	3	NA	105	NA	5	NA	2.72	NA	2.55	NA	9.47	NA	NA	4.76	5	105	4.76
6046	2.13	4.23	2	4	1.45	3.25	0.5	2	3.58	7.48	3	6	144	48	2	7	2.19	3.5	3.32	3.76	4.72	5.82	14.58	1.39	9	192	4.69
6049	8.21	NA	5	NA	3.52	NA	1	NA	11.73	NA	7	NA	145	NA	39	NA	11.12	NA	5.39	NA	14.63	NA	NA	26.9	39	145	26.9
6052	2.21	31.56	2	19	0.66	22	0	9	2.87	53.56	2	27	105	9	1	7	3.22	24.69	1.05	38.45	3.6	53.48	77.78	0.95	8	114	7.02
6070	3.39	11.95	3	8	1.71	9.27	1	2	5.1	21.22	4	12	111	41	3	18	4.64	12.69	2.4	14.51	5.93	24.55	43.9	2.7	21	152	13.82
6087	3.51	NA	3	NA	1.96	NA	1	NA	5.48	NA	4	NA	101	NA	5	NA	4.04	NA	3.25	NA	5.67	NA	NA	4.95	5	101	4.95
6089	3.52	NA	3	NA	1.65	NA	0	NA	5.16	NA	4	NA	99	NA	4	NA	2.78	NA	2.47	NA	4.43	NA	NA	4.04	4	99	4.04
6113	0.98	4.31	1	3.5	0.53	5.38	0	2.5	1.51	9.69	1	8.5	247	16	0	3	1.27	3.55	1.39	8.55	2	10.56	18.75	0	3	263	1.14
6123	NA	2.65	NA	2	NA	1.53	NA	1	NA	4.18	NA	4	NA	66	NA	1	NA	2.06	NA	1.88	NA	3.29	1.52	NA	1	66	1.52
6134	NA	3.42	NA	3	NA	7.01	NA	3	NA	10.43	NA	7	NA	67	NA	13	NA	2.25	NA	10.73	NA	11.07	19.4	NA	13	67	19.4
6158	NA	2.32	NA	2	NA	2.19	NA	1	NA	4.5	NA	3	NA	199	NA	6	NA	2.02	NA	3.16	NA	4.05	3.02	NA	6	199	3.02
6160	NA	1.07	NA	1	NA	0.93	NA	0	NA	2	NA	1	NA	306	NA	4	NA	1.31	NA	2.15	NA	2.97	1.31	NA	4	306	1.31
6162	NA	2.95	NA	2	NA	3.66	NA	2	NA	6.61	NA	4	NA	64	NA	7	NA	2.72	NA	5.14	NA	7.24	10.94	NA	7	64	10.94
6167	NA	4.71	NA	4	NA	5.58	NA	3	NA	10.29	NA	8	NA	65	NA	11	NA	2.49	NA	7.15	NA	8.6	16.92	NA	11	65	16.92
6171	NA	4.35	NA	4	NA	1.42	NA	1	NA	5.77	NA	5	NA	57	NA	3	NA	3.06	NA	2.16	NA	4.22	5.26	NA	3	57	5.26
6172	NA	1.07	NA	1	NA	1.49	NA	1	NA	2.56	NA	2	NA	206	NA	1	NA	1.36	NA	2.86	NA	3.42	0.49	NA	1	206	0.49
6178	NA	2.76	NA	2	NA	1.27	NA	0	NA	4.02	NA	4	NA	49	NA	0	NA	2.6	NA	1.69	NA	3.51	0	NA	0	49	0
6179	NA	3.68	NA	3	NA	1.53	NA	1	NA	5.21	NA	4	NA	224	NA	18	NA	3.29	NA	2.72	NA	5.03	8.04	NA	18	224	8.04
6197	NA	3.37	NA	3	NA	2.87	NA	2	NA	6.25	NA	5	NA	230	NA	18	NA	3.02	NA	3.26	NA	5.49	7.83	NA	18	230	7.83
6209	3.03	12.56	1	8	0.94	5.18	0	2	3.96	17.73	2	9	190	45	10	15	5.4	16.59	2.61	7.99	6.46	23	33.33	5.26	25	235	10.64
6224	1.25	2.13	1	2	0.87	1.25	0	1	2.11	3.38	1	3	142	16	1	0	2.36	1.26	1.52	1.13	3.05	2.03	0	0.7	1	158	0.63
6230	NA	0.86	NA	0	NA	0.4	NA	0	NA	1.06	NA	0	NA	577	NA	1	NA	1.21	NA	1.06	NA	1.53	0.17	NA	1	577	0.17
6243	2.73	7.06	2	5.5	0.87	4.78	0	3	3.6	11.84	3	10	114	88	1	30	2.41	5.28	1.7	5.9	3.28	9.86	34.09	0.88	31	202	15.35
