ID	AIRE	DEAF1	FEZF2	INS	GAD2	PTPRN	G6PC2	CHGA	SLC30A8	ICA1	IAPP	CELA1	AMBP	ARRB1	TYR	MLANA	TGFB1	IL10	IL27	IL12A	EBI3	IL1RN	LGALS1	LGALS9	TSLP	ENTPD1	NT5E	CD274	PDCD1LG2	SEMA4A	VTCN1	ICOSLG	TNFRSF14	LILRB4	LILRB2	FAS	FASLG	IDO1	ALDH1A1	ARG1	ARG2	NOS2	HMOX1	TNFAIP3
6371	0.18775	1.49335905281476	0	0.483101257086631	0	0.0159563856588196	0	0	0	5.0423244641016	0	0	0	0	0.0576295641309292	1.14971295774518	10.7950197319045	0.0193583388699024	0	0.322410236201224	1.41282216907566	0.0372672297214613	65.7607896310769	1.94885951229785	0.856810432571145	4.211158990146	4.68084820874856	1.36859055331348	0.886142625350649	0.158348073761441	0.170354038792566	0.306803316864676	4.24832322958975	0.0443878401384652	0.0458421326503436	4.25341081381343	0.0106294135717818	0.541248876152157	4.48232494774817	0	1.72623276963213	0.276058741850352	8.75488156126738	140.865695700848
6397	0.0876	2.14208647651425	0	0.0428914934586197	3e-04	0.0807585553970731	3.00711244468628e-05	0	0	7.75567189049022	0.00135275243388272	0.00725	0.14205	0	0	0.142881794311569	8.86896836366409	0.0184096571839538	0.0172192133866775	0.446886266605254	1.17287901912691	0.0355411424126586	51.7925074348606	3.90144016464627	2.3925360819369	3.67006657313148	3.98240901794826	1.22512330648714	1.25600121923451	0.13177191692004	0.0491375823256161	0.230011390785785	8.80042487989154	0.0472463195058842	0.0403411917094123	5.04139268956021	0.22172582837362	0.135488241896643	10.6698304454396	0.01525	1.25160527206921	2.46736616257464	18.0708672025112	49.2869911428626
6413	0	4.1	0.02	0	0	0.004	0	0	0	12.85	0	0	0	0	7e-04	1.955	7.45	0	0	0.218	0.083	0	5.63	6.189	0.981	9.54	2.986	1.59	0.693	0.157	0.078	0.077	9.39	0	0	1.486	0	0	1.365	0	0.413	0.003	0.559	26.86
6414	0.123	1.693	0	0	0	0.000533333333333333	0	0	0	21.8506666666667	0	0.00133333333333333	0	0	0.004	2.41666666666667	17.07	0.00766666666666667	0.000633333333333333	0.172	0.285333333333333	0.196666666666667	26.8266666666667	6.00333333333333	2.19666666666667	7.55333333333333	3.41466666666667	1.35866666666667	1.57766666666667	0.179566666666667	0.131333333333333	0.378666666666667	9.81	0	0	6.08666666666667	0.143	0.167666666666667	3.37566666666667	0.373333333333333	2.72733333333333	0.00523333333333333	4.81066666666667	210.586666666667
6422	0.03	0	0	0.03	0	0.034	0.028	3e-04	0	4.588	0	0	0	0	0	7.52	19.23	1.04	0	1.173	0.647	0.756	11.85	6.421	0	2.29	1.897	0.261	0	0.028	0	2.987	5.454	0.876	0.89	4.93	2.02	0.543	0.232	0	2.84	0.08	0.71	42.2915160086905
6424	0.00025	0	0	0.16	0	0.03375	0	0	0	4.73025	0	0	0	0	0	0.53175	10.1395	0.028	0.00075	0.2555	0.24175	0.09175	15.185	5.3125	1.532	5.84375	6.32375	0.662925	1.262	0.15325	0.14	0.177725	6.163	0.10775	0.19275	8.545	0.01	0.081	6.37875	0.02525	1.5545	0.36575	2.5635	37.1027397287158
6432	0	0	0.01	0.186666666666667	0.0133333333333333	0.0233333333333333	0	0.0383333333333333	0	3.596	0	0	0	0	0	6.03033333333333	7.23333333333333	0	0	0.0613333333333333	0.295898874499735	0.0266666666666667	31.48	2.78666666666667	4.63666666666667	3.21533315583712	7.01300236241286	1.497	1.944	1.83233333333333	0.160666666666667	0.446666666666667	4.83266666666667	0.324333333333333	0.035	7.78	0.01	0.0866666666666667	18.2379558488422	0	1.06528202590821	0.204666666666667	20.7266666666667	89.0358754765498
6449	0	2.98	0	0	0	0.423	0.0115	0	0	0	0	0	0	0	0.34	26.79	14.14	0	0.4185	0.82	0	0	148	1.025	1.73	4.98	12.81	0	7.315	0.23	1.515	1.97	9.19	0.115	0	22.49	0	0.0395	88.21	0.83	3.69	0.235	3.125	219.2
6450	0.12625	1.87975	0.002	0.01725	0	0.158425	0.007425	0	0	2.48	0	0	0	0	0.04125	3.217	6.1475	0.06875	0.009625	0.5255	0.16625	0	128.655	2.71475	1.0795	2.79075	3.5215	0.2395	1.50975	0.0015	0.193	0.26925	5.2825	0.046	0.25775	12.982	0	0.01125	31.67	1e-04	0.77175	0.183	9.125	81.465
6454	0.01575	2.32925	0.00075	0.03725	0.00475	0.04325	0.000275	0	0	10.438	0.00125	0	0	0	0.00375	1.4525	15.84	0.31525	0.00042	0.359	1.06675	0.202	38.1175	6.1725	2.69875	5.31125	5.675	2.295	1.9175	0.5025	0.13375	0.294	9.87	0.13775	0.25625	6.405	0	0.24825	8.575	0.1435	3.2225	1.1575	17.7875	317.4075
6456	0.47	3.0375	0	0.06175	0.005	1.225	0.05915	0.0265	0.0018	14.5575	0.194	0.108	0.0445	0	0.1674	2.087	11.5	0.162	0.00735	0.5755	2.037	0.2	37.485	5.475	2.2325	5.44	3.36	3.5965	3.82	0.674	0.155	0.5875	12.1275	0.23125	0.217	9.695	0.825	0.4485	16.1575	0.0585	3.99225	2.5145	13.65	423
6457	0.029	2.66466666666667	0.00266666666666667	0.324666666666667	0	0.0403333333333333	0	0.002	0	16.0166666666667	0.00733333333333333	0	0	0	0.00833333333333333	1.76	14.1	0.157	0.0105333333333333	0.916	4.028	0.0996666666666667	80.6766666666667	15.6133333333333	7.43	6.19	8.72	5.87666666666667	3.50333333333333	0.515666666666667	0.185666666666667	0.206666666666667	16.0933333333333	0.09	0.240333333333333	9.18966666666667	0.48	0.697	19.0633333333333	0	4.23	3.33133333333333	29.0966666666667	390.866666666667
6458	0.006	1.777	0.00325	0.55875	0	1.98675	0.043725	0	0	13.0495	0	0	0.00275	0	0.07225	19.14	11.745	0.06425	0.084	0.72025	2.8465	0.0435	124.205	14.85	4.0385	8.2325	13.38	3.55	7.06	0.20425	1.5015	0.808	12.625	0.084	0.16625	27.175	0.02475	0.0745	25.4325	0	3.8225	2.9675	12.8725	239.775
6459	0.0065	2.226	0.01	0.08775	0	0.0398	0	3.465	1.4	14.3225	0.00085	0	0.101	0	0.1295	6.982	12.615	0.164	0.006475	1.22425	2.1185	0.02425	98.2475	8.3125	5.415	7.085	6.415	1.708	4.5425	0.07525	0.16725	0.59825	15.4025	0.2045	0.215	9.81125	0	3.2275	15.39975	0.2325	3.29725	0.7935	16.86	312.6825
