ID	BM.periislet	IM.periislet	InsPos.CD45.prct	InsNeg.prct
6024	1	1	NA	NA
6013	1	1	NA	NA
6019	1	1	NA	NA
6052	0	1	5.1	94.9
6070	1	1	9.5	90.5
6064	1	1	NA	NA
6063	1	1	NA	NA
6062	1	1	NA	NA
6086	0	1	NA	NA
6085	1	1	NA	NA
