ID	Ins.pos	Proins.phenotype	Proins.Ins.ratio
6015	1	Multiple costaining cells	0.365
6029	1	Multiple costaining cells	1.13
6034	1	Multiple costaining cells	0.283
6055	1	Multiple costaining cells	0.42
6104	1	Multiple costaining cells	0.34
6179	1	Multiple costaining cells	0.207
6229	1	Multiple costaining cells	0.534
6038	1	Multiple costaining cells	0.498
6041	0	None	NA
6054	0	None	NA
6077	0	None	NA
6141	0	None	NA
6143	0	None	NA
6173	0	None	NA
6180	0	None	NA
6208	0	None	NA
6040	1	Pseudoatrophic islets with rare insulin+ cells which were mostly PI-enriched, insulin poor cells	7.15
6069	1	Mixed beta cell phenotype with some islets displaying mostly costaining cells and some islets with numerous PI-enriched, insulin poor cells	2.1
6070	1	Multiple costaining cells	0.423
6121	1	Multiple costaining cells	13.6
6211	1	Occasional PI-enriched, insulin-poor cells	0.762
6224	1	Multiple costaining cells	1.22
6237	1	Rare isolated insulin+ cells, all costain	1.55
6243	1	Clusters of PI-enriched insulin-poor cells	1.01
