ID	IP3R2	IP3R2_SEM	TOM20	TOM20_SEM	MFN2	MFN2_SEM	VDAC1	VDAC1_SEM	IP3R2.VDAC1	IP3R2.VDAC1_SEM
6028	19.86	1.61	118.48	8.04	28.33	1.73	32.85	3.1	1.44	0.08
6059	61.46	7.77	15.29	1.67	22.79	1.73	42.43	3.79	1.14	0.13
6108	75.94	7.49	44.15	6.33	54.12	6.04	161.96	8.06	1.13	0.05
6110	63.05	6	75.68	6.05	66.72	4.03	43.13	2.87	1.41	0.09
6114	99.05	2.57	48.8	3.46	55.13	4.35	205.78	6.04	0.6	0.03
6124	68.06	3.31	29.8	3.27	36.57	1.64	196.33	9.63	0.88	0.05
6127	27.64	4.61	31.97	4.21	33.78	2.56	NA	NA	0.38	0.06
6132	22.54	0.94	120.04	11.18	26.23	1.74	191.88	7.44	NA	NA
6133	94.79	3.92	20.01	2.1	34.86	0.56	140.23	10.25	1.92	0.06
6221	33.78	0.72	NA	NA	15.2	0.79	89.65	4.83	1	0.05
6249	17.52	1.05	66.21	8.6	NA	NA	95.25	6.42	1.33	0.07
6255	79.55	7.01	49.47	5.99	37.28	5.56	110.6	5.03	1.51	0.08
6009	24.13	0.89	NA	NA	17.78	1.02	130.83	15.41	2.05	0.14
6013	22.64	1.83	93.08	9.47	17.35	2.59	98.77	12.22	2.03	0.07
6057	35.23	2.02	68.56	2.41	25.44	1.92	64.85	5.47	2.5	0.11
6179	40.3	3.64	101.84	8.82	39.86	6.79	80.37	8.11	NA	NA
6229	49.06	4.15	77.19	9.06	43.16	2.48	242.88	1.43	2.8	0.19
6233	45.85	4.26	23.08	5.57	36.45	1.04	65.52	2.02	1.22	0.06
6235	53.67	4.44	19.07	1.32	48.59	3.48	94.87	8.26	1.72	0.08
6288	23.04	0.53	19.17	4.42	58.54	5.13	NA	NA	1.57	0.11
6290	18.74	1.88	134.08	7.38	31.52	3.42	74.76	2.81	2.55	0.18
